StartFontMetrics 2.0
Comment Generated by FontForge 20161003
Comment Creation Date: Thu Feb  9 11:18:57 2017
FontName HPSimplifiedW02-Regular
FullName HP Simplified Regular
FamilyName HP Simplified
Weight Normal
Notice ((c) Copyright 2012 Hewlett-Packard Development Company, L.P.)
ItalicAngle 0
IsFixedPitch false
UnderlinePosition -120
UnderlineThickness 50
Version 1,000
EncodingScheme ISO10646-1
FontBBox -158 -199 1080 919
CapHeight 693
XHeight 509
Ascender 718
Descender -170
StartCharMetrics 394
C 32 ; WX 202 ; N space ; B 0 0 0 0 ;
C 33 ; WX 263 ; N exclam ; B 65 -6 199 693 ;
C 34 ; WX 352 ; N quotedbl ; B 46 470 305 693 ;
C 35 ; WX 579 ; N numbersign ; B 49 0 530 672 ;
C 36 ; WX 536 ; N dollar ; B 60 -98 477 768 ;
C 37 ; WX 784 ; N percent ; B 39 -9 746 688 ;
C 38 ; WX 639 ; N ampersand ; B 43 -12 616 704 ;
C 39 ; WX 190 ; N quoteright ; B 46 470 143 693 ;
C 40 ; WX 300 ; N parenleft ; B 62 -82 280 768 ;
C 41 ; WX 300 ; N parenright ; B 19 -82 238 768 ;
C 42 ; WX 406 ; N asterisk ; B 28 357 379 693 ;
C 43 ; WX 536 ; N plus ; B 68 132 468 552 ;
C 44 ; WX 250 ; N comma ; B 58 -124 191 121 ;
C 45 ; WX 385 ; N hyphen ; B 44 228 341 318 ;
C 46 ; WX 250 ; N period ; B 58 -6 192 121 ;
C 47 ; WX 367 ; N slash ; B 24 -83 341 768 ;
C 48 ; WX 536 ; N zero ; B 43 -11 493 693 ;
C 49 ; WX 536 ; N one ; B 84 0 345 693 ;
C 50 ; WX 536 ; N two ; B 64 0 465 693 ;
C 51 ; WX 536 ; N three ; B 53 -11 456 693 ;
C 52 ; WX 536 ; N four ; B 38 0 490 677 ;
C 53 ; WX 536 ; N five ; B 74 -11 473 677 ;
C 54 ; WX 536 ; N six ; B 55 -11 489 692 ;
C 55 ; WX 536 ; N seven ; B 54 0 463 677 ;
C 56 ; WX 536 ; N eight ; B 44 -11 492 693 ;
C 57 ; WX 536 ; N nine ; B 47 -10 481 693 ;
C 58 ; WX 250 ; N colon ; B 58 -6 192 509 ;
C 59 ; WX 250 ; N semicolon ; B 58 -124 192 509 ;
C 60 ; WX 536 ; N less ; B 84 127 441 549 ;
C 61 ; WX 536 ; N equal ; B 68 198 468 479 ;
C 62 ; WX 536 ; N greater ; B 95 134 452 556 ;
C 63 ; WX 426 ; N question ; B 39 -6 384 703 ;
C 64 ; WX 835 ; N at ; B 51 -150 789 687 ;
C 65 ; WX 553 ; N A ; B 32 0 525 693 ;
C 66 ; WX 557 ; N B ; B 70 0 514 700 ;
C 67 ; WX 503 ; N C ; B 56 -11 468 703 ;
C 68 ; WX 602 ; N D ; B 70 0 546 700 ;
C 69 ; WX 513 ; N E ; B 70 0 473 693 ;
C 70 ; WX 484 ; N F ; B 70 0 450 693 ;
C 71 ; WX 572 ; N G ; B 56 -11 516 703 ;
C 72 ; WX 607 ; N H ; B 70 0 537 693 ;
C 73 ; WX 245 ; N I ; B 70 0 175 693 ;
C 74 ; WX 379 ; N J ; B 27 -9 312 693 ;
C 75 ; WX 553 ; N K ; B 70 0 541 693 ;
C 76 ; WX 472 ; N L ; B 70 0 445 693 ;
C 77 ; WX 714 ; N M ; B 61 0 653 693 ;
C 78 ; WX 613 ; N N ; B 70 0 543 693 ;
C 79 ; WX 613 ; N O ; B 56 -12 557 704 ;
C 80 ; WX 551 ; N P ; B 70 0 507 700 ;
C 81 ; WX 613 ; N Q ; B 56 -129 563 704 ;
C 82 ; WX 567 ; N R ; B 70 0 543 700 ;
C 83 ; WX 515 ; N S ; B 48 -11 466 703 ;
C 84 ; WX 525 ; N T ; B 27 0 499 693 ;
C 85 ; WX 594 ; N U ; B 66 -11 528 693 ;
C 86 ; WX 552 ; N V ; B 28 0 522 693 ;
C 87 ; WX 793 ; N W ; B 36 0 755 693 ;
C 88 ; WX 557 ; N X ; B 36 0 527 693 ;
C 89 ; WX 525 ; N Y ; B 19 0 499 693 ;
C 90 ; WX 524 ; N Z ; B 38 0 486 693 ;
C 91 ; WX 324 ; N bracketleft ; B 69 -83 297 768 ;
C 92 ; WX 367 ; N backslash ; B 18 -83 349 768 ;
C 93 ; WX 324 ; N bracketright ; B 27 -83 255 768 ;
C 94 ; WX 536 ; N asciicircum ; B 64 337 480 681 ;
C 95 ; WX 504 ; N underscore ; B 0 -128 504 -44 ;
C 96 ; WX 434 ; N quoteleft ; B 92 573 268 721 ;
C 97 ; WX 498 ; N a ; B 41 -9 439 520 ;
C 98 ; WX 521 ; N b ; B 61 -11 472 718 ;
C 99 ; WX 424 ; N c ; B 49 -11 388 520 ;
C 100 ; WX 521 ; N d ; B 49 -9 460 718 ;
C 101 ; WX 496 ; N e ; B 49 -11 448 521 ;
C 102 ; WX 341 ; N f ; B 31 0 325 729 ;
C 103 ; WX 519 ; N g ; B 49 -178 485 516 ;
C 104 ; WX 524 ; N h ; B 61 0 465 718 ;
C 105 ; WX 227 ; N i ; B 53 0 177 699 ;
C 106 ; WX 227 ; N j ; B -29 -174 177 699 ;
C 107 ; WX 491 ; N k ; B 61 0 476 718 ;
C 108 ; WX 261 ; N l ; B 61 -6 235 718 ;
C 109 ; WX 805 ; N m ; B 61 0 746 520 ;
C 110 ; WX 524 ; N n ; B 61 0 465 520 ;
C 111 ; WX 526 ; N o ; B 49 -12 477 521 ;
C 112 ; WX 524 ; N p ; B 34 -170 475 516 ;
C 113 ; WX 524 ; N q ; B 49 -170 490 516 ;
C 114 ; WX 351 ; N r ; B 61 0 326 512 ;
C 115 ; WX 442 ; N s ; B 39 -11 402 521 ;
C 116 ; WX 349 ; N t ; B 31 -9 313 641 ;
C 117 ; WX 524 ; N u ; B 59 -11 463 509 ;
C 118 ; WX 476 ; N v ; B 26 0 446 509 ;
C 119 ; WX 700 ; N w ; B 33 0 664 509 ;
C 120 ; WX 479 ; N x ; B 26 0 459 509 ;
C 121 ; WX 480 ; N y ; B 27 -174 446 509 ;
C 122 ; WX 457 ; N z ; B 40 0 418 509 ;
C 123 ; WX 338 ; N braceleft ; B 42 -87 311 772 ;
C 124 ; WX 288 ; N bar ; B 96 -83 191 768 ;
C 125 ; WX 338 ; N braceright ; B 27 -87 296 772 ;
C 126 ; WX 536 ; N asciitilde ; B 58 254 479 412 ;
C 160 ; WX 202 ; N nbspace ; B 0 0 0 0 ;
C 161 ; WX 263 ; N exclamdown ; B 64 -171 198 528 ;
C 162 ; WX 536 ; N cent ; B 98 -12 455 693 ;
C 163 ; WX 536 ; N sterling ; B 74 0 494 693 ;
C 164 ; WX 536 ; N currency ; B 36 105 500 573 ;
C 165 ; WX 536 ; N yen ; B 25 0 488 677 ;
C 166 ; WX 288 ; N brokenbar ; B 96 -83 191 768 ;
C 167 ; WX 523 ; N section ; B 47 -100 479 707 ;
C 168 ; WX 434 ; N dieresis ; B 66 590 368 698 ;
C 169 ; WX 786 ; N copyright ; B 50 -11 736 703 ;
C 170 ; WX 364 ; N ordfeminine ; B 39 251 310 706 ;
C 171 ; WX 436 ; N guillemotleft ; B 40 69 398 449 ;
C 172 ; WX 536 ; N logicalnot ; B 68 188 459 442 ;
C 173 ; WX 385 ; N sfthyphen ; B 44 228 341 318 ;
C 174 ; WX 491 ; N registered ; B 37 307 453 731 ;
C 175 ; WX 434 ; N macron ; B 90 603 344 679 ;
C 176 ; WX 341 ; N degree ; B 39 435 302 697 ;
C 177 ; WX 536 ; N plusminus ; B 68 0 468 564 ;
C 178 ; WX 378 ; N twosuperior ; B 52 281 325 684 ;
C 179 ; WX 378 ; N threesuperior ; B 45 274 318 684 ;
C 180 ; WX 434 ; N acute ; B 167 573 330 721 ;
C 181 ; WX 526 ; N mu ; B 61 -170 465 509 ;
C 182 ; WX 577 ; N paragraph ; B 47 -83 530 699 ;
C 183 ; WX 250 ; N periodcentered ; B 58 277 192 404 ;
C 184 ; WX 434 ; N cedilla ; B 130 -199 290 5 ;
C 185 ; WX 378 ; N onesuperior ; B 62 281 251 687 ;
C 186 ; WX 364 ; N ordmasculine ; B 41 251 323 706 ;
C 187 ; WX 436 ; N guillemotright ; B 40 69 398 449 ;
C 188 ; WX 901 ; N onequarter ; B 62 0 862 687 ;
C 189 ; WX 901 ; N onehalf ; B 62 0 848 687 ;
C 190 ; WX 901 ; N threequarters ; B 45 0 862 684 ;
C 191 ; WX 426 ; N questiondown ; B 42 -180 387 529 ;
C 192 ; WX 553 ; N Agrave ; B 32 0 525 883 ;
C 193 ; WX 553 ; N Aacute ; B 32 0 525 883 ;
C 194 ; WX 553 ; N Acircumflex ; B 32 0 525 883 ;
C 195 ; WX 553 ; N Atilde ; B 32 0 525 874 ;
C 196 ; WX 553 ; N Adieresis ; B 32 0 525 866 ;
C 197 ; WX 553 ; N Aring ; B 32 0 525 919 ;
C 198 ; WX 798 ; N AE ; B 31 0 758 693 ;
C 199 ; WX 503 ; N Ccedilla ; B 56 -199 468 703 ;
C 200 ; WX 513 ; N Egrave ; B 70 0 473 883 ;
C 201 ; WX 513 ; N Eacute ; B 70 0 473 883 ;
C 202 ; WX 513 ; N Ecircumflex ; B 70 0 473 883 ;
C 203 ; WX 513 ; N Edieresis ; B 70 0 473 866 ;
C 204 ; WX 245 ; N Igrave ; B -5 0 182 883 ;
C 205 ; WX 245 ; N Iacute ; B 70 0 240 883 ;
C 206 ; WX 245 ; N Icircumflex ; B 0 0 261 883 ;
C 207 ; WX 245 ; N Idieresis ; B -26 0 276 866 ;
C 208 ; WX 628 ; N Eth ; B 20 0 572 700 ;
C 209 ; WX 613 ; N Ntilde ; B 70 0 543 874 ;
C 210 ; WX 613 ; N Ograve ; B 56 -12 557 883 ;
C 211 ; WX 613 ; N Oacute ; B 56 -12 557 883 ;
C 212 ; WX 613 ; N Ocircumflex ; B 56 -12 557 883 ;
C 213 ; WX 613 ; N Otilde ; B 56 -12 557 874 ;
C 214 ; WX 613 ; N Odieresis ; B 56 -12 557 866 ;
C 215 ; WX 536 ; N multiply ; B 87 162 449 522 ;
C 216 ; WX 613 ; N Oslash ; B 54 -35 558 726 ;
C 217 ; WX 594 ; N Ugrave ; B 66 -11 528 883 ;
C 218 ; WX 594 ; N Uacute ; B 66 -11 528 883 ;
C 219 ; WX 594 ; N Ucircumflex ; B 66 -11 528 883 ;
C 220 ; WX 594 ; N Udieresis ; B 66 -11 528 866 ;
C 221 ; WX 525 ; N Yacute ; B 19 0 499 883 ;
C 222 ; WX 544 ; N Thorn ; B 70 0 509 693 ;
C 223 ; WX 546 ; N germandbls ; B 56 -7 511 728 ;
C 224 ; WX 498 ; N agrave ; B 41 -9 439 721 ;
C 225 ; WX 498 ; N aacute ; B 41 -9 439 721 ;
C 226 ; WX 498 ; N acircumflex ; B 41 -9 439 721 ;
C 227 ; WX 498 ; N atilde ; B 41 -9 439 704 ;
C 228 ; WX 498 ; N adieresis ; B 41 -9 439 698 ;
C 229 ; WX 498 ; N aring ; B 41 -9 439 761 ;
C 230 ; WX 758 ; N ae ; B 41 -11 710 521 ;
C 231 ; WX 424 ; N ccedilla ; B 49 -199 388 520 ;
C 232 ; WX 496 ; N egrave ; B 49 -11 448 721 ;
C 233 ; WX 496 ; N eacute ; B 49 -11 448 721 ;
C 234 ; WX 496 ; N ecircumflex ; B 49 -11 448 721 ;
C 235 ; WX 496 ; N edieresis ; B 49 -11 448 698 ;
C 236 ; WX 227 ; N igrave ; B -10 0 166 721 ;
C 237 ; WX 227 ; N iacute ; B 63 0 229 721 ;
C 238 ; WX 227 ; N icircumflex ; B -8 0 243 721 ;
C 239 ; WX 227 ; N idieresis ; B -36 0 266 698 ;
C 240 ; WX 522 ; N eth ; B 49 -12 472 722 ;
C 241 ; WX 524 ; N ntilde ; B 61 0 465 704 ;
C 242 ; WX 526 ; N ograve ; B 49 -12 477 721 ;
C 243 ; WX 526 ; N oacute ; B 49 -12 477 721 ;
C 244 ; WX 526 ; N ocircumflex ; B 49 -12 477 721 ;
C 245 ; WX 526 ; N otilde ; B 49 -12 477 704 ;
C 246 ; WX 526 ; N odieresis ; B 49 -12 477 698 ;
C 247 ; WX 536 ; N divide ; B 68 118 468 565 ;
C 248 ; WX 526 ; N oslash ; B 31 -36 497 544 ;
C 249 ; WX 524 ; N ugrave ; B 59 -11 463 721 ;
C 250 ; WX 524 ; N uacute ; B 59 -11 463 721 ;
C 251 ; WX 524 ; N ucircumflex ; B 59 -11 463 721 ;
C 252 ; WX 524 ; N udieresis ; B 59 -11 463 698 ;
C 253 ; WX 480 ; N yacute ; B 27 -174 446 721 ;
C 254 ; WX 531 ; N thorn ; B 71 -170 481 718 ;
C 255 ; WX 480 ; N Ydieresis ; B 27 -174 446 698 ;
C -1 ; WX 553 ; N Amacron ; B 32 0 525 848 ;
C -1 ; WX 498 ; N amacron ; B 41 -9 439 679 ;
C -1 ; WX 553 ; N Abreve ; B 32 0 525 881 ;
C -1 ; WX 498 ; N abreve ; B 41 -9 439 709 ;
C -1 ; WX 553 ; N Aogonek ; B 32 -184 525 693 ;
C -1 ; WX 498 ; N aogonek ; B 41 -184 441 520 ;
C -1 ; WX 503 ; N Cacute ; B 56 -11 468 883 ;
C -1 ; WX 424 ; N cacute ; B 49 -11 388 721 ;
C -1 ; WX 503 ; N Ccircumflex ; B 56 -11 468 883 ;
C -1 ; WX 424 ; N ccircumflex ; B 49 -11 388 721 ;
C -1 ; WX 503 ; N Cdot ; B 56 -11 468 871 ;
C -1 ; WX 424 ; N cdot ; B 49 -11 388 699 ;
C -1 ; WX 503 ; N Ccaron ; B 56 -11 468 883 ;
C -1 ; WX 424 ; N ccaron ; B 49 -11 388 721 ;
C -1 ; WX 602 ; N Dcaron ; B 70 0 546 883 ;
C -1 ; WX 607 ; N dcaron ; B 49 -9 607 722 ;
C -1 ; WX 628 ; N Dcroat ; B 20 0 572 700 ;
C -1 ; WX 521 ; N dcroat ; B 49 -9 516 718 ;
C -1 ; WX 513 ; N Emacron ; B 70 0 473 848 ;
C -1 ; WX 496 ; N emacron ; B 49 -11 448 679 ;
C -1 ; WX 513 ; N Ebreve ; B 70 0 473 881 ;
C -1 ; WX 496 ; N ebreve ; B 49 -11 448 709 ;
C -1 ; WX 513 ; N Edot ; B 70 0 473 870 ;
C -1 ; WX 496 ; N edot ; B 49 -11 448 699 ;
C -1 ; WX 513 ; N Eogonek ; B 70 -184 475 693 ;
C -1 ; WX 496 ; N eogonek ; B 49 -184 448 521 ;
C -1 ; WX 513 ; N Ecaron ; B 70 0 473 883 ;
C -1 ; WX 496 ; N ecaron ; B 49 -11 448 721 ;
C -1 ; WX 572 ; N Gcircumflex ; B 56 -11 516 883 ;
C -1 ; WX 519 ; N gcircumflex ; B 49 -178 485 721 ;
C -1 ; WX 572 ; N Gbreve ; B 56 -11 516 881 ;
C -1 ; WX 519 ; N gbreve ; B 49 -178 485 709 ;
C -1 ; WX 572 ; N Gdot ; B 56 -11 516 870 ;
C -1 ; WX 519 ; N gdot ; B 49 -178 485 699 ;
C -1 ; WX 572 ; N Gcedilla ; B 56 -199 516 703 ;
C -1 ; WX 519 ; N gcedilla ; B 49 -178 485 723 ;
C -1 ; WX 607 ; N Hcircumflex ; B 70 0 537 883 ;
C -1 ; WX 524 ; N hcircumflex ; B 61 0 465 887 ;
C -1 ; WX 650 ; N Hbar ; B 35 0 615 693 ;
C -1 ; WX 524 ; N hbar ; B 5 0 465 718 ;
C -1 ; WX 245 ; N Itilde ; B -28 0 278 874 ;
C -1 ; WX 227 ; N itilde ; B -38 0 268 704 ;
C -1 ; WX 245 ; N Imacron ; B -2 0 252 848 ;
C -1 ; WX 227 ; N imacron ; B -11 0 243 679 ;
C -1 ; WX 245 ; N Iogonek ; B 30 -184 183 693 ;
C -1 ; WX 227 ; N iogonek ; B 30 -184 185 699 ;
C -1 ; WX 245 ; N Idot ; B 63 0 186 870 ;
C -1 ; WX 227 ; N dotlessi ; B 63 0 164 509 ;
C -1 ; WX 624 ; N IJ ; B 70 -9 557 693 ;
C -1 ; WX 461 ; N ij ; B 53 -174 409 699 ;
C -1 ; WX 379 ; N Jcircumflex ; B 27 -9 396 883 ;
C -1 ; WX 227 ; N jcircumflex ; B -29 -174 242 721 ;
C -1 ; WX 553 ; N Kcedilla ; B 70 -199 541 693 ;
C -1 ; WX 491 ; N kcedilla ; B 61 -199 476 718 ;
C -1 ; WX 472 ; N Lacute ; B 70 0 445 883 ;
C -1 ; WX 261 ; N lacute ; B 61 -6 235 887 ;
C -1 ; WX 472 ; N Lcedilla ; B 70 -199 445 693 ;
C -1 ; WX 261 ; N lcedilla ; B 61 -199 235 718 ;
C -1 ; WX 472 ; N Lcaron ; B 70 0 445 699 ;
C -1 ; WX 261 ; N lcaron ; B 61 -6 309 722 ;
C -1 ; WX 472 ; N Ldot ; B 70 0 445 693 ;
C -1 ; WX 335 ; N ldot ; B 61 -6 342 718 ;
C -1 ; WX 487 ; N Lslash ; B 8 0 460 693 ;
C -1 ; WX 287 ; N lslash ; B 7 -6 263 718 ;
C -1 ; WX 613 ; N Nacute ; B 70 0 543 883 ;
C -1 ; WX 524 ; N nacute ; B 61 0 465 721 ;
C -1 ; WX 613 ; N Ncedilla ; B 70 -199 543 693 ;
C -1 ; WX 524 ; N ncedilla ; B 61 -199 465 520 ;
C -1 ; WX 613 ; N Ncaron ; B 70 0 543 883 ;
C -1 ; WX 524 ; N ncaron ; B 61 0 465 721 ;
C -1 ; WX 556 ; N napostrophe ; B -10 0 497 733 ;
C -1 ; WX 613 ; N Omacron ; B 56 -12 557 848 ;
C -1 ; WX 526 ; N omacron ; B 49 -12 477 679 ;
C -1 ; WX 613 ; N Obreve ; B 56 -12 557 881 ;
C -1 ; WX 526 ; N obreve ; B 49 -12 477 709 ;
C -1 ; WX 613 ; N Odblacute ; B 56 -12 557 883 ;
C -1 ; WX 526 ; N odblacute ; B 49 -12 477 721 ;
C -1 ; WX 809 ; N OE ; B 56 -11 769 703 ;
C -1 ; WX 795 ; N oe ; B 49 -12 747 521 ;
C -1 ; WX 567 ; N Racute ; B 70 0 543 883 ;
C -1 ; WX 351 ; N racute ; B 61 0 326 721 ;
C -1 ; WX 567 ; N Rcedilla ; B 70 -199 543 700 ;
C -1 ; WX 351 ; N rcedilla ; B 57 -199 326 512 ;
C -1 ; WX 567 ; N Rcaron ; B 70 0 543 883 ;
C -1 ; WX 351 ; N rcaron ; B 54 0 326 721 ;
C -1 ; WX 515 ; N Sacute ; B 48 -11 466 883 ;
C -1 ; WX 442 ; N sacute ; B 39 -11 402 721 ;
C -1 ; WX 515 ; N Scircumflex ; B 48 -11 466 883 ;
C -1 ; WX 442 ; N scircumflex ; B 39 -11 402 721 ;
C -1 ; WX 515 ; N Scedilla ; B 48 -199 466 703 ;
C -1 ; WX 442 ; N scedilla ; B 39 -199 402 521 ;
C -1 ; WX 515 ; N Scaron ; B 48 -11 466 883 ;
C -1 ; WX 442 ; N scaron ; B 39 -11 402 721 ;
C -1 ; WX 525 ; N Tcedilla ; B 27 -199 499 693 ;
C -1 ; WX 349 ; N tcedilla ; B 30 -197 312 641 ;
C -1 ; WX 525 ; N Tcaron ; B 27 0 499 883 ;
C -1 ; WX 356 ; N tcaron ; B 31 -9 337 727 ;
C -1 ; WX 525 ; N Tbar ; B 27 0 499 693 ;
C -1 ; WX 353 ; N tbar ; B 33 -9 315 641 ;
C -1 ; WX 594 ; N Utilde ; B 66 -11 528 874 ;
C -1 ; WX 524 ; N utilde ; B 59 -11 463 704 ;
C -1 ; WX 594 ; N Umacron ; B 66 -11 528 848 ;
C -1 ; WX 524 ; N umacron ; B 59 -11 463 679 ;
C -1 ; WX 594 ; N Ubreve ; B 66 -11 528 881 ;
C -1 ; WX 524 ; N ubreve ; B 59 -11 463 709 ;
C -1 ; WX 594 ; N Uring ; B 66 -11 528 919 ;
C -1 ; WX 524 ; N uring ; B 59 -11 463 761 ;
C -1 ; WX 594 ; N Udblacute ; B 66 -11 528 883 ;
C -1 ; WX 524 ; N udblacute ; B 59 -11 463 721 ;
C -1 ; WX 594 ; N Uogonek ; B 66 -184 528 693 ;
C -1 ; WX 524 ; N uogonek ; B 59 -184 465 509 ;
C -1 ; WX 793 ; N Wcircumflex ; B 36 0 755 883 ;
C -1 ; WX 700 ; N wcircumflex ; B 33 0 664 721 ;
C -1 ; WX 525 ; N Ycircumflex ; B 19 0 499 883 ;
C -1 ; WX 480 ; N ycircumflex ; B 27 -174 446 721 ;
C -1 ; WX 525 ; N Ydieresis ; B 19 0 499 866 ;
C -1 ; WX 524 ; N Zacute ; B 38 0 486 883 ;
C -1 ; WX 457 ; N zacute ; B 40 0 418 721 ;
C -1 ; WX 524 ; N Zdot ; B 38 0 486 870 ;
C -1 ; WX 457 ; N zdot ; B 40 0 418 699 ;
C -1 ; WX 524 ; N Zcaron ; B 38 0 486 883 ;
C -1 ; WX 457 ; N zcaron ; B 40 0 418 721 ;
C -1 ; WX 342 ; N florin ; B -30 -174 326 729 ;
C -1 ; WX 515 ; N Scommaaccent ; B 48 -199 466 703 ;
C -1 ; WX 442 ; N scommaaccent ; B 39 -199 402 521 ;
C -1 ; WX 525 ; N Tcommabelow ; B 27 -199 499 693 ;
C -1 ; WX 349 ; N tcommabelow ; B 31 -199 313 641 ;
C -1 ; WX 227 ; N dotlessj ; B -29 -174 164 509 ;
C -1 ; WX 434 ; N circumflex ; B 94 573 345 721 ;
C -1 ; WX 434 ; N caron ; B 90 573 338 721 ;
C -1 ; WX 434 ; N firsttonechinese ; B 90 603 344 679 ;
C -1 ; WX 434 ; N breve ; B 95 574 339 709 ;
C -1 ; WX 434 ; N dotaccent ; B 155 589 279 699 ;
C -1 ; WX 434 ; N ring ; B 115 568 319 761 ;
C -1 ; WX 434 ; N ogonek ; B 138 -184 291 1 ;
C -1 ; WX 434 ; N tilde ; B 64 580 370 704 ;
C -1 ; WX 434 ; N hungarumlaut ; B 103 573 400 721 ;
C -1 ; WX 552 ; N Deltagreek ; B 31 0 524 693 ;
C -1 ; WX 618 ; N Omegagreek ; B 53 0 565 704 ;
C -1 ; WX 526 ; N mugreek ; B 61 -170 465 509 ;
C -1 ; WX 562 ; N pi ; B 33 0 530 509 ;
C -1 ; WX 504 ; N endash ; B 0 273 504 357 ;
C -1 ; WX 1003 ; N emdash ; B 0 273 1003 357 ;
C -1 ; WX 217 ; N quoteleft ; B 44 461 173 694 ;
C -1 ; WX 217 ; N quoteright ; B 44 463 173 696 ;
C -1 ; WX 217 ; N quotesinglbase ; B 44 -110 173 123 ;
C -1 ; WX 393 ; N quotedblleft ; B 44 461 349 694 ;
C -1 ; WX 393 ; N quotedblright ; B 44 463 349 696 ;
C -1 ; WX 393 ; N quotedblbase ; B 44 -110 349 123 ;
C -1 ; WX 482 ; N dagger ; B 53 -83 429 693 ;
C -1 ; WX 482 ; N daggerdbl ; B 53 -83 429 693 ;
C -1 ; WX 417 ; N bullet ; B 72 212 345 480 ;
C -1 ; WX 749 ; N ellipsis ; B 58 -6 691 121 ;
C -1 ; WX 1118 ; N perthousand ; B 39 -9 1080 688 ;
C -1 ; WX 255 ; N guilsinglleft ; B 40 69 217 449 ;
C -1 ; WX 255 ; N guilsinglright ; B 40 69 217 449 ;
C -1 ; WX 158 ; N fraction ; B -158 0 316 677 ;
C -1 ; WX 378 ; N foursuperior ; B 35 281 339 677 ;
C -1 ; WX 536 ; N Euro ; B 42 -1 510 703 ;
C -1 ; WX 433 ; N afii61289 ; B 36 -9 383 729 ;
C -1 ; WX 730 ; N trademark ; B 22 320 683 693 ;
C -1 ; WX 618 ; N Ohm ; B 53 0 565 704 ;
C -1 ; WX 621 ; N estimated ; B 52 -14 569 538 ;
C -1 ; WX 520 ; N partialdiff ; B 48 -13 469 702 ;
C -1 ; WX 552 ; N Delta ; B 31 0 524 693 ;
C -1 ; WX 601 ; N product ; B 70 -96 531 693 ;
C -1 ; WX 506 ; N summation ; B 42 -96 478 693 ;
C -1 ; WX 536 ; N minus ; B 68 300 468 384 ;
C -1 ; WX 158 ; N divisionslash ; B -158 0 316 677 ;
C -1 ; WX 250 ; N bulletoperator ; B 58 277 192 404 ;
C -1 ; WX 544 ; N radical ; B 34 0 530 768 ;
C -1 ; WX 585 ; N infinity ; B 37 182 548 468 ;
C -1 ; WX 295 ; N integral ; B 23 -96 273 754 ;
C -1 ; WX 536 ; N approxequal ; B 59 162 478 516 ;
C -1 ; WX 536 ; N notequal ; B 72 71 465 607 ;
C -1 ; WX 536 ; N lessequal ; B 84 0 446 563 ;
C -1 ; WX 536 ; N greaterequal ; B 89 0 452 568 ;
C -1 ; WX 509 ; N lozenge ; B 30 0 478 677 ;
C -1 ; WX 528 ; N uniF001 ; B 31 0 476 729 ;
C -1 ; WX 564 ; N uniF002 ; B 31 -6 538 729 ;
C -1 ; WX 528 ; N fi ; B 31 0 476 729 ;
C -1 ; WX 564 ; N fl ; B 31 -6 538 729 ;
C -1 ; WX 202 ; N .notdef ; B 0 0 0 0 ;
C -1 ; WX 434 ; N glyph338 ; B 142 541 261 733 ;
C -1 ; WX 434 ; N glyph370 ; B 103 735 400 883 ;
C -1 ; WX 434 ; N glyph371 ; B 64 750 370 874 ;
C -1 ; WX 434 ; N glyph372 ; B 115 726 319 919 ;
C -1 ; WX 434 ; N glyph373 ; B 85 745 343 883 ;
C -1 ; WX 434 ; N glyph374 ; B 90 772 344 848 ;
C -1 ; WX 434 ; N glyph375 ; B 66 758 368 866 ;
C -1 ; WX 434 ; N glyph376 ; B 155 757 278 870 ;
C -1 ; WX 434 ; N glyph377 ; B 92 745 353 883 ;
C -1 ; WX 434 ; N glyph378 ; B 164 745 333 883 ;
C -1 ; WX 434 ; N glyph379 ; B 87 745 274 883 ;
C -1 ; WX 434 ; N glyph380 ; B 95 746 338 881 ;
C -1 ; WX 434 ; N glyph381 ; B 160 -199 274 -43 ;
C -1 ; WX 434 ; N glyph382 ; B 175 558 262 722 ;
C -1 ; WX 434 ; N glyph383 ; B 160 -199 274 -43 ;
C -1 ; WX 434 ; N glyph384 ; B 160 567 274 723 ;
C -1 ; WX 434 ; N glyph385 ; B 153 757 319 887 ;
C -1 ; WX 434 ; N glyph386 ; B 92 757 347 887 ;
C -1 ; WX 434 ; N glyph387 ; B 175 562 265 727 ;
C -1 ; WX 367 ; N glyph388 ; B 39 314 328 688 ;
EndCharMetrics
StartKernData
StartKernPairs 3104
KPX exclam AE 4
KPX exclam J 5
KPX exclam A 4
KPX ampersand dotlessj 17
KPX ampersand zcaron 7
KPX ampersand scircumflex 4
KPX ampersand jcircumflex 17
KPX ampersand Ydieresis -12
KPX ampersand AE 14
KPX ampersand scaron 4
KPX ampersand z 7
KPX ampersand y -12
KPX ampersand x 17
KPX ampersand w -7
KPX ampersand v -12
KPX ampersand s 4
KPX ampersand j 17
KPX ampersand Z 8
KPX ampersand Y -48
KPX ampersand X 4
KPX ampersand W -21
KPX ampersand V -33
KPX ampersand U -6
KPX ampersand T -75
KPX ampersand Q -6
KPX ampersand O -6
KPX ampersand J 11
KPX ampersand G -6
KPX ampersand C -6
KPX ampersand A 14
KPX quoteright zcaron -5
KPX quoteright scircumflex -35
KPX quoteright gbreve -35
KPX quoteright ccaron -35
KPX quoteright ccircumflex -35
KPX quoteright otilde -35
KPX quoteright eth -35
KPX quoteright edieresis -35
KPX quoteright ecircumflex -35
KPX quoteright eacute -35
KPX quoteright egrave -35
KPX quoteright ccedilla -35
KPX quoteright aring -28
KPX quoteright adieresis -28
KPX quoteright acircumflex -28
KPX quoteright agrave -28
KPX quoteright AE -53
KPX quoteright scaron -35
KPX quoteright z -5
KPX quoteright s -35
KPX quoteright q -35
KPX quoteright o -35
KPX quoteright g -35
KPX quoteright e -35
KPX quoteright d -35
KPX quoteright c -35
KPX quoteright a -28
KPX quoteright Y 10
KPX quoteright X 4
KPX quoteright W 10
KPX quoteright V 10
KPX quoteright T 10
KPX quoteright Q -10
KPX quoteright O -10
KPX quoteright M -10
KPX quoteright J -112
KPX quoteright G -10
KPX quoteright C -10
KPX quoteright A -53
KPX parenleft Omegagreek -10
KPX parenleft dotlessj 75
KPX parenleft scircumflex -3
KPX parenleft jcircumflex 75
KPX parenleft gdot -18
KPX parenleft gbreve -18
KPX parenleft ccaron -18
KPX parenleft ccircumflex -18
KPX parenleft Ydieresis -15
KPX parenleft yacute -15
KPX parenleft udieresis -9
KPX parenleft ugrave -9
KPX parenleft otilde -18
KPX parenleft eth -18
KPX parenleft edieresis -18
KPX parenleft ecircumflex -18
KPX parenleft eacute -18
KPX parenleft egrave -18
KPX parenleft ccedilla -18
KPX parenleft aring -11
KPX parenleft adieresis -11
KPX parenleft acircumflex -11
KPX parenleft agrave -11
KPX parenleft scaron -3
KPX parenleft florin -10
KPX parenleft y 25
KPX parenleft w -8
KPX parenleft v -15
KPX parenleft u -9
KPX parenleft s -3
KPX parenleft q -18
KPX parenleft o -18
KPX parenleft j 75
KPX parenleft g -8
KPX parenleft f -10
KPX parenleft e -18
KPX parenleft d -18
KPX parenleft c -18
KPX parenleft a -11
KPX parenleft Y 5
KPX parenleft V 4
KPX parenleft S -3
KPX parenleft Q -11
KPX parenleft O -11
KPX parenleft G -11
KPX parenleft C -11
KPX asterisk Deltagreek -50
KPX asterisk tcommabelow 15
KPX asterisk tbar 15
KPX asterisk tcaron 15
KPX asterisk gbreve -40
KPX asterisk ccaron -40
KPX asterisk ccircumflex -40
KPX asterisk Ydieresis 4
KPX asterisk yacute 4
KPX asterisk otilde -40
KPX asterisk eth -40
KPX asterisk edieresis -40
KPX asterisk ecircumflex -40
KPX asterisk eacute -40
KPX asterisk egrave -40
KPX asterisk ccedilla -40
KPX asterisk aring -5
KPX asterisk adieresis -5
KPX asterisk acircumflex -5
KPX asterisk agrave -5
KPX asterisk AE -50
KPX asterisk florin 15
KPX asterisk y 5
KPX asterisk w 4
KPX asterisk v 4
KPX asterisk t 15
KPX asterisk q -40
KPX asterisk p 5
KPX asterisk o -40
KPX asterisk g -40
KPX asterisk f 15
KPX asterisk e -40
KPX asterisk d -40
KPX asterisk c -40
KPX asterisk a -5
KPX asterisk T 10
KPX asterisk J -70
KPX asterisk A -50
KPX comma tcommabelow -38
KPX comma tbar -38
KPX comma tcaron -38
KPX comma lacute -10
KPX comma gbreve -22
KPX comma ccaron -22
KPX comma ccircumflex -22
KPX comma Ydieresis -65
KPX comma yacute -65
KPX comma udieresis -10
KPX comma ugrave -10
KPX comma otilde -22
KPX comma eth -22
KPX comma edieresis -22
KPX comma ecircumflex -22
KPX comma eacute -22
KPX comma egrave -22
KPX comma ccedilla -22
KPX comma aring -5
KPX comma adieresis -5
KPX comma acircumflex -5
KPX comma agrave -5
KPX comma AE 6
KPX comma florin -28
KPX comma y -53
KPX comma w -45
KPX comma v -65
KPX comma u -10
KPX comma t -38
KPX comma q -22
KPX comma p -7
KPX comma o -22
KPX comma l -10
KPX comma g -22
KPX comma f -28
KPX comma e -22
KPX comma d -22
KPX comma c -22
KPX comma a -5
KPX comma Y -103
KPX comma W -52
KPX comma V -67
KPX comma U -24
KPX comma T -111
KPX comma Q -30
KPX comma O -30
KPX comma J 10
KPX comma G -30
KPX comma C -30
KPX comma A 6
KPX hyphen tcommabelow -10
KPX hyphen zcaron -26
KPX hyphen tbar -10
KPX hyphen tcaron -10
KPX hyphen gbreve 4
KPX hyphen ccaron 4
KPX hyphen ccircumflex 4
KPX hyphen Ydieresis -5
KPX hyphen otilde 4
KPX hyphen eth 4
KPX hyphen edieresis 4
KPX hyphen ecircumflex 4
KPX hyphen eacute 4
KPX hyphen egrave 4
KPX hyphen ccedilla 4
KPX hyphen aring -7
KPX hyphen adieresis -7
KPX hyphen acircumflex -7
KPX hyphen agrave -7
KPX hyphen AE -13
KPX hyphen florin -10
KPX hyphen z -26
KPX hyphen y -5
KPX hyphen x -22
KPX hyphen w -2
KPX hyphen v -5
KPX hyphen t -10
KPX hyphen q 4
KPX hyphen o 4
KPX hyphen g 4
KPX hyphen f -10
KPX hyphen e 4
KPX hyphen d 4
KPX hyphen c 4
KPX hyphen a -7
KPX hyphen Z -18
KPX hyphen Y -43
KPX hyphen X -30
KPX hyphen W -18
KPX hyphen V -29
KPX hyphen T -73
KPX hyphen S -28
KPX hyphen Q 8
KPX hyphen O 8
KPX hyphen M -3
KPX hyphen J -55
KPX hyphen G 8
KPX hyphen C 8
KPX hyphen A -13
KPX period pi -20
KPX slash pi -26
KPX slash mugreek -45
KPX slash Omegagreek -36
KPX slash Deltagreek -50
KPX slash dotlessj 8
KPX slash tcommabelow -8
KPX slash zcaron -34
KPX slash tbar -8
KPX slash tcaron -8
KPX slash scircumflex -44
KPX slash lacute 4
KPX slash jcircumflex 8
KPX slash dotlessi 8
KPX slash iogonek 8
KPX slash imacron 8
KPX slash itilde 8
KPX slash gbreve -67
KPX slash ccaron -67
KPX slash ccircumflex -67
KPX slash Ydieresis -20
KPX slash thorn 4
KPX slash udieresis -37
KPX slash ugrave -37
KPX slash otilde -67
KPX slash eth -67
KPX slash iacute 8
KPX slash edieresis -67
KPX slash ecircumflex -67
KPX slash eacute -67
KPX slash egrave -67
KPX slash ccedilla -67
KPX slash aring -45
KPX slash adieresis -45
KPX slash acircumflex -45
KPX slash agrave -45
KPX slash germandbls -13
KPX slash AE -60
KPX slash scaron -44
KPX slash florin -8
KPX slash z -34
KPX slash y -20
KPX slash x -29
KPX slash w -19
KPX slash v -20
KPX slash u -37
KPX slash t -8
KPX slash s -44
KPX slash r -37
KPX slash q -67
KPX slash p -18
KPX slash o -67
KPX slash m -37
KPX slash l 4
KPX slash k 4
KPX slash j 8
KPX slash i 8
KPX slash h 4
KPX slash g -67
KPX slash f -8
KPX slash e -67
KPX slash d -67
KPX slash c -67
KPX slash b 4
KPX slash a -45
KPX slash backslash 18
KPX slash Y 26
KPX slash X 15
KPX slash W 18
KPX slash V 20
KPX slash U 2
KPX slash T 18
KPX slash S -12
KPX slash Q -26
KPX slash O -26
KPX slash M -9
KPX slash J -73
KPX slash G -26
KPX slash C -26
KPX slash A -60
KPX colon tcommabelow 6
KPX colon tbar 6
KPX colon tcaron 6
KPX colon gbreve -5
KPX colon ccaron -5
KPX colon ccircumflex -5
KPX colon otilde -5
KPX colon eth -5
KPX colon edieresis -5
KPX colon ecircumflex -5
KPX colon eacute -5
KPX colon egrave -5
KPX colon ccedilla -5
KPX colon AE 4
KPX colon florin 6
KPX colon t 6
KPX colon q -5
KPX colon o -5
KPX colon g -5
KPX colon f 6
KPX colon e -5
KPX colon d -5
KPX colon c -5
KPX colon Y -31
KPX colon W -12
KPX colon V -20
KPX colon T -58
KPX colon Q -3
KPX colon O -3
KPX colon J 10
KPX colon G -3
KPX colon C -3
KPX colon A 4
KPX question AE -12
KPX question Q -3
KPX question O -3
KPX question J -31
KPX question G -3
KPX question C -3
KPX question A -12
KPX at zcaron -13
KPX at aring -6
KPX at adieresis -6
KPX at acircumflex -6
KPX at agrave -6
KPX at z -13
KPX at x -13
KPX at p 4
KPX at a -6
KPX at Z -10
KPX at Y -20
KPX at T -35
KPX A dotlessj 10
KPX A tcommabelow -20
KPX A tbar -20
KPX A tcaron -20
KPX A lacute -8
KPX A jcircumflex 10
KPX A gbreve -5
KPX A ccaron -5
KPX A ccircumflex -5
KPX A Ydieresis -15
KPX A yacute -15
KPX A udieresis -5
KPX A ugrave -5
KPX A otilde -5
KPX A eth -5
KPX A edieresis -5
KPX A ecircumflex -5
KPX A eacute -5
KPX A egrave -5
KPX A ccedilla -5
KPX A AE 9
KPX A quoteright -53
KPX A quoteleft -53
KPX A florin -12
KPX A quotesinglbase 8
KPX A braceright 11
KPX A y -14
KPX A x 9
KPX A w -9
KPX A v -15
KPX A u -5
KPX A t -20
KPX A q -5
KPX A o -5
KPX A l -8
KPX A j 10
KPX A g -5
KPX A f -12
KPX A e -5
KPX A d -5
KPX A c -5
KPX A bracketright 11
KPX A backslash -60
KPX A Z 2
KPX A Y -63
KPX A X 6
KPX A W -21
KPX A V -31
KPX A U -13
KPX A T -70
KPX A Q -14
KPX A O -14
KPX A J 11
KPX A G -14
KPX A C -14
KPX A A 9
KPX A question -23
KPX A colon 14
KPX A slash 20
KPX A hyphen -13
KPX A comma 8
KPX A asterisk -50
KPX A quoteright -53
KPX A exclam 4
KPX B tcommabelow -10
KPX B tbar -10
KPX B tcaron -10
KPX B scircumflex -8
KPX B lacute -6
KPX B Ydieresis 5
KPX B AE -10
KPX B scaron -8
KPX B quoteright -4
KPX B quoteleft -4
KPX B florin -10
KPX B quotesinglbase -9
KPX B braceright -11
KPX B y 5
KPX B x -5
KPX B v 5
KPX B t -10
KPX B s -8
KPX B l -6
KPX B f -10
KPX B underscore -25
KPX B bracketright -11
KPX B backslash -24
KPX B Y -20
KPX B X -7
KPX B W -7
KPX B V -8
KPX B U -7
KPX B T -14
KPX B Q -7
KPX B O -7
KPX B G -7
KPX B C -7
KPX B A -10
KPX B question -5
KPX B slash -10
KPX B comma -9
KPX B parenright -7
KPX B quoteright -4
KPX C tcommabelow -8
KPX C tbar -8
KPX C tcaron -8
KPX C gbreve -15
KPX C ccaron -15
KPX C ccircumflex -15
KPX C Ydieresis -10
KPX C otilde -15
KPX C eth -15
KPX C edieresis -15
KPX C ecircumflex -15
KPX C eacute -15
KPX C egrave -15
KPX C ccedilla -15
KPX C florin -8
KPX C quotesinglbase 12
KPX C braceright 5
KPX C y -10
KPX C w -10
KPX C v -10
KPX C t -8
KPX C q -15
KPX C p -8
KPX C o -15
KPX C g -15
KPX C f -8
KPX C e -15
KPX C d -15
KPX C c -15
KPX C bracketright 5
KPX C backslash 5
KPX C U -8
KPX C Q -28
KPX C O -28
KPX C J 5
KPX C G -28
KPX C C -28
KPX C question 8
KPX C colon 12
KPX C slash 16
KPX C hyphen -54
KPX C comma 12
KPX C parenright 4
KPX C exclam 8
KPX D aring -11
KPX D adieresis -11
KPX D acircumflex -11
KPX D agrave -11
KPX D AE -14
KPX D quoteright -10
KPX D quoteleft -10
KPX D quotesinglbase -30
KPX D braceright -23
KPX D x -10
KPX D a -11
KPX D underscore -50
KPX D bracketright -23
KPX D backslash -34
KPX D Z -23
KPX D Y -28
KPX D X -22
KPX D W -11
KPX D V -14
KPX D U -5
KPX D T -33
KPX D S -7
KPX D M -6
KPX D J -27
KPX D A -14
KPX D question -23
KPX D colon -3
KPX D slash -28
KPX D hyphen 8
KPX D comma -30
KPX D parenright -11
KPX D quoteright -10
KPX E lacute -7
KPX E gbreve -8
KPX E ccaron -8
KPX E ccircumflex -8
KPX E otilde -8
KPX E eth -8
KPX E edieresis -8
KPX E ecircumflex -8
KPX E eacute -8
KPX E egrave -8
KPX E ccedilla -8
KPX E aring -8
KPX E adieresis -8
KPX E acircumflex -8
KPX E agrave -8
KPX E q -8
KPX E p -5
KPX E o -8
KPX E l -7
KPX E g -8
KPX E e -8
KPX E d -8
KPX E c -8
KPX E a -8
KPX E U -10
KPX E Q -11
KPX E O -11
KPX E J 7
KPX E G -11
KPX E C -11
KPX E slash 10
KPX E hyphen -7
KPX F scircumflex -12
KPX F imacron 20
KPX F itilde 40
KPX F gbreve -14
KPX F ccaron -14
KPX F ccircumflex -14
KPX F udieresis -13
KPX F ugrave -13
KPX F otilde -14
KPX F eth -14
KPX F idieresis 40
KPX F edieresis -14
KPX F ecircumflex -14
KPX F eacute -14
KPX F egrave -14
KPX F ccedilla -14
KPX F aring -33
KPX F adieresis -33
KPX F acircumflex -33
KPX F agrave -33
KPX F AE -38
KPX F scaron -12
KPX F quoteright 10
KPX F quoteleft 10
KPX F quotesinglbase -94
KPX F braceright 9
KPX F u -13
KPX F s -12
KPX F r -8
KPX F q -14
KPX F o -14
KPX F m -8
KPX F g -14
KPX F e -14
KPX F d -14
KPX F c -14
KPX F a -33
KPX F underscore -45
KPX F bracketright 9
KPX F backslash 8
KPX F Y 11
KPX F W 7
KPX F V 8
KPX F Q -8
KPX F O -8
KPX F M -8
KPX F J -76
KPX F G -8
KPX F C -8
KPX F A -38
KPX F colon -10
KPX F slash -56
KPX F comma -139
KPX F quoteright 10
KPX F ampersand -29
KPX G tcommabelow -10
KPX G tbar -10
KPX G tcaron -10
KPX G Ydieresis -4
KPX G quoteright -10
KPX G quoteleft -10
KPX G florin -10
KPX G y -4
KPX G v -4
KPX G t -10
KPX G f -10
KPX G backslash -13
KPX G Y -19
KPX G W -11
KPX G V -20
KPX G T -24
KPX G S -9
KPX G question -13
KPX G hyphen 4
KPX G quoteright -10
KPX J scircumflex -7
KPX J lacute -6
KPX J gbreve -8
KPX J ccaron -8
KPX J ccircumflex -8
KPX J otilde -8
KPX J eth -8
KPX J edieresis -8
KPX J ecircumflex -8
KPX J eacute -8
KPX J egrave -8
KPX J ccedilla -8
KPX J aring -11
KPX J adieresis -11
KPX J acircumflex -11
KPX J agrave -11
KPX J AE -22
KPX J scaron -7
KPX J quotesinglbase -22
KPX J braceright -5
KPX J s -7
KPX J q -8
KPX J o -8
KPX J l -6
KPX J g -8
KPX J e -8
KPX J d -8
KPX J c -8
KPX J a -11
KPX J underscore -40
KPX J bracketright -5
KPX J Z -8
KPX J X -10
KPX J Q -5
KPX J O -5
KPX J J -22
KPX J G -5
KPX J C -5
KPX J A -22
KPX J slash -17
KPX J comma -22
KPX J parenright -5
KPX K tcommabelow -28
KPX K tbar -28
KPX K tcaron -28
KPX K scircumflex -12
KPX K lacute -8
KPX K imacron 20
KPX K itilde 30
KPX K gbreve -17
KPX K ccaron -17
KPX K ccircumflex -17
KPX K Ydieresis -30
KPX K udieresis -12
KPX K ugrave -12
KPX K otilde -17
KPX K eth -17
KPX K idieresis 30
KPX K edieresis -17
KPX K ecircumflex -17
KPX K eacute -17
KPX K egrave -17
KPX K ccedilla -17
KPX K aring -15
KPX K adieresis -15
KPX K acircumflex -15
KPX K agrave -15
KPX K AE 8
KPX K scaron -12
KPX K florin -21
KPX K quotesinglbase 7
KPX K braceright 15
KPX K y -30
KPX K x 12
KPX K w -27
KPX K v -30
KPX K u -12
KPX K t -28
KPX K s -12
KPX K q -17
KPX K p -8
KPX K o -17
KPX K l -8
KPX K g -17
KPX K f -21
KPX K e -17
KPX K d -17
KPX K c -17
KPX K a -15
KPX K bracketright 15
KPX K backslash 8
KPX K Z 9
KPX K Y 5
KPX K X 11
KPX K U -10
KPX K T 6
KPX K S -13
KPX K Q -35
KPX K O -35
KPX K J 5
KPX K G -35
KPX K C -35
KPX K A 8
KPX K colon 7
KPX K slash 23
KPX K hyphen -66
KPX K comma 7
KPX K parenright 8
KPX K ampersand -3
KPX K exclam 4
KPX L tcommabelow -30
KPX L tbar -30
KPX L tcaron -30
KPX L gbreve -10
KPX L ccaron -10
KPX L ccircumflex -10
KPX L Ydieresis -50
KPX L otilde -10
KPX L eth -10
KPX L edieresis -10
KPX L ecircumflex -10
KPX L eacute -10
KPX L egrave -10
KPX L ccedilla -10
KPX L AE 5
KPX L quoteright -135
KPX L quoteleft -135
KPX L florin -15
KPX L quotesinglbase 11
KPX L braceright 18
KPX L y -50
KPX L x 7
KPX L w -33
KPX L v -50
KPX L t -30
KPX L q -10
KPX L p -8
KPX L o -10
KPX L g -10
KPX L f -15
KPX L e -10
KPX L d -10
KPX L c -10
KPX L bracketright 18
KPX L backslash -105
KPX L Y -100
KPX L X 5
KPX L W -50
KPX L V -70
KPX L U -25
KPX L T -110
KPX L Q -36
KPX L O -36
KPX L J 9
KPX L G -36
KPX L C -36
KPX L A 5
KPX L question -12
KPX L colon 11
KPX L slash 18
KPX L hyphen -63
KPX L comma 11
KPX L asterisk -123
KPX L parenright 6
KPX L quoteright -135
KPX L exclam 5
KPX M quoteright -10
KPX M quoteleft -10
KPX M backslash -13
KPX M Y -15
KPX M W -7
KPX M V -8
KPX M T -12
KPX M Q -6
KPX M O -6
KPX M G -6
KPX M C -6
KPX M question -11
KPX M slash 8
KPX M hyphen -3
KPX M quoteright -10
KPX O aring -11
KPX O adieresis -11
KPX O acircumflex -11
KPX O agrave -11
KPX O AE -14
KPX O quoteright -10
KPX O quoteleft -10
KPX O quotesinglbase -30
KPX O braceright -23
KPX O x -10
KPX O a -11
KPX O underscore -50
KPX O bracketright -23
KPX O backslash -34
KPX O Z -23
KPX O Y -28
KPX O X -22
KPX O W -11
KPX O V -14
KPX O U -5
KPX O T -33
KPX O S -7
KPX O M -6
KPX O J -27
KPX O A -14
KPX O question -23
KPX O colon -3
KPX O slash -28
KPX O hyphen 8
KPX O comma -30
KPX O parenright -11
KPX O quoteright -10
KPX P scircumflex -10
KPX P lacute -8
KPX P itilde 20
KPX P gbreve -14
KPX P ccaron -14
KPX P ccircumflex -14
KPX P Ydieresis 10
KPX P otilde -14
KPX P eth -14
KPX P idieresis 20
KPX P edieresis -14
KPX P ecircumflex -14
KPX P eacute -14
KPX P egrave -14
KPX P ccedilla -14
KPX P aring -15
KPX P adieresis -15
KPX P acircumflex -15
KPX P agrave -15
KPX P AE -47
KPX P scaron -10
KPX P quoteright 6
KPX P quoteleft 6
KPX P quotesinglbase -127
KPX P braceright -25
KPX P y 10
KPX P w 9
KPX P v 10
KPX P s -10
KPX P r -8
KPX P q -14
KPX P o -14
KPX P m -8
KPX P l -8
KPX P g -14
KPX P e -14
KPX P d -14
KPX P c -14
KPX P a -15
KPX P underscore -145
KPX P bracketright -25
KPX P backslash -8
KPX P Z -12
KPX P Y -8
KPX P X -24
KPX P U -8
KPX P T -8
KPX P M -10
KPX P J -90
KPX P A -47
KPX P question -10
KPX P slash -68
KPX P hyphen -8
KPX P comma -152
KPX P asterisk 4
KPX P parenright -15
KPX P quoteright 6
KPX P ampersand -29
KPX Q dotlessj 40
KPX Q jcircumflex 40
KPX Q aring -11
KPX Q adieresis -11
KPX Q acircumflex -11
KPX Q agrave -11
KPX Q AE -14
KPX Q quoteright -10
KPX Q quoteleft -10
KPX Q quotesinglbase -30
KPX Q braceright -23
KPX Q x -10
KPX Q j 40
KPX Q a -11
KPX Q underscore 15
KPX Q bracketright -15
KPX Q backslash -34
KPX Q Z -23
KPX Q Y -28
KPX Q X -22
KPX Q W -11
KPX Q V -14
KPX Q U -5
KPX Q T -33
KPX Q S -7
KPX Q M -6
KPX Q J -27
KPX Q A -14
KPX Q question -23
KPX Q colon -3
KPX Q slash -13
KPX Q hyphen 8
KPX Q comma -30
KPX Q parenright -11
KPX Q quoteright -10
KPX R dotlessj 10
KPX R zcaron 7
KPX R lacute -8
KPX R jcircumflex 10
KPX R gbreve -11
KPX R ccaron -11
KPX R ccircumflex -11
KPX R Ydieresis 5
KPX R otilde -11
KPX R eth -11
KPX R edieresis -11
KPX R ecircumflex -11
KPX R eacute -11
KPX R egrave -11
KPX R ccedilla -11
KPX R AE 10
KPX R quoteright -3
KPX R quoteleft -3
KPX R quotesinglbase 5
KPX R braceright 17
KPX R z 7
KPX R y 5
KPX R x 9
KPX R v 5
KPX R q -11
KPX R o -11
KPX R l -8
KPX R j 10
KPX R g -11
KPX R e -11
KPX R d -11
KPX R c -11
KPX R bracketright 17
KPX R backslash -29
KPX R Z 9
KPX R Y -22
KPX R X 11
KPX R W -10
KPX R V -12
KPX R U -10
KPX R T -15
KPX R S -9
KPX R Q -13
KPX R O -13
KPX R J 13
KPX R G -13
KPX R C -13
KPX R A 10
KPX R question -19
KPX R colon 5
KPX R slash 31
KPX R hyphen -18
KPX R comma 5
KPX R asterisk -7
KPX R parenright 3
KPX R quoteright -3
KPX R exclam 5
KPX S tcommabelow -16
KPX S zcaron -5
KPX S tbar -16
KPX S tcaron -16
KPX S itilde 10
KPX S Ydieresis -13
KPX S idieresis 10
KPX S AE -3
KPX S quoteright -10
KPX S quoteleft -10
KPX S florin -14
KPX S quotesinglbase -8
KPX S braceright -4
KPX S z -5
KPX S y -13
KPX S w -10
KPX S v -13
KPX S t -16
KPX S p -8
KPX S f -14
KPX S underscore -30
KPX S bracketright -4
KPX S backslash -15
KPX S Y -14
KPX S X -12
KPX S W -10
KPX S V -12
KPX S U -7
KPX S T -15
KPX S S -11
KPX S A -3
KPX S question -10
KPX S slash -13
KPX S comma -8
KPX S asterisk -10
KPX S parenright -4
KPX S quoteright -10
KPX T tcommabelow -11
KPX T zcaron -40
KPX T tbar -11
KPX T tcaron -11
KPX T scircumflex -75
KPX T imacron 30
KPX T itilde 50
KPX T gbreve -80
KPX T ccaron -80
KPX T ccircumflex -80
KPX T Ydieresis -33
KPX T udieresis -38
KPX T ugrave -38
KPX T otilde -80
KPX T eth -80
KPX T idieresis 50
KPX T icircumflex 20
KPX T igrave 10
KPX T edieresis -80
KPX T ecircumflex -80
KPX T eacute -80
KPX T egrave -80
KPX T ccedilla -80
KPX T aring -78
KPX T adieresis -68
KPX T acircumflex -68
KPX T agrave -78
KPX T AE -70
KPX T scaron -75
KPX T quoteright 10
KPX T quoteleft 10
KPX T florin -9
KPX T quotesinglbase -111
KPX T braceright 19
KPX T z -40
KPX T y -33
KPX T x -30
KPX T w -30
KPX T v -33
KPX T u -38
KPX T t -11
KPX T s -75
KPX T r -38
KPX T q -80
KPX T p -25
KPX T o -80
KPX T m -38
KPX T g -80
KPX T f -9
KPX T e -80
KPX T d -80
KPX T c -80
KPX T a -78
KPX T underscore -90
KPX T bracketright 19
KPX T backslash 20
KPX T Y 15
KPX T W 10
KPX T V 11
KPX T T 11
KPX T S -8
KPX T Q -33
KPX T O -33
KPX T M -11
KPX T J -95
KPX T G -33
KPX T C -33
KPX T A -70
KPX T at -45
KPX T question 18
KPX T colon -58
KPX T slash -87
KPX T hyphen -73
KPX T comma -111
KPX T asterisk 10
KPX T quoteright 10
KPX T ampersand -35
KPX U scircumflex -7
KPX U lacute -6
KPX U aring -10
KPX U adieresis -10
KPX U acircumflex -10
KPX U agrave -10
KPX U AE -13
KPX U scaron -7
KPX U quotesinglbase -24
KPX U braceright -5
KPX U x -8
KPX U s -7
KPX U l -6
KPX U a -10
KPX U underscore -40
KPX U bracketright -5
KPX U Z -8
KPX U X -10
KPX U Q -5
KPX U O -5
KPX U J -20
KPX U G -5
KPX U C -5
KPX U A -13
KPX U slash -18
KPX U comma -24
KPX V scircumflex -17
KPX V imacron 25
KPX V itilde 48
KPX V gbreve -26
KPX V ccaron -26
KPX V ccircumflex -26
KPX V udieresis -10
KPX V ugrave -10
KPX V otilde -26
KPX V eth -26
KPX V idieresis 40
KPX V edieresis -26
KPX V ecircumflex -26
KPX V eacute -26
KPX V egrave -26
KPX V ccedilla -26
KPX V aring -30
KPX V adieresis -30
KPX V acircumflex -30
KPX V agrave -30
KPX V AE -31
KPX V scaron -17
KPX V quoteright 10
KPX V quoteleft 5
KPX V quotesinglbase -66
KPX V braceright 8
KPX V u -10
KPX V s -17
KPX V r -10
KPX V q -26
KPX V o -26
KPX V m -10
KPX V g -26
KPX V e -26
KPX V d -26
KPX V c -26
KPX V a -30
KPX V underscore -75
KPX V bracketright 8
KPX V backslash 16
KPX V Y 13
KPX V W 9
KPX V V 9
KPX V T 8
KPX V S -5
KPX V Q -15
KPX V O -15
KPX V M -9
KPX V J -61
KPX V G -15
KPX V C -15
KPX V A -31
KPX V question 5
KPX V colon -20
KPX V slash -60
KPX V hyphen -29
KPX V comma -66
KPX V parenright 4
KPX V quoteright 10
KPX V ampersand -28
KPX W scircumflex -11
KPX W itilde 20
KPX W gbreve -19
KPX W ccaron -19
KPX W ccircumflex -19
KPX W udieresis -8
KPX W ugrave -8
KPX W otilde -19
KPX W eth -19
KPX W idieresis 30
KPX W edieresis -19
KPX W ecircumflex -19
KPX W eacute -19
KPX W egrave -19
KPX W ccedilla -19
KPX W aring -20
KPX W adieresis -20
KPX W acircumflex -20
KPX W agrave -20
KPX W AE -22
KPX W scaron -11
KPX W quoteright 10
KPX W quoteleft 8
KPX W quotesinglbase -52
KPX W braceright 6
KPX W u -8
KPX W s -11
KPX W r -8
KPX W q -19
KPX W o -19
KPX W m -8
KPX W g -19
KPX W e -19
KPX W d -19
KPX W c -19
KPX W a -20
KPX W underscore -55
KPX W bracketright 6
KPX W backslash 14
KPX W Z -5
KPX W Y 13
KPX W W 10
KPX W V 9
KPX W T 9
KPX W Q -11
KPX W O -11
KPX W M -7
KPX W J -48
KPX W G -11
KPX W C -11
KPX W A -22
KPX W question 3
KPX W colon -12
KPX W slash -46
KPX W hyphen -18
KPX W comma -52
KPX W quoteright 10
KPX W ampersand -26
KPX X tcommabelow -27
KPX X tbar -27
KPX X tcaron -27
KPX X scircumflex -12
KPX X lacute -8
KPX X itilde 30
KPX X gbreve -17
KPX X ccaron -17
KPX X ccircumflex -17
KPX X Ydieresis -33
KPX X udieresis -12
KPX X ugrave -12
KPX X otilde -17
KPX X eth -17
KPX X idieresis 30
KPX X edieresis -17
KPX X ecircumflex -17
KPX X eacute -17
KPX X egrave -17
KPX X ccedilla -17
KPX X AE 6
KPX X scaron -12
KPX X quoteleft -6
KPX X florin -24
KPX X braceright 4
KPX X y -33
KPX X w -20
KPX X v -33
KPX X u -12
KPX X t -27
KPX X s -12
KPX X q -17
KPX X p -8
KPX X o -17
KPX X l -8
KPX X g -17
KPX X f -24
KPX X e -17
KPX X d -17
KPX X c -17
KPX X bracketright 4
KPX X U -10
KPX X S -12
KPX X Q -23
KPX X O -23
KPX X J 5
KPX X G -23
KPX X C -23
KPX X A 6
KPX X question -5
KPX X slash 18
KPX X hyphen -32
KPX X asterisk -8
KPX X ampersand -5
KPX Y tcommabelow -8
KPX Y zcaron -23
KPX Y tbar -8
KPX Y tcaron -8
KPX Y scircumflex -51
KPX Y imacron 20
KPX Y itilde 30
KPX Y gbreve -57
KPX Y ccaron -57
KPX Y ccircumflex -57
KPX Y Ydieresis -12
KPX Y udieresis -33
KPX Y ugrave -33
KPX Y otilde -57
KPX Y eth -57
KPX Y idieresis 40
KPX Y edieresis -57
KPX Y ecircumflex -57
KPX Y eacute -57
KPX Y egrave -57
KPX Y ccedilla -57
KPX Y aring -55
KPX Y adieresis -55
KPX Y acircumflex -55
KPX Y agrave -55
KPX Y AE -63
KPX Y scaron -51
KPX Y quoteright 10
KPX Y quoteleft 5
KPX Y florin -8
KPX Y quotesinglbase -103
KPX Y braceright 10
KPX Y z -23
KPX Y y -12
KPX Y x -23
KPX Y w -10
KPX Y v -12
KPX Y u -33
KPX Y t -8
KPX Y s -51
KPX Y r -33
KPX Y q -57
KPX Y p -24
KPX Y o -57
KPX Y m -33
KPX Y g -57
KPX Y f -8
KPX Y e -57
KPX Y d -57
KPX Y c -57
KPX Y a -55
KPX Y underscore -80
KPX Y bracketright 10
KPX Y backslash 16
KPX Y Z -3
KPX Y Y 9
KPX Y W 11
KPX Y V 11
KPX Y T 9
KPX Y S -13
KPX Y Q -28
KPX Y O -28
KPX Y M -15
KPX Y J -84
KPX Y G -28
KPX Y C -28
KPX Y A -63
KPX Y at -30
KPX Y question 6
KPX Y colon -33
KPX Y slash -73
KPX Y hyphen -43
KPX Y comma -103
KPX Y parenright 5
KPX Y quoteright 10
KPX Y ampersand -38
KPX Z scircumflex -7
KPX Z itilde 30
KPX Z gbreve -17
KPX Z ccaron -17
KPX Z ccircumflex -17
KPX Z Ydieresis -10
KPX Z otilde -17
KPX Z eth -17
KPX Z idieresis 30
KPX Z edieresis -17
KPX Z ecircumflex -24
KPX Z eacute -24
KPX Z egrave -17
KPX Z ccedilla -24
KPX Z aring -5
KPX Z adieresis -5
KPX Z acircumflex -5
KPX Z agrave -5
KPX Z scaron -7
KPX Z braceright 8
KPX Z y -10
KPX Z w -5
KPX Z v -10
KPX Z s -7
KPX Z q -24
KPX Z o -17
KPX Z g -24
KPX Z e -24
KPX Z d -24
KPX Z c -24
KPX Z a -5
KPX Z bracketright 8
KPX Z backslash 9
KPX Z U -10
KPX Z Q -22
KPX Z O -22
KPX Z G -22
KPX Z C -22
KPX Z at -5
KPX Z slash 13
KPX Z hyphen -58
KPX bracketleft pi -20
KPX bracketleft mugreek -20
KPX bracketleft Omegagreek -20
KPX bracketleft dotlessj 65
KPX bracketleft tcommabelow -20
KPX bracketleft zcaron 5
KPX bracketleft tbar -20
KPX bracketleft tcaron -20
KPX bracketleft scircumflex -13
KPX bracketleft jcircumflex 65
KPX bracketleft gdot -23
KPX bracketleft gbreve -23
KPX bracketleft ccaron -23
KPX bracketleft ccircumflex -23
KPX bracketleft Ydieresis -33
KPX bracketleft yacute -33
KPX bracketleft udieresis -15
KPX bracketleft ugrave -15
KPX bracketleft otilde -23
KPX bracketleft eth -23
KPX bracketleft edieresis -23
KPX bracketleft ecircumflex -23
KPX bracketleft eacute -23
KPX bracketleft egrave -23
KPX bracketleft ccedilla -23
KPX bracketleft aring -5
KPX bracketleft adieresis -5
KPX bracketleft acircumflex -5
KPX bracketleft agrave -5
KPX bracketleft AE 5
KPX bracketleft scaron -13
KPX bracketleft florin -20
KPX bracketleft z 5
KPX bracketleft y -3
KPX bracketleft x 13
KPX bracketleft w -25
KPX bracketleft v -33
KPX bracketleft u -15
KPX bracketleft t -20
KPX bracketleft s -13
KPX bracketleft q -23
KPX bracketleft o -23
KPX bracketleft j 65
KPX bracketleft g -13
KPX bracketleft f -20
KPX bracketleft e -23
KPX bracketleft d -23
KPX bracketleft c -23
KPX bracketleft a -5
KPX bracketleft Z 7
KPX bracketleft Y 15
KPX bracketleft X 5
KPX bracketleft W 11
KPX bracketleft V 12
KPX bracketleft U -5
KPX bracketleft T 19
KPX bracketleft S -5
KPX bracketleft Q -23
KPX bracketleft O -23
KPX bracketleft J 5
KPX bracketleft G -23
KPX bracketleft C -23
KPX bracketleft A 5
KPX backslash dotlessj 70
KPX backslash tcommabelow -8
KPX backslash zcaron 5
KPX backslash tbar -8
KPX backslash tcaron -8
KPX backslash lacute -4
KPX backslash jcircumflex 70
KPX backslash gbreve -21
KPX backslash ccaron -21
KPX backslash ccircumflex -21
KPX backslash Ydieresis -45
KPX backslash yacute -45
KPX backslash udieresis -8
KPX backslash ugrave -8
KPX backslash otilde -21
KPX backslash eth -21
KPX backslash edieresis -21
KPX backslash ecircumflex -21
KPX backslash eacute -21
KPX backslash egrave -21
KPX backslash ccedilla -21
KPX backslash AE 14
KPX backslash florin -8
KPX backslash z 5
KPX backslash y 26
KPX backslash x 5
KPX backslash w -32
KPX backslash v -45
KPX backslash u -8
KPX backslash t -8
KPX backslash q -21
KPX backslash o -21
KPX backslash l -4
KPX backslash j 70
KPX backslash g -21
KPX backslash f -8
KPX backslash e -21
KPX backslash d -21
KPX backslash c -21
KPX backslash Z 3
KPX backslash Y -75
KPX backslash W -51
KPX backslash V -60
KPX backslash U -29
KPX backslash T -100
KPX backslash Q -26
KPX backslash O -26
KPX backslash J 10
KPX backslash G -26
KPX backslash C -26
KPX backslash A 14
KPX underscore dotlessj 103
KPX underscore jcircumflex 103
KPX underscore y 48
KPX underscore j 103
KPX underscore g 5
KPX a tcommabelow -3
KPX a tbar -3
KPX a tcaron -3
KPX a Ydieresis -4
KPX a quoteright -17
KPX a quoteleft -17
KPX a florin -3
KPX a y -4
KPX a v -4
KPX a t -3
KPX a f -3
KPX a backslash -51
KPX a question -18
KPX a asterisk -28
KPX a quoteright -17
KPX b tcommabelow -12
KPX b zcaron -10
KPX b tbar -12
KPX b tcaron -12
KPX b Ydieresis -12
KPX b udieresis -8
KPX b ugrave -8
KPX b aring -5
KPX b adieresis -5
KPX b acircumflex -5
KPX b agrave -5
KPX b quoteright -35
KPX b quoteleft -35
KPX b florin -12
KPX b quotesinglbase -21
KPX b braceright -23
KPX b z -10
KPX b y -12
KPX b x -16
KPX b w -7
KPX b v -12
KPX b u -8
KPX b t -12
KPX b p -5
KPX b f -12
KPX b a -5
KPX b underscore -30
KPX b bracketright -23
KPX b backslash -66
KPX b question -23
KPX b colon -5
KPX b slash -23
KPX b hyphen 4
KPX b comma -21
KPX b asterisk -40
KPX b parenright -18
KPX b quoteright -35
KPX b ampersand 4
KPX c zcaron 9
KPX c gbreve -15
KPX c ccaron -15
KPX c ccircumflex -15
KPX c otilde -15
KPX c eth -15
KPX c edieresis -15
KPX c ecircumflex -15
KPX c eacute -15
KPX c egrave -15
KPX c ccedilla -15
KPX c quoteright 10
KPX c quoteleft 10
KPX c braceright 4
KPX c z 9
KPX c y 11
KPX c q -15
KPX c o -15
KPX c g -15
KPX c e -15
KPX c d -15
KPX c c -15
KPX c bracketright 4
KPX c backslash -25
KPX c at -12
KPX c question -14
KPX c colon 5
KPX c slash 5
KPX c hyphen -30
KPX c quoteright 10
KPX c ampersand -10
KPX d itilde 20
KPX d backslash 4
KPX d question -5
KPX e scircumflex -5
KPX e Ydieresis -7
KPX e aring -11
KPX e adieresis -11
KPX e acircumflex -11
KPX e agrave -11
KPX e scaron -5
KPX e quoteright -20
KPX e quoteleft -20
KPX e florin -3
KPX e quotesinglbase -6
KPX e y -7
KPX e w -7
KPX e v -7
KPX e s -5
KPX e f -3
KPX e a -11
KPX e backslash -55
KPX e question -13
KPX e colon -3
KPX e comma -6
KPX e parenright -8
KPX e quoteright -20
KPX f tcommabelow 5
KPX f tbar 5
KPX f tcaron 5
KPX f imacron 47
KPX f itilde 55
KPX f gbreve -14
KPX f ccaron -14
KPX f ccircumflex -14
KPX f Ydieresis 10
KPX f otilde -14
KPX f eth -14
KPX f idieresis 54
KPX f igrave 23
KPX f edieresis -14
KPX f ecircumflex -14
KPX f eacute -14
KPX f egrave -14
KPX f ccedilla -14
KPX f aring -11
KPX f adieresis -11
KPX f acircumflex -11
KPX f agrave -11
KPX f quoteright 28
KPX f quoteleft 28
KPX f florin 8
KPX f quotesinglbase -84
KPX f braceright 30
KPX f y 10
KPX f w 8
KPX f v 10
KPX f t 5
KPX f q -14
KPX f p 5
KPX f o -14
KPX f g -14
KPX f f 8
KPX f e -14
KPX f d -14
KPX f c -14
KPX f a -11
KPX f underscore -40
KPX f bracketright 30
KPX f backslash 33
KPX f at -11
KPX f question 28
KPX f colon 5
KPX f slash -50
KPX f hyphen -25
KPX f comma -84
KPX f asterisk 30
KPX f parenright 20
KPX f quoteright 28
KPX f ampersand -20
KPX g dotlessj 5
KPX g tcommabelow 5
KPX g tbar 5
KPX g tcaron 5
KPX g jcircumflex 5
KPX g gbreve -5
KPX g ccaron -5
KPX g ccircumflex -5
KPX g Ydieresis 10
KPX g otilde -5
KPX g eth -5
KPX g edieresis -5
KPX g ecircumflex -5
KPX g eacute -5
KPX g egrave -5
KPX g ccedilla -5
KPX g aring -7
KPX g adieresis -7
KPX g acircumflex -7
KPX g agrave -7
KPX g quoteleft 6
KPX g florin 5
KPX g quotesinglbase -7
KPX g y 10
KPX g w 8
KPX g v 10
KPX g t 5
KPX g q -5
KPX g p 5
KPX g o -5
KPX g j 5
KPX g g -5
KPX g f 5
KPX g e -5
KPX g d -5
KPX g c -5
KPX g a -7
KPX g underscore 25
KPX g backslash -23
KPX g at -3
KPX g question -5
KPX g comma -7
KPX h tcommabelow -5
KPX h tbar -5
KPX h tcaron -5
KPX h Ydieresis -8
KPX h aring -5
KPX h adieresis -5
KPX h acircumflex -5
KPX h agrave -5
KPX h quoteright -17
KPX h quoteleft -17
KPX h florin -5
KPX h y -8
KPX h w -8
KPX h v -8
KPX h t -5
KPX h f -5
KPX h a -5
KPX h backslash -53
KPX h question -18
KPX h asterisk -25
KPX h quoteright -17
KPX i itilde 35
KPX i idieresis 40
KPX i backslash 6
KPX j dotlessj 23
KPX j jcircumflex 23
KPX j itilde 30
KPX j idieresis 30
KPX j j 23
KPX j underscore 25
KPX j backslash 6
KPX k tcommabelow -10
KPX k tbar -10
KPX k tcaron -10
KPX k scircumflex -8
KPX k lacute -21
KPX k gbreve -34
KPX k ccaron -34
KPX k ccircumflex -34
KPX k Ydieresis -8
KPX k udieresis -13
KPX k ugrave -13
KPX k otilde -34
KPX k eth -34
KPX k edieresis -34
KPX k ecircumflex -34
KPX k eacute -34
KPX k egrave -34
KPX k ccedilla -34
KPX k aring -10
KPX k adieresis -10
KPX k acircumflex -10
KPX k agrave -10
KPX k scaron -8
KPX k florin -10
KPX k quotesinglbase 4
KPX k braceright 18
KPX k y -8
KPX k x 10
KPX k v -8
KPX k u -13
KPX k t -10
KPX k s -8
KPX k q -34
KPX k p -10
KPX k o -34
KPX k l -21
KPX k g -34
KPX k f -10
KPX k e -34
KPX k d -34
KPX k c -34
KPX k a -10
KPX k bracketright 18
KPX k backslash -37
KPX k at -25
KPX k question -14
KPX k colon 4
KPX k slash 20
KPX k hyphen -45
KPX k comma 4
KPX k parenright 10
KPX k ampersand -14
KPX k exclam 4
KPX l tcommabelow -25
KPX l tbar -25
KPX l tcaron -25
KPX l lacute -14
KPX l gbreve -19
KPX l ccaron -19
KPX l ccircumflex -19
KPX l Ydieresis -23
KPX l udieresis -14
KPX l ugrave -14
KPX l otilde -19
KPX l eth -19
KPX l edieresis -19
KPX l ecircumflex -19
KPX l eacute -19
KPX l egrave -19
KPX l ccedilla -19
KPX l aring -5
KPX l adieresis -5
KPX l acircumflex -5
KPX l agrave -5
KPX l quoteright -28
KPX l quoteleft -28
KPX l florin -25
KPX l quotesinglbase 10
KPX l braceright 13
KPX l y -23
KPX l x 5
KPX l w -20
KPX l v -23
KPX l u -14
KPX l t -25
KPX l q -19
KPX l p -10
KPX l o -19
KPX l l -14
KPX l g -19
KPX l f -25
KPX l e -19
KPX l d -19
KPX l c -19
KPX l a -5
KPX l bracketright 13
KPX l backslash -17
KPX l at -10
KPX l question -5
KPX l colon 10
KPX l slash 16
KPX l hyphen -23
KPX l comma 10
KPX l asterisk -35
KPX l parenright 8
KPX l quoteright -28
KPX l exclam 5
KPX m tcommabelow -5
KPX m tbar -5
KPX m tcaron -5
KPX m Ydieresis -8
KPX m aring -5
KPX m adieresis -5
KPX m acircumflex -5
KPX m agrave -5
KPX m quoteright -17
KPX m quoteleft -17
KPX m florin -5
KPX m y -8
KPX m w -8
KPX m v -8
KPX m t -5
KPX m f -5
KPX m a -5
KPX m backslash -53
KPX m question -18
KPX m asterisk -25
KPX m quoteright -17
KPX o tcommabelow -12
KPX o zcaron -10
KPX o tbar -12
KPX o tcaron -12
KPX o Ydieresis -12
KPX o udieresis -8
KPX o ugrave -8
KPX o aring -5
KPX o adieresis -5
KPX o acircumflex -5
KPX o agrave -5
KPX o quoteright -35
KPX o quoteleft -35
KPX o florin -12
KPX o quotesinglbase -21
KPX o braceright -23
KPX o z -10
KPX o y -12
KPX o x -16
KPX o w -7
KPX o v -12
KPX o u -8
KPX o t -12
KPX o p -5
KPX o f -12
KPX o a -5
KPX o underscore -30
KPX o bracketright -23
KPX o backslash -66
KPX o question -23
KPX o colon -5
KPX o slash -23
KPX o hyphen 4
KPX o comma -21
KPX o asterisk -40
KPX o parenright -18
KPX o quoteright -35
KPX o ampersand 4
KPX p tcommabelow -12
KPX p zcaron -10
KPX p tbar -12
KPX p tcaron -12
KPX p Ydieresis -12
KPX p udieresis -8
KPX p ugrave -8
KPX p aring -5
KPX p adieresis -5
KPX p acircumflex -5
KPX p agrave -5
KPX p quoteright -35
KPX p quoteleft -35
KPX p florin -12
KPX p quotesinglbase -21
KPX p braceright -23
KPX p z -10
KPX p y -12
KPX p x -16
KPX p w -7
KPX p v -12
KPX p u -8
KPX p t -12
KPX p p -5
KPX p f -12
KPX p a -5
KPX p underscore -30
KPX p bracketright -23
KPX p backslash -66
KPX p question -23
KPX p colon -5
KPX p slash -23
KPX p hyphen 4
KPX p comma -21
KPX p asterisk -40
KPX p parenright -18
KPX p quoteright -35
KPX p ampersand 4
KPX q dotlessj 28
KPX q tcommabelow 5
KPX q tbar 5
KPX q tcaron 5
KPX q jcircumflex 28
KPX q gbreve -5
KPX q ccaron -5
KPX q ccircumflex -5
KPX q Ydieresis 10
KPX q otilde -5
KPX q eth -5
KPX q edieresis -5
KPX q ecircumflex -5
KPX q eacute -5
KPX q egrave -5
KPX q ccedilla -5
KPX q aring -7
KPX q adieresis -7
KPX q acircumflex -7
KPX q agrave -7
KPX q quoteleft 6
KPX q florin 5
KPX q quotesinglbase -7
KPX q y 10
KPX q w 8
KPX q v 10
KPX q t 5
KPX q q -5
KPX q p 5
KPX q o -5
KPX q j 28
KPX q g -5
KPX q f 5
KPX q e -5
KPX q d -5
KPX q c -5
KPX q a -7
KPX q underscore 25
KPX q backslash -23
KPX q at -3
KPX q question -5
KPX q comma -7
KPX q asterisk 5
KPX r tcommabelow 8
KPX r tbar 8
KPX r tcaron 8
KPX r scircumflex 5
KPX r gbreve -16
KPX r ccaron -16
KPX r ccircumflex -16
KPX r Ydieresis 10
KPX r otilde -16
KPX r eth -16
KPX r edieresis -16
KPX r ecircumflex -16
KPX r eacute -16
KPX r egrave -16
KPX r ccedilla -16
KPX r aring -11
KPX r adieresis -11
KPX r acircumflex -11
KPX r agrave -11
KPX r scaron 5
KPX r quoteright 15
KPX r quoteleft 15
KPX r florin 8
KPX r quotesinglbase -94
KPX r braceright -38
KPX r y 10
KPX r x 7
KPX r w 8
KPX r v 10
KPX r t 8
KPX r s 5
KPX r q -16
KPX r p 5
KPX r o -16
KPX r g -16
KPX r f 8
KPX r e -16
KPX r d -16
KPX r c -16
KPX r a -11
KPX r underscore -50
KPX r bracketright -38
KPX r backslash -22
KPX r at -10
KPX r question -5
KPX r colon 5
KPX r slash -55
KPX r hyphen -30
KPX r comma -109
KPX r asterisk 11
KPX r parenright -25
KPX r quoteright 15
KPX r ampersand -29
KPX s tcommabelow -8
KPX s tbar -8
KPX s tcaron -8
KPX s scircumflex -9
KPX s scaron -9
KPX s quoteright -5
KPX s quoteleft -5
KPX s florin -9
KPX s braceright -12
KPX s x -10
KPX s t -8
KPX s s -9
KPX s p -10
KPX s f -9
KPX s underscore -35
KPX s bracketright -12
KPX s backslash -45
KPX s question -20
KPX s slash -5
KPX s hyphen -6
KPX s asterisk -5
KPX s parenright -9
KPX s quoteright -5
KPX s ampersand 8
KPX t tcommabelow 3
KPX t tbar 3
KPX t tcaron 3
KPX t gbreve -14
KPX t ccaron -14
KPX t ccircumflex -14
KPX t Ydieresis 5
KPX t otilde -14
KPX t eth -14
KPX t edieresis -14
KPX t ecircumflex -14
KPX t eacute -14
KPX t egrave -14
KPX t ccedilla -14
KPX t braceright 5
KPX t y 5
KPX t w 5
KPX t v 5
KPX t t 3
KPX t q -14
KPX t o -14
KPX t g -14
KPX t e -14
KPX t d -14
KPX t c -14
KPX t bracketright 5
KPX t backslash -20
KPX t at -12
KPX t question -5
KPX t slash 5
KPX t hyphen -20
KPX t asterisk 5
KPX t ampersand -10
KPX u backslash -43
KPX u question -5
KPX v tcommabelow 5
KPX v tbar 5
KPX v tcaron 5
KPX v gbreve -12
KPX v ccaron -12
KPX v ccircumflex -12
KPX v Ydieresis 11
KPX v otilde -12
KPX v eth -12
KPX v edieresis -12
KPX v ecircumflex -12
KPX v eacute -12
KPX v egrave -12
KPX v ccedilla -12
KPX v aring -10
KPX v adieresis -10
KPX v acircumflex -10
KPX v agrave -10
KPX v quotesinglbase -65
KPX v braceright -33
KPX v y 11
KPX v x 8
KPX v w 10
KPX v v 11
KPX v t 5
KPX v q -12
KPX v p 5
KPX v o -12
KPX v g -12
KPX v e -12
KPX v d -12
KPX v c -12
KPX v a -10
KPX v underscore -60
KPX v bracketright -33
KPX v backslash -27
KPX v at -8
KPX v question -5
KPX v slash -47
KPX v hyphen -5
KPX v comma -65
KPX v parenright -15
KPX v ampersand -15
KPX w tcommabelow 5
KPX w tbar 5
KPX w tcaron 5
KPX w gbreve -7
KPX w ccaron -7
KPX w ccircumflex -7
KPX w Ydieresis 10
KPX w otilde -7
KPX w eth -7
KPX w edieresis -7
KPX w ecircumflex -7
KPX w eacute -7
KPX w egrave -7
KPX w ccedilla -7
KPX w aring -12
KPX w adieresis -12
KPX w acircumflex -12
KPX w agrave -12
KPX w quotesinglbase -45
KPX w braceright -25
KPX w y 10
KPX w w 8
KPX w v 10
KPX w t 5
KPX w q -7
KPX w o -7
KPX w g -7
KPX w e -7
KPX w d -7
KPX w c -7
KPX w a -12
KPX w underscore -50
KPX w bracketright -25
KPX w backslash -20
KPX w at -5
KPX w question -5
KPX w slash -31
KPX w hyphen -2
KPX w comma -45
KPX w parenright -8
KPX w ampersand -8
KPX x tcommabelow -8
KPX x tbar -8
KPX x tcaron -8
KPX x lacute -8
KPX x gbreve -18
KPX x ccaron -18
KPX x ccircumflex -18
KPX x udieresis -12
KPX x ugrave -12
KPX x otilde -18
KPX x eth -18
KPX x edieresis -18
KPX x ecircumflex -18
KPX x eacute -18
KPX x egrave -18
KPX x ccedilla -18
KPX x aring -8
KPX x adieresis -8
KPX x acircumflex -8
KPX x agrave -8
KPX x florin -4
KPX x braceright 13
KPX x x 10
KPX x u -12
KPX x t -8
KPX x q -18
KPX x o -18
KPX x l -8
KPX x g -18
KPX x f -4
KPX x e -18
KPX x d -18
KPX x c -18
KPX x a -8
KPX x bracketright 13
KPX x backslash -32
KPX x at -15
KPX x question -5
KPX x slash 10
KPX x hyphen -21
KPX x parenright 5
KPX y tcommabelow 5
KPX y tbar 5
KPX y tcaron 5
KPX y gbreve -12
KPX y ccaron -12
KPX y ccircumflex -12
KPX y Ydieresis 11
KPX y otilde -12
KPX y eth -12
KPX y edieresis -12
KPX y ecircumflex -12
KPX y eacute -12
KPX y egrave -12
KPX y ccedilla -12
KPX y aring -10
KPX y adieresis -10
KPX y acircumflex -10
KPX y agrave -10
KPX y quotesinglbase -65
KPX y braceright -33
KPX y y 11
KPX y x 8
KPX y w 10
KPX y v 11
KPX y t 5
KPX y q -12
KPX y p 5
KPX y o -12
KPX y g -12
KPX y e -12
KPX y d -12
KPX y c -12
KPX y a -10
KPX y underscore -60
KPX y bracketright -33
KPX y backslash -27
KPX y at -8
KPX y question -5
KPX y slash -47
KPX y hyphen -5
KPX y comma -65
KPX y parenright -15
KPX y ampersand -15
KPX z lacute -10
KPX z gbreve -12
KPX z ccaron -12
KPX z ccircumflex -12
KPX z otilde -12
KPX z eth -12
KPX z edieresis -12
KPX z ecircumflex -12
KPX z eacute -12
KPX z egrave -12
KPX z ccedilla -12
KPX z braceright 10
KPX z q -12
KPX z o -12
KPX z l -10
KPX z g -12
KPX z e -12
KPX z d -12
KPX z c -12
KPX z bracketright 10
KPX z backslash -17
KPX z at -11
KPX z question -5
KPX z slash 15
KPX z hyphen -30
KPX z ampersand -10
KPX braceleft pi -20
KPX braceleft mugreek -20
KPX braceleft Omegagreek -20
KPX braceleft dotlessj 65
KPX braceleft tcommabelow -20
KPX braceleft zcaron 5
KPX braceleft tbar -20
KPX braceleft tcaron -20
KPX braceleft scircumflex -13
KPX braceleft jcircumflex 65
KPX braceleft gbreve -23
KPX braceleft ccaron -23
KPX braceleft ccircumflex -23
KPX braceleft Ydieresis -33
KPX braceleft yacute -33
KPX braceleft udieresis -15
KPX braceleft ugrave -15
KPX braceleft otilde -23
KPX braceleft eth -23
KPX braceleft edieresis -23
KPX braceleft ecircumflex -23
KPX braceleft eacute -23
KPX braceleft egrave -23
KPX braceleft ccedilla -23
KPX braceleft aring -5
KPX braceleft adieresis -5
KPX braceleft acircumflex -5
KPX braceleft agrave -5
KPX braceleft AE 5
KPX braceleft scaron -13
KPX braceleft florin -20
KPX braceleft z 5
KPX braceleft y -3
KPX braceleft x 13
KPX braceleft w -25
KPX braceleft v -33
KPX braceleft u -15
KPX braceleft t -20
KPX braceleft s -13
KPX braceleft q -23
KPX braceleft o -23
KPX braceleft j 65
KPX braceleft g -23
KPX braceleft f -20
KPX braceleft e -23
KPX braceleft d -23
KPX braceleft c -23
KPX braceleft a -5
KPX braceleft Z 7
KPX braceleft Y 15
KPX braceleft X 5
KPX braceleft W 11
KPX braceleft V 12
KPX braceleft U -5
KPX braceleft T 19
KPX braceleft S -5
KPX braceleft Q -23
KPX braceleft O -23
KPX braceleft J 5
KPX braceleft G -23
KPX braceleft C -23
KPX braceleft A 5
KPX germandbls tcommabelow -22
KPX germandbls zcaron -5
KPX germandbls tbar -22
KPX germandbls tcaron -22
KPX germandbls scircumflex -6
KPX germandbls Ydieresis -25
KPX germandbls aring 4
KPX germandbls adieresis 4
KPX germandbls acircumflex 4
KPX germandbls agrave 4
KPX germandbls scaron -6
KPX germandbls quoteright -13
KPX germandbls quoteleft -13
KPX germandbls florin -22
KPX germandbls braceright -12
KPX germandbls z -5
KPX germandbls y -25
KPX germandbls x -6
KPX germandbls w -17
KPX germandbls v -25
KPX germandbls t -22
KPX germandbls s -6
KPX germandbls p -5
KPX germandbls f -22
KPX germandbls a 4
KPX germandbls underscore -25
KPX germandbls bracketright -12
KPX germandbls backslash -30
KPX germandbls question -8
KPX germandbls slash -5
KPX germandbls hyphen -8
KPX germandbls asterisk -10
KPX germandbls parenright -4
KPX germandbls quoteright -13
KPX germandbls ampersand 5
KPX ccedilla dotlessj 18
KPX ccedilla zcaron 9
KPX ccedilla jcircumflex 18
KPX ccedilla gbreve -15
KPX ccedilla ccaron -15
KPX ccedilla ccircumflex -15
KPX ccedilla otilde -15
KPX ccedilla eth -15
KPX ccedilla edieresis -15
KPX ccedilla ecircumflex -15
KPX ccedilla eacute -15
KPX ccedilla egrave -15
KPX ccedilla ccedilla -15
KPX ccedilla quoteright 10
KPX ccedilla quoteleft 10
KPX ccedilla braceright 4
KPX ccedilla z 9
KPX ccedilla y 11
KPX ccedilla q -15
KPX ccedilla o -15
KPX ccedilla j 18
KPX ccedilla g -15
KPX ccedilla e -15
KPX ccedilla d -15
KPX ccedilla c -15
KPX ccedilla bracketright 4
KPX ccedilla backslash -25
KPX ccedilla at -12
KPX ccedilla question -14
KPX ccedilla colon 5
KPX ccedilla slash 5
KPX ccedilla hyphen -30
KPX ccedilla quoteright 10
KPX ccedilla ampersand -10
KPX igrave backslash 6
KPX iacute lacute 5
KPX iacute thorn 5
KPX iacute l 5
KPX iacute k 5
KPX iacute h 5
KPX iacute b 5
KPX thorn tcommabelow -12
KPX thorn zcaron -10
KPX thorn tbar -12
KPX thorn tcaron -12
KPX thorn Ydieresis -12
KPX thorn udieresis -8
KPX thorn ugrave -8
KPX thorn aring -5
KPX thorn adieresis -5
KPX thorn acircumflex -5
KPX thorn agrave -5
KPX thorn quoteright -35
KPX thorn quoteleft -35
KPX thorn florin -12
KPX thorn quotesinglbase -21
KPX thorn braceright -23
KPX thorn z -10
KPX thorn y -12
KPX thorn x -16
KPX thorn w -7
KPX thorn v -12
KPX thorn u -8
KPX thorn t -12
KPX thorn p -5
KPX thorn f -12
KPX thorn a -5
KPX thorn underscore -30
KPX thorn bracketright -23
KPX thorn backslash -66
KPX thorn question -23
KPX thorn colon -5
KPX thorn slash -23
KPX thorn hyphen 4
KPX thorn comma -21
KPX thorn asterisk -40
KPX thorn parenright -18
KPX thorn quoteright -35
KPX thorn ampersand 4
KPX Aogonek dotlessj 10
KPX Aogonek tcommabelow -20
KPX Aogonek tbar -20
KPX Aogonek tcaron -20
KPX Aogonek lacute -8
KPX Aogonek jcircumflex 10
KPX Aogonek gbreve -5
KPX Aogonek ccaron -5
KPX Aogonek ccircumflex -5
KPX Aogonek Ydieresis -15
KPX Aogonek yacute -15
KPX Aogonek udieresis -5
KPX Aogonek ugrave -5
KPX Aogonek otilde -5
KPX Aogonek eth -5
KPX Aogonek edieresis -5
KPX Aogonek ecircumflex -5
KPX Aogonek eacute -5
KPX Aogonek egrave -5
KPX Aogonek ccedilla -5
KPX Aogonek AE 9
KPX Aogonek quoteright -53
KPX Aogonek quoteleft -53
KPX Aogonek florin -12
KPX Aogonek quotesinglbase 8
KPX Aogonek braceright 11
KPX Aogonek y -14
KPX Aogonek x 9
KPX Aogonek w -9
KPX Aogonek v -15
KPX Aogonek u -5
KPX Aogonek t -20
KPX Aogonek q -5
KPX Aogonek o -5
KPX Aogonek l -8
KPX Aogonek j 40
KPX Aogonek g -5
KPX Aogonek f -12
KPX Aogonek e -5
KPX Aogonek d -5
KPX Aogonek c -5
KPX Aogonek bracketright 11
KPX Aogonek backslash -60
KPX Aogonek Z 2
KPX Aogonek Y -63
KPX Aogonek X 6
KPX Aogonek W -21
KPX Aogonek V -31
KPX Aogonek U -13
KPX Aogonek T -70
KPX Aogonek Q -14
KPX Aogonek O -14
KPX Aogonek J 11
KPX Aogonek G -14
KPX Aogonek C -14
KPX Aogonek A 9
KPX Aogonek question -23
KPX Aogonek colon 14
KPX Aogonek slash 20
KPX Aogonek hyphen -13
KPX Aogonek comma 8
KPX Aogonek asterisk -50
KPX Aogonek quoteright -53
KPX Aogonek exclam 4
KPX aogonek tcommabelow -3
KPX aogonek tbar -3
KPX aogonek tcaron -3
KPX aogonek Ydieresis -4
KPX aogonek quoteright -17
KPX aogonek quoteleft -17
KPX aogonek florin -3
KPX aogonek y -4
KPX aogonek v -4
KPX aogonek t -3
KPX aogonek j 20
KPX aogonek f -3
KPX aogonek backslash -51
KPX aogonek question -18
KPX aogonek asterisk -28
KPX aogonek quoteright -17
KPX dcaron imacron 50
KPX dcaron itilde 70
KPX dcaron idieresis 85
KPX dcaron icircumflex 35
KPX dcaron igrave 55
KPX dcaron ecircumflex -20
KPX dcaron eacute -20
KPX dcaron egrave -10
KPX dcaron s -20
KPX dcaron q -40
KPX dcaron o -40
KPX dcaron g -50
KPX dcaron e -40
KPX dcaron d -40
KPX dcaron c -40
KPX dcaron a -30
KPX Eogonek lacute -7
KPX Eogonek gbreve -8
KPX Eogonek ccaron -8
KPX Eogonek ccircumflex -8
KPX Eogonek otilde -8
KPX Eogonek eth -8
KPX Eogonek edieresis -8
KPX Eogonek ecircumflex -8
KPX Eogonek eacute -8
KPX Eogonek egrave -8
KPX Eogonek ccedilla -8
KPX Eogonek aring -8
KPX Eogonek adieresis -8
KPX Eogonek acircumflex -8
KPX Eogonek agrave -8
KPX Eogonek q -8
KPX Eogonek p -5
KPX Eogonek o -8
KPX Eogonek l -7
KPX Eogonek j 30
KPX Eogonek g -8
KPX Eogonek e -8
KPX Eogonek d -8
KPX Eogonek c -8
KPX Eogonek a -8
KPX Eogonek U -10
KPX Eogonek Q -11
KPX Eogonek O -11
KPX Eogonek J 7
KPX Eogonek G -11
KPX Eogonek C -11
KPX Eogonek slash 10
KPX Eogonek hyphen -7
KPX eogonek scircumflex -5
KPX eogonek Ydieresis -7
KPX eogonek aring -11
KPX eogonek adieresis -11
KPX eogonek acircumflex -11
KPX eogonek agrave -11
KPX eogonek scaron -5
KPX eogonek quoteright -20
KPX eogonek quoteleft -20
KPX eogonek florin -3
KPX eogonek quotesinglbase -6
KPX eogonek y -7
KPX eogonek w -7
KPX eogonek v -7
KPX eogonek s -5
KPX eogonek j 20
KPX eogonek f -3
KPX eogonek a -11
KPX eogonek backslash -55
KPX eogonek question -13
KPX eogonek colon -3
KPX eogonek comma -6
KPX eogonek parenright -8
KPX eogonek quoteright -20
KPX itilde l 20
KPX itilde k 20
KPX itilde h 20
KPX itilde backslash 6
KPX imacron backslash 6
KPX Iogonek j 20
KPX iogonek j 20
KPX iogonek backslash 6
KPX jcircumflex dotlessj 23
KPX jcircumflex jcircumflex 23
KPX jcircumflex j 23
KPX jcircumflex underscore 25
KPX jcircumflex backslash 6
KPX lcedilla tcommabelow -25
KPX lcedilla tbar -25
KPX lcedilla tcaron -25
KPX lcedilla lacute -14
KPX lcedilla gbreve -19
KPX lcedilla ccaron -19
KPX lcedilla ccircumflex -19
KPX lcedilla Ydieresis -23
KPX lcedilla udieresis -14
KPX lcedilla ugrave -14
KPX lcedilla otilde -19
KPX lcedilla eth -19
KPX lcedilla edieresis -19
KPX lcedilla ecircumflex -19
KPX lcedilla eacute -19
KPX lcedilla egrave -19
KPX lcedilla ccedilla -19
KPX lcedilla aring -5
KPX lcedilla adieresis -5
KPX lcedilla acircumflex -5
KPX lcedilla agrave -5
KPX lcedilla quoteright -28
KPX lcedilla quoteleft -28
KPX lcedilla florin -25
KPX lcedilla quotesinglbase 10
KPX lcedilla braceright 13
KPX lcedilla y -23
KPX lcedilla x 5
KPX lcedilla w -20
KPX lcedilla v -23
KPX lcedilla u -14
KPX lcedilla t -25
KPX lcedilla q -19
KPX lcedilla p -10
KPX lcedilla o -19
KPX lcedilla l -14
KPX lcedilla g -19
KPX lcedilla f -25
KPX lcedilla e -19
KPX lcedilla d -19
KPX lcedilla c -19
KPX lcedilla a -5
KPX lcedilla bracketright 13
KPX lcedilla backslash -17
KPX lcedilla at -10
KPX lcedilla question -5
KPX lcedilla colon 10
KPX lcedilla slash 16
KPX lcedilla hyphen -23
KPX lcedilla comma 10
KPX lcedilla asterisk -35
KPX lcedilla parenright 8
KPX lcedilla quoteright -28
KPX lcedilla exclam 5
KPX scedilla tcommabelow -8
KPX scedilla tbar -8
KPX scedilla tcaron -8
KPX scedilla scircumflex -9
KPX scedilla scaron -9
KPX scedilla quoteright -5
KPX scedilla quoteleft -5
KPX scedilla florin -9
KPX scedilla braceright -12
KPX scedilla x -10
KPX scedilla t -8
KPX scedilla s -9
KPX scedilla p -10
KPX scedilla f -9
KPX scedilla underscore -35
KPX scedilla bracketright -12
KPX scedilla backslash -45
KPX scedilla question -20
KPX scedilla slash -5
KPX scedilla hyphen -6
KPX scedilla asterisk -5
KPX scedilla parenright -9
KPX scedilla quoteright -5
KPX scedilla ampersand 8
KPX tcedilla tcommabelow 3
KPX tcedilla tbar 3
KPX tcedilla tcaron 3
KPX tcedilla gbreve -14
KPX tcedilla ccaron -14
KPX tcedilla ccircumflex -14
KPX tcedilla Ydieresis 5
KPX tcedilla otilde -14
KPX tcedilla eth -14
KPX tcedilla edieresis -14
KPX tcedilla ecircumflex -14
KPX tcedilla eacute -14
KPX tcedilla egrave -14
KPX tcedilla ccedilla -14
KPX tcedilla braceright 5
KPX tcedilla y 5
KPX tcedilla w 5
KPX tcedilla v 5
KPX tcedilla t 3
KPX tcedilla q -14
KPX tcedilla o -14
KPX tcedilla j 20
KPX tcedilla g -14
KPX tcedilla e -14
KPX tcedilla d -14
KPX tcedilla c -14
KPX tcedilla bracketright 5
KPX tcedilla backslash -20
KPX tcedilla at -12
KPX tcedilla question -5
KPX tcedilla slash 5
KPX tcedilla hyphen -20
KPX tcedilla asterisk 5
KPX tcedilla ampersand -10
KPX Tbar tcommabelow -11
KPX Tbar zcaron -40
KPX Tbar tbar -11
KPX Tbar tcaron -11
KPX Tbar scircumflex -75
KPX Tbar gbreve -80
KPX Tbar ccaron -80
KPX Tbar ccircumflex -80
KPX Tbar Ydieresis -33
KPX Tbar udieresis -38
KPX Tbar ugrave -38
KPX Tbar otilde -80
KPX Tbar eth -80
KPX Tbar edieresis -80
KPX Tbar ecircumflex -80
KPX Tbar eacute -80
KPX Tbar egrave -80
KPX Tbar ccedilla -80
KPX Tbar aring -78
KPX Tbar adieresis -78
KPX Tbar acircumflex -68
KPX Tbar agrave -78
KPX Tbar AE -70
KPX Tbar scaron -75
KPX Tbar quoteright 10
KPX Tbar quoteleft 10
KPX Tbar florin -9
KPX Tbar quotesinglbase -111
KPX Tbar braceright 19
KPX Tbar z -40
KPX Tbar y -33
KPX Tbar x -30
KPX Tbar w -30
KPX Tbar v -33
KPX Tbar u -38
KPX Tbar t -11
KPX Tbar s -75
KPX Tbar r -38
KPX Tbar q -80
KPX Tbar p -25
KPX Tbar o -80
KPX Tbar m -38
KPX Tbar g -80
KPX Tbar f -9
KPX Tbar e -80
KPX Tbar d -80
KPX Tbar c -80
KPX Tbar a -78
KPX Tbar underscore -90
KPX Tbar bracketright 19
KPX Tbar backslash 20
KPX Tbar Y 15
KPX Tbar W 10
KPX Tbar V 11
KPX Tbar T 11
KPX Tbar S -8
KPX Tbar Q -33
KPX Tbar O -33
KPX Tbar M -11
KPX Tbar J -95
KPX Tbar G -33
KPX Tbar C -33
KPX Tbar A -70
KPX Tbar at -45
KPX Tbar question 18
KPX Tbar colon -58
KPX Tbar slash -87
KPX Tbar hyphen -73
KPX Tbar comma -111
KPX Tbar asterisk 10
KPX Tbar quoteright 10
KPX Tbar ampersand -35
KPX uogonek j 20
KPX uogonek backslash -43
KPX uogonek question -5
KPX tcommabelow tcommabelow 3
KPX tcommabelow tbar 3
KPX tcommabelow tcaron 3
KPX tcommabelow gbreve -14
KPX tcommabelow ccaron -14
KPX tcommabelow ccircumflex -14
KPX tcommabelow Ydieresis 5
KPX tcommabelow otilde -14
KPX tcommabelow eth -14
KPX tcommabelow edieresis -14
KPX tcommabelow ecircumflex -14
KPX tcommabelow eacute -14
KPX tcommabelow egrave -14
KPX tcommabelow ccedilla -14
KPX tcommabelow braceright 5
KPX tcommabelow y 5
KPX tcommabelow w 5
KPX tcommabelow v 5
KPX tcommabelow t 3
KPX tcommabelow q -14
KPX tcommabelow o -14
KPX tcommabelow g -14
KPX tcommabelow e -14
KPX tcommabelow d -14
KPX tcommabelow c -14
KPX tcommabelow bracketright 5
KPX tcommabelow backslash -20
KPX tcommabelow at -12
KPX tcommabelow question -5
KPX tcommabelow slash 5
KPX tcommabelow hyphen -20
KPX tcommabelow asterisk 5
KPX tcommabelow ampersand -10
KPX dotlessj dotlessj 23
KPX dotlessj jcircumflex 23
KPX dotlessj j 23
KPX dotlessj underscore 25
KPX dotlessj backslash 6
KPX Deltagreek pi -8
KPX Deltagreek Omegagreek -10
KPX Deltagreek quoteright -30
KPX Deltagreek quoteleft -30
KPX Deltagreek backslash -60
KPX Deltagreek question -30
KPX Deltagreek slash 10
KPX Deltagreek asterisk -50
KPX Deltagreek quoteright -30
KPX Omegagreek Omegagreek -20
KPX Omegagreek Deltagreek -10
KPX Omegagreek quoteright -12
KPX Omegagreek quoteleft -12
KPX Omegagreek braceright -20
KPX Omegagreek bracketright -20
KPX Omegagreek backslash -36
KPX Omegagreek question -28
KPX Omegagreek slash -10
KPX Omegagreek parenright -10
KPX Omegagreek quoteright -12
KPX mugreek braceright -20
KPX mugreek bracketright -20
KPX mugreek backslash -52
KPX mugreek asterisk -13
KPX pi quotesinglbase -20
KPX pi braceright -20
KPX pi bracketright -20
KPX pi backslash -20
KPX pi question -8
KPX pi slash -10
KPX pi period -20
KPX quoteleft tcommabelow 6
KPX quoteleft zcaron -5
KPX quoteleft tbar 6
KPX quoteleft tcaron 6
KPX quoteleft scircumflex -30
KPX quoteleft gbreve -35
KPX quoteleft ccaron -35
KPX quoteleft ccircumflex -35
KPX quoteleft otilde -35
KPX quoteleft eth -35
KPX quoteleft edieresis -35
KPX quoteleft ecircumflex -35
KPX quoteleft eacute -35
KPX quoteleft egrave -35
KPX quoteleft ccedilla -35
KPX quoteleft aring -28
KPX quoteleft adieresis -28
KPX quoteleft acircumflex -28
KPX quoteleft agrave -28
KPX quoteleft AE -53
KPX quoteleft scaron -30
KPX quoteleft florin 6
KPX quoteleft z -5
KPX quoteleft t 6
KPX quoteleft s -30
KPX quoteleft q -35
KPX quoteleft p 6
KPX quoteleft o -35
KPX quoteleft g -35
KPX quoteleft f 6
KPX quoteleft e -35
KPX quoteleft d -35
KPX quoteleft c -35
KPX quoteleft a -28
KPX quoteleft Y 10
KPX quoteleft X 4
KPX quoteleft W 10
KPX quoteleft V 10
KPX quoteleft T 10
KPX quoteleft Q -10
KPX quoteleft O -10
KPX quoteleft M -10
KPX quoteleft J -112
KPX quoteleft G -10
KPX quoteleft C -10
KPX quoteleft A -53
KPX quoteright zcaron -5
KPX quoteright scircumflex -35
KPX quoteright gbreve -35
KPX quoteright ccaron -35
KPX quoteright ccircumflex -35
KPX quoteright otilde -35
KPX quoteright eth -35
KPX quoteright edieresis -35
KPX quoteright ecircumflex -35
KPX quoteright eacute -35
KPX quoteright egrave -35
KPX quoteright ccedilla -35
KPX quoteright aring -28
KPX quoteright adieresis -28
KPX quoteright acircumflex -28
KPX quoteright agrave -28
KPX quoteright AE -53
KPX quoteright scaron -35
KPX quoteright z -5
KPX quoteright s -35
KPX quoteright q -35
KPX quoteright o -35
KPX quoteright g -35
KPX quoteright e -35
KPX quoteright d -35
KPX quoteright c -35
KPX quoteright a -28
KPX quoteright Y 10
KPX quoteright X 4
KPX quoteright W 10
KPX quoteright V 10
KPX quoteright T 10
KPX quoteright Q -10
KPX quoteright O -10
KPX quoteright M -10
KPX quoteright J -112
KPX quoteright G -10
KPX quoteright C -10
KPX quoteright A -53
KPX quotesinglbase pi -20
KPX quotesinglbase tcommabelow -38
KPX quotesinglbase tbar -38
KPX quotesinglbase tcaron -38
KPX quotesinglbase lacute -10
KPX quotesinglbase gbreve -22
KPX quotesinglbase ccaron -22
KPX quotesinglbase ccircumflex -22
KPX quotesinglbase Ydieresis -65
KPX quotesinglbase yacute -65
KPX quotesinglbase udieresis -10
KPX quotesinglbase ugrave -10
KPX quotesinglbase otilde -22
KPX quotesinglbase eth -22
KPX quotesinglbase edieresis -22
KPX quotesinglbase ecircumflex -22
KPX quotesinglbase eacute -22
KPX quotesinglbase egrave -22
KPX quotesinglbase ccedilla -22
KPX quotesinglbase aring -5
KPX quotesinglbase adieresis -5
KPX quotesinglbase acircumflex -5
KPX quotesinglbase agrave -5
KPX quotesinglbase AE 6
KPX quotesinglbase florin -28
KPX quotesinglbase y -53
KPX quotesinglbase w -45
KPX quotesinglbase v -65
KPX quotesinglbase u -10
KPX quotesinglbase t -38
KPX quotesinglbase q -22
KPX quotesinglbase p -7
KPX quotesinglbase o -22
KPX quotesinglbase l -10
KPX quotesinglbase g -22
KPX quotesinglbase f -28
KPX quotesinglbase e -22
KPX quotesinglbase d -22
KPX quotesinglbase c -22
KPX quotesinglbase a -5
KPX quotesinglbase Y -103
KPX quotesinglbase W -52
KPX quotesinglbase V -67
KPX quotesinglbase U -24
KPX quotesinglbase T -111
KPX quotesinglbase Q -30
KPX quotesinglbase O -30
KPX quotesinglbase J 10
KPX quotesinglbase G -30
KPX quotesinglbase C -30
KPX quotesinglbase A 6
EndKernPairs
EndKernData
EndFontMetrics
