StartFontMetrics 2.0
Comment Generated by FontForge 20161003
Comment Creation Date: Thu Feb  9 11:51:55 2017
FontName HPSimplifiedW02-Italic
FullName HP Simplified Italic
FamilyName HP Simplified
Weight Normal
Notice ((c) Copyright 2012 Hewlett-Packard Development Company, L.P.)
ItalicAngle -11
IsFixedPitch false
UnderlinePosition -120
UnderlineThickness 50
Version 1,000
EncodingScheme ISO10646-1
FontBBox -67 -199 1149 921
CapHeight 693
XHeight 510
Ascender 718
Descender -170
StartCharMetrics 394
C 32 ; WX 206 ; N space ; B 0 0 0 0 ;
C 33 ; WX 258 ; N exclam ; B 69 -6 310 693 ;
C 34 ; WX 328 ; N quotedbl ; B 135 470 416 693 ;
C 35 ; WX 565 ; N numbersign ; B 82 0 614 671 ;
C 36 ; WX 536 ; N dollar ; B 78 -98 558 767 ;
C 37 ; WX 795 ; N percent ; B 124 -9 799 688 ;
C 38 ; WX 609 ; N ampersand ; B 58 -10 624 703 ;
C 39 ; WX 170 ; N quoteright ; B 135 470 258 693 ;
C 40 ; WX 290 ; N parenleft ; B 103 -82 404 768 ;
C 41 ; WX 290 ; N parenright ; B 8 -82 306 768 ;
C 42 ; WX 395 ; N asterisk ; B 120 351 459 693 ;
C 43 ; WX 518 ; N plus ; B 125 132 526 552 ;
C 44 ; WX 222 ; N comma ; B 24 -124 191 121 ;
C 45 ; WX 372 ; N hyphen ; B 88 228 386 318 ;
C 46 ; WX 222 ; N period ; B 50 -6 184 121 ;
C 47 ; WX 367 ; N slash ; B 10 -83 490 768 ;
C 48 ; WX 536 ; N zero ; B 96 -11 569 693 ;
C 49 ; WX 536 ; N one ; B 192 0 484 693 ;
C 50 ; WX 536 ; N two ; B 62 0 567 693 ;
C 51 ; WX 536 ; N three ; B 67 -11 546 693 ;
C 52 ; WX 536 ; N four ; B 86 0 559 677 ;
C 53 ; WX 536 ; N five ; B 78 -11 572 677 ;
C 54 ; WX 536 ; N six ; B 111 -11 584 693 ;
C 55 ; WX 536 ; N seven ; B 145 0 585 677 ;
C 56 ; WX 536 ; N eight ; B 84 -11 575 693 ;
C 57 ; WX 536 ; N nine ; B 79 -11 557 693 ;
C 58 ; WX 222 ; N colon ; B 50 -6 255 513 ;
C 59 ; WX 222 ; N semicolon ; B 24 -124 252 513 ;
C 60 ; WX 536 ; N less ; B 156 134 548 549 ;
C 61 ; WX 536 ; N equal ; B 134 197 569 480 ;
C 62 ; WX 536 ; N greater ; B 132 134 524 549 ;
C 63 ; WX 410 ; N question ; B 107 -6 477 703 ;
C 64 ; WX 815 ; N at ; B 78 -148 858 683 ;
C 65 ; WX 524 ; N A ; B 29 0 500 693 ;
C 66 ; WX 541 ; N B ; B 72 0 573 700 ;
C 67 ; WX 489 ; N C ; B 103 -11 577 703 ;
C 68 ; WX 575 ; N D ; B 72 0 599 699 ;
C 69 ; WX 506 ; N E ; B 72 0 582 693 ;
C 70 ; WX 469 ; N F ; B 72 0 570 693 ;
C 71 ; WX 564 ; N G ; B 103 -11 605 703 ;
C 72 ; WX 595 ; N H ; B 72 0 654 693 ;
C 73 ; WX 246 ; N I ; B 74 0 303 693 ;
C 74 ; WX 360 ; N J ; B 15 -9 426 693 ;
C 75 ; WX 505 ; N K ; B 72 0 610 693 ;
C 76 ; WX 445 ; N L ; B 72 0 444 693 ;
C 77 ; WX 684 ; N M ; B 62 0 735 693 ;
C 78 ; WX 597 ; N N ; B 72 0 658 693 ;
C 79 ; WX 610 ; N O ; B 108 -11 642 703 ;
C 80 ; WX 529 ; N P ; B 72 0 589 700 ;
C 81 ; WX 610 ; N Q ; B 108 -126 642 703 ;
C 82 ; WX 530 ; N R ; B 72 0 583 700 ;
C 83 ; WX 489 ; N S ; B 56 -10 526 703 ;
C 84 ; WX 500 ; N T ; B 142 0 606 693 ;
C 85 ; WX 589 ; N U ; B 108 -11 652 693 ;
C 86 ; WX 508 ; N V ; B 153 0 612 693 ;
C 87 ; WX 777 ; N W ; B 156 0 861 693 ;
C 88 ; WX 538 ; N X ; B 33 0 636 693 ;
C 89 ; WX 503 ; N Y ; B 152 0 612 693 ;
C 90 ; WX 482 ; N Z ; B 31 0 578 693 ;
C 91 ; WX 337 ; N bracketleft ; B 65 -83 456 768 ;
C 92 ; WX 395 ; N backslash ; B 114 -83 422 768 ;
C 93 ; WX 337 ; N bracketright ; B 13 -83 404 768 ;
C 94 ; WX 519 ; N asciicircum ; B 124 337 528 681 ;
C 95 ; WX 500 ; N underscore ; B -20 -128 516 -38 ;
C 96 ; WX 329 ; N quoteleft ; B 107 575 254 708 ;
C 97 ; WX 510 ; N a ; B 82 -12 536 521 ;
C 98 ; WX 512 ; N b ; B 73 -11 523 718 ;
C 99 ; WX 409 ; N c ; B 80 -11 463 521 ;
C 100 ; WX 510 ; N d ; B 80 -12 580 718 ;
C 101 ; WX 469 ; N e ; B 80 -11 500 521 ;
C 102 ; WX 349 ; N f ; B -29 -173 508 729 ;
C 103 ; WX 507 ; N g ; B 53 -177 565 519 ;
C 104 ; WX 528 ; N h ; B 69 0 533 718 ;
C 105 ; WX 231 ; N i ; B 69 0 307 699 ;
C 106 ; WX 234 ; N j ; B -67 -177 307 699 ;
C 107 ; WX 486 ; N k ; B 69 0 546 718 ;
C 108 ; WX 286 ; N l ; B 77 -4 296 718 ;
C 109 ; WX 800 ; N m ; B 69 0 804 521 ;
C 110 ; WX 530 ; N n ; B 70 0 534 521 ;
C 111 ; WX 518 ; N o ; B 85 -11 533 521 ;
C 112 ; WX 517 ; N p ; B 42 -170 528 518 ;
C 113 ; WX 511 ; N q ; B 80 -170 573 519 ;
C 114 ; WX 352 ; N r ; B 69 0 425 512 ;
C 115 ; WX 422 ; N s ; B 44 -11 457 521 ;
C 116 ; WX 356 ; N t ; B 110 -6 414 641 ;
C 117 ; WX 522 ; N u ; B 88 -11 548 510 ;
C 118 ; WX 453 ; N v ; B 108 0 515 510 ;
C 119 ; WX 693 ; N w ; B 108 0 745 510 ;
C 120 ; WX 447 ; N x ; B 19 0 519 510 ;
C 121 ; WX 471 ; N y ; B -4 -174 529 510 ;
C 122 ; WX 445 ; N z ; B 37 0 500 510 ;
C 123 ; WX 337 ; N braceleft ; B 91 -88 447 772 ;
C 124 ; WX 257 ; N bar ; B 66 -83 320 768 ;
C 125 ; WX 337 ; N braceright ; B 16 -88 372 772 ;
C 126 ; WX 457 ; N asciitilde ; B 85 255 521 411 ;
C 160 ; WX 206 ; N nbspace ; B 0 0 0 0 ;
C 161 ; WX 258 ; N exclamdown ; B 49 -170 290 529 ;
C 162 ; WX 536 ; N cent ; B 159 -13 562 694 ;
C 163 ; WX 536 ; N sterling ; B 95 0 598 693 ;
C 164 ; WX 536 ; N currency ; B 88 105 592 574 ;
C 165 ; WX 536 ; N yen ; B 97 0 631 677 ;
C 166 ; WX 257 ; N brokenbar ; B 67 -83 320 768 ;
C 167 ; WX 499 ; N section ; B 52 -100 539 706 ;
C 168 ; WX 365 ; N dieresis ; B 93 589 406 697 ;
C 169 ; WX 776 ; N copyright ; B 115 -13 802 703 ;
C 170 ; WX 389 ; N ordfeminine ; B 131 250 443 706 ;
C 171 ; WX 440 ; N guillemotleft ; B 83 69 474 449 ;
C 172 ; WX 536 ; N logicalnot ; B 143 188 534 442 ;
C 173 ; WX 372 ; N sfthyphen ; B 88 228 386 318 ;
C 174 ; WX 445 ; N registered ; B 120 309 521 729 ;
C 175 ; WX 434 ; N macron ; B 170 605 421 679 ;
C 176 ; WX 363 ; N degree ; B 153 436 422 699 ;
C 177 ; WX 518 ; N plusminus ; B 64 1 526 552 ;
C 178 ; WX 381 ; N twosuperior ; B 108 281 432 685 ;
C 179 ; WX 381 ; N threesuperior ; B 120 275 426 684 ;
C 180 ; WX 344 ; N acute ; B 169 575 332 708 ;
C 181 ; WX 528 ; N mu ; B 28 -170 554 510 ;
C 182 ; WX 580 ; N paragraph ; B 132 -83 641 699 ;
C 183 ; WX 214 ; N periodcentered ; B 110 276 244 403 ;
C 184 ; WX 434 ; N cedilla ; B 112 -197 286 5 ;
C 185 ; WX 381 ; N onesuperior ; B 181 281 386 685 ;
C 186 ; WX 383 ; N ordmasculine ; B 119 250 437 706 ;
C 187 ; WX 440 ; N guillemotright ; B 54 69 444 449 ;
C 188 ; WX 901 ; N onequarter ; B 177 0 841 685 ;
C 189 ; WX 901 ; N onehalf ; B 156 0 878 685 ;
C 190 ; WX 901 ; N threequarters ; B 136 0 880 684 ;
C 191 ; WX 410 ; N questiondown ; B 38 -180 408 529 ;
C 192 ; WX 524 ; N Agrave ; B 29 0 500 883 ;
C 193 ; WX 524 ; N Aacute ; B 29 0 524 883 ;
C 194 ; WX 524 ; N Acircumflex ; B 29 0 541 883 ;
C 195 ; WX 524 ; N Atilde ; B 29 0 578 876 ;
C 196 ; WX 524 ; N Adieresis ; B 29 0 579 865 ;
C 197 ; WX 524 ; N Aring ; B 29 0 531 921 ;
C 198 ; WX 777 ; N AE ; B 19 0 861 693 ;
C 199 ; WX 489 ; N Ccedilla ; B 103 -197 577 703 ;
C 200 ; WX 506 ; N Egrave ; B 72 0 582 883 ;
C 201 ; WX 506 ; N Eacute ; B 72 0 582 883 ;
C 202 ; WX 506 ; N Ecircumflex ; B 72 0 582 883 ;
C 203 ; WX 506 ; N Edieresis ; B 72 0 582 865 ;
C 204 ; WX 246 ; N Igrave ; B 74 0 303 883 ;
C 205 ; WX 246 ; N Iacute ; B 74 0 392 883 ;
C 206 ; WX 246 ; N Icircumflex ; B 74 0 404 883 ;
C 207 ; WX 246 ; N Idieresis ; B 74 0 436 865 ;
C 208 ; WX 575 ; N Eth ; B 61 0 599 699 ;
C 209 ; WX 597 ; N Ntilde ; B 72 0 658 876 ;
C 210 ; WX 610 ; N Ograve ; B 108 -11 642 883 ;
C 211 ; WX 610 ; N Oacute ; B 108 -11 642 883 ;
C 212 ; WX 610 ; N Ocircumflex ; B 108 -11 642 883 ;
C 213 ; WX 610 ; N Otilde ; B 108 -11 642 876 ;
C 214 ; WX 610 ; N Odieresis ; B 108 -11 642 865 ;
C 215 ; WX 536 ; N multiply ; B 152 164 524 520 ;
C 216 ; WX 610 ; N Oslash ; B 39 -35 695 726 ;
C 217 ; WX 589 ; N Ugrave ; B 108 -11 652 883 ;
C 218 ; WX 589 ; N Uacute ; B 108 -11 652 883 ;
C 219 ; WX 589 ; N Ucircumflex ; B 108 -11 652 883 ;
C 220 ; WX 589 ; N Udieresis ; B 108 -11 652 865 ;
C 221 ; WX 503 ; N Yacute ; B 152 0 612 883 ;
C 222 ; WX 511 ; N Thorn ; B 72 0 561 693 ;
C 223 ; WX 548 ; N germandbls ; B 70 -7 572 726 ;
C 224 ; WX 510 ; N agrave ; B 82 -12 536 708 ;
C 225 ; WX 510 ; N aacute ; B 82 -12 536 708 ;
C 226 ; WX 510 ; N acircumflex ; B 82 -12 536 721 ;
C 227 ; WX 510 ; N atilde ; B 82 -12 559 704 ;
C 228 ; WX 510 ; N adieresis ; B 82 -12 556 697 ;
C 229 ; WX 510 ; N aring ; B 82 -12 536 763 ;
C 230 ; WX 771 ; N ae ; B 82 -12 802 521 ;
C 231 ; WX 409 ; N ccedilla ; B 80 -197 463 521 ;
C 232 ; WX 469 ; N egrave ; B 80 -11 500 708 ;
C 233 ; WX 469 ; N eacute ; B 80 -11 500 708 ;
C 234 ; WX 469 ; N ecircumflex ; B 80 -11 500 721 ;
C 235 ; WX 469 ; N edieresis ; B 80 -11 527 697 ;
C 236 ; WX 231 ; N igrave ; B 69 0 267 708 ;
C 237 ; WX 231 ; N iacute ; B 69 0 351 708 ;
C 238 ; WX 231 ; N icircumflex ; B 69 0 357 721 ;
C 239 ; WX 231 ; N idieresis ; B 69 0 398 697 ;
C 240 ; WX 528 ; N eth ; B 85 -11 562 722 ;
C 241 ; WX 530 ; N ntilde ; B 70 0 539 704 ;
C 242 ; WX 518 ; N ograve ; B 85 -11 533 708 ;
C 243 ; WX 518 ; N oacute ; B 85 -11 533 708 ;
C 244 ; WX 518 ; N ocircumflex ; B 85 -11 533 721 ;
C 245 ; WX 518 ; N otilde ; B 85 -11 546 704 ;
C 246 ; WX 518 ; N odieresis ; B 85 -11 548 697 ;
C 247 ; WX 536 ; N divide ; B 134 118 534 565 ;
C 248 ; WX 518 ; N oslash ; B 32 -36 584 544 ;
C 249 ; WX 522 ; N ugrave ; B 88 -11 548 708 ;
C 250 ; WX 522 ; N uacute ; B 88 -11 548 708 ;
C 251 ; WX 522 ; N ucircumflex ; B 88 -11 548 721 ;
C 252 ; WX 522 ; N udieresis ; B 88 -11 548 697 ;
C 253 ; WX 471 ; N yacute ; B -4 -174 529 708 ;
C 254 ; WX 512 ; N thorn ; B 33 -170 523 718 ;
C 255 ; WX 471 ; N Ydieresis ; B -4 -174 529 697 ;
C -1 ; WX 524 ; N Amacron ; B 29 0 549 848 ;
C -1 ; WX 510 ; N amacron ; B 82 -12 536 679 ;
C -1 ; WX 524 ; N Abreve ; B 29 0 549 881 ;
C -1 ; WX 510 ; N abreve ; B 82 -12 536 711 ;
C -1 ; WX 524 ; N Aogonek ; B 29 -184 500 693 ;
C -1 ; WX 510 ; N aogonek ; B 82 -184 536 521 ;
C -1 ; WX 489 ; N Cacute ; B 103 -11 577 883 ;
C -1 ; WX 409 ; N cacute ; B 80 -11 463 708 ;
C -1 ; WX 489 ; N Ccircumflex ; B 103 -11 577 883 ;
C -1 ; WX 409 ; N ccircumflex ; B 80 -11 471 721 ;
C -1 ; WX 489 ; N Cdot ; B 103 -11 577 867 ;
C -1 ; WX 409 ; N cdot ; B 80 -11 463 699 ;
C -1 ; WX 489 ; N Ccaron ; B 103 -11 591 883 ;
C -1 ; WX 409 ; N ccaron ; B 80 -11 500 721 ;
C -1 ; WX 575 ; N Dcaron ; B 72 0 599 883 ;
C -1 ; WX 562 ; N dcaron ; B 80 -12 720 718 ;
C -1 ; WX 575 ; N Dcroat ; B 61 0 599 699 ;
C -1 ; WX 510 ; N dcroat ; B 80 -12 626 718 ;
C -1 ; WX 506 ; N Emacron ; B 72 0 582 848 ;
C -1 ; WX 469 ; N emacron ; B 80 -11 500 679 ;
C -1 ; WX 506 ; N Ebreve ; B 72 0 582 881 ;
C -1 ; WX 469 ; N ebreve ; B 80 -11 502 711 ;
C -1 ; WX 506 ; N Edot ; B 72 0 582 867 ;
C -1 ; WX 469 ; N edot ; B 80 -11 500 699 ;
C -1 ; WX 506 ; N Eogonek ; B 72 -184 582 693 ;
C -1 ; WX 469 ; N eogonek ; B 80 -184 500 521 ;
C -1 ; WX 506 ; N Ecaron ; B 72 0 582 883 ;
C -1 ; WX 469 ; N ecaron ; B 80 -11 508 721 ;
C -1 ; WX 564 ; N Gcircumflex ; B 103 -11 605 883 ;
C -1 ; WX 507 ; N gcircumflex ; B 53 -177 565 721 ;
C -1 ; WX 564 ; N Gbreve ; B 103 -11 605 881 ;
C -1 ; WX 507 ; N gbreve ; B 53 -177 565 711 ;
C -1 ; WX 564 ; N Gdot ; B 103 -11 605 867 ;
C -1 ; WX 507 ; N gdot ; B 53 -177 565 699 ;
C -1 ; WX 564 ; N Gcedilla ; B 103 -199 605 703 ;
C -1 ; WX 507 ; N gcedilla ; B 53 -177 565 724 ;
C -1 ; WX 595 ; N Hcircumflex ; B 72 0 654 883 ;
C -1 ; WX 528 ; N hcircumflex ; B 69 0 533 875 ;
C -1 ; WX 595 ; N Hbar ; B 72 0 691 693 ;
C -1 ; WX 528 ; N hbar ; B 69 0 533 718 ;
C -1 ; WX 246 ; N Itilde ; B 74 0 433 876 ;
C -1 ; WX 231 ; N itilde ; B 69 0 396 704 ;
C -1 ; WX 246 ; N Imacron ; B 74 0 402 848 ;
C -1 ; WX 231 ; N imacron ; B 69 0 363 679 ;
C -1 ; WX 246 ; N Iogonek ; B 4 -184 303 693 ;
C -1 ; WX 231 ; N iogonek ; B -4 -184 304 699 ;
C -1 ; WX 246 ; N Idot ; B 74 0 338 867 ;
C -1 ; WX 231 ; N dotlessi ; B 69 0 262 510 ;
C -1 ; WX 597 ; N IJ ; B 74 -9 663 693 ;
C -1 ; WX 457 ; N ij ; B 69 -177 528 699 ;
C -1 ; WX 360 ; N Jcircumflex ; B 15 -9 516 883 ;
C -1 ; WX 234 ; N jcircumflex ; B -67 -177 356 721 ;
C -1 ; WX 505 ; N Kcedilla ; B 72 -199 610 693 ;
C -1 ; WX 486 ; N kcedilla ; B 69 -199 546 718 ;
C -1 ; WX 445 ; N Lacute ; B 72 0 444 883 ;
C -1 ; WX 286 ; N lacute ; B 77 -4 376 875 ;
C -1 ; WX 445 ; N Lcedilla ; B 72 -199 444 693 ;
C -1 ; WX 286 ; N lcedilla ; B 77 -199 296 718 ;
C -1 ; WX 445 ; N Lcaron ; B 72 0 470 718 ;
C -1 ; WX 338 ; N lcaron ; B 77 -4 440 718 ;
C -1 ; WX 445 ; N Ldot ; B 72 0 474 693 ;
C -1 ; WX 343 ; N ldot ; B 77 -4 411 718 ;
C -1 ; WX 445 ; N Lslash ; B 31 0 444 693 ;
C -1 ; WX 286 ; N lslash ; B 40 -4 324 718 ;
C -1 ; WX 597 ; N Nacute ; B 72 0 658 883 ;
C -1 ; WX 530 ; N nacute ; B 70 0 534 708 ;
C -1 ; WX 597 ; N Ncedilla ; B 72 -199 658 693 ;
C -1 ; WX 530 ; N ncedilla ; B 70 -199 534 521 ;
C -1 ; WX 597 ; N Ncaron ; B 72 0 658 883 ;
C -1 ; WX 530 ; N ncaron ; B 70 0 534 721 ;
C -1 ; WX 587 ; N napostrophe ; B 92 0 591 734 ;
C -1 ; WX 610 ; N Omacron ; B 108 -11 642 848 ;
C -1 ; WX 518 ; N omacron ; B 85 -11 533 679 ;
C -1 ; WX 610 ; N Obreve ; B 108 -11 642 881 ;
C -1 ; WX 518 ; N obreve ; B 85 -11 533 711 ;
C -1 ; WX 610 ; N Odblacute ; B 108 -11 645 869 ;
C -1 ; WX 518 ; N odblacute ; B 85 -11 568 708 ;
C -1 ; WX 824 ; N OE ; B 108 -11 900 704 ;
C -1 ; WX 803 ; N oe ; B 85 -12 834 521 ;
C -1 ; WX 530 ; N Racute ; B 72 0 583 883 ;
C -1 ; WX 352 ; N racute ; B 69 0 436 708 ;
C -1 ; WX 530 ; N Rcedilla ; B 72 -199 583 700 ;
C -1 ; WX 352 ; N rcedilla ; B 39 -199 425 512 ;
C -1 ; WX 530 ; N Rcaron ; B 72 0 583 883 ;
C -1 ; WX 352 ; N rcaron ; B 69 0 451 721 ;
C -1 ; WX 489 ; N Sacute ; B 56 -10 526 883 ;
C -1 ; WX 422 ; N sacute ; B 44 -11 457 708 ;
C -1 ; WX 489 ; N Scircumflex ; B 56 -10 526 883 ;
C -1 ; WX 422 ; N scircumflex ; B 44 -11 457 721 ;
C -1 ; WX 489 ; N Scedilla ; B 56 -197 526 703 ;
C -1 ; WX 422 ; N scedilla ; B 44 -197 457 521 ;
C -1 ; WX 489 ; N Scaron ; B 56 -10 526 883 ;
C -1 ; WX 422 ; N scaron ; B 44 -11 462 721 ;
C -1 ; WX 500 ; N Tcedilla ; B 139 -197 606 693 ;
C -1 ; WX 356 ; N tcedilla ; B 106 -197 414 641 ;
C -1 ; WX 500 ; N Tcaron ; B 142 0 606 883 ;
C -1 ; WX 356 ; N tcaron ; B 110 -6 461 718 ;
C -1 ; WX 500 ; N Tbar ; B 142 0 606 693 ;
C -1 ; WX 356 ; N tbar ; B 75 -6 414 641 ;
C -1 ; WX 589 ; N Utilde ; B 108 -11 652 876 ;
C -1 ; WX 522 ; N utilde ; B 88 -11 548 704 ;
C -1 ; WX 589 ; N Umacron ; B 108 -11 652 848 ;
C -1 ; WX 522 ; N umacron ; B 88 -11 548 679 ;
C -1 ; WX 589 ; N Ubreve ; B 108 -11 652 881 ;
C -1 ; WX 522 ; N ubreve ; B 88 -11 548 711 ;
C -1 ; WX 589 ; N Uring ; B 108 -11 652 921 ;
C -1 ; WX 522 ; N uring ; B 88 -11 548 763 ;
C -1 ; WX 589 ; N Udblacute ; B 108 -11 652 869 ;
C -1 ; WX 522 ; N udblacute ; B 88 -11 561 708 ;
C -1 ; WX 589 ; N Uogonek ; B 108 -184 652 693 ;
C -1 ; WX 522 ; N uogonek ; B 88 -184 548 510 ;
C -1 ; WX 777 ; N Wcircumflex ; B 156 0 861 883 ;
C -1 ; WX 693 ; N wcircumflex ; B 108 0 745 721 ;
C -1 ; WX 503 ; N Ycircumflex ; B 152 0 612 883 ;
C -1 ; WX 471 ; N ycircumflex ; B -4 -174 529 721 ;
C -1 ; WX 503 ; N Ydieresis ; B 152 0 612 865 ;
C -1 ; WX 482 ; N Zacute ; B 31 0 578 883 ;
C -1 ; WX 445 ; N zacute ; B 37 0 500 708 ;
C -1 ; WX 482 ; N Zdot ; B 31 0 578 867 ;
C -1 ; WX 445 ; N zdot ; B 37 0 500 699 ;
C -1 ; WX 482 ; N Zcaron ; B 31 0 578 883 ;
C -1 ; WX 445 ; N zcaron ; B 37 0 500 721 ;
C -1 ; WX 349 ; N florin ; B -29 -173 508 729 ;
C -1 ; WX 489 ; N Scommaaccent ; B 56 -199 526 703 ;
C -1 ; WX 422 ; N scommaaccent ; B 44 -199 457 521 ;
C -1 ; WX 500 ; N Tcommabelow ; B 142 -199 606 693 ;
C -1 ; WX 356 ; N tcommabelow ; B 110 -199 414 641 ;
C -1 ; WX 234 ; N dotlessj ; B -67 -177 262 509 ;
C -1 ; WX 356 ; N circumflex ; B 106 573 364 721 ;
C -1 ; WX 356 ; N caron ; B 106 573 364 721 ;
C -1 ; WX 434 ; N firsttonechinese ; B 170 605 421 679 ;
C -1 ; WX 385 ; N breve ; B 129 576 371 711 ;
C -1 ; WX 434 ; N dotaccent ; B 244 589 370 699 ;
C -1 ; WX 416 ; N ring ; B 130 566 338 763 ;
C -1 ; WX 345 ; N ogonek ; B 133 -184 301 1 ;
C -1 ; WX 362 ; N tilde ; B 92 580 406 704 ;
C -1 ; WX 436 ; N hungarumlaut ; B 89 575 399 708 ;
C -1 ; WX 524 ; N Deltagreek ; B 35 0 506 693 ;
C -1 ; WX 635 ; N Omegagreek ; B 63 0 648 703 ;
C -1 ; WX 528 ; N mugreek ; B 28 -170 554 510 ;
C -1 ; WX 537 ; N pi ; B 83 0 607 509 ;
C -1 ; WX 500 ; N endash ; B 43 270 579 360 ;
C -1 ; WX 1000 ; N emdash ; B 43 270 1079 360 ;
C -1 ; WX 206 ; N quoteleft ; B 135 464 293 695 ;
C -1 ; WX 206 ; N quoteright ; B 132 466 290 697 ;
C -1 ; WX 206 ; N quotesinglbase ; B 22 -108 180 123 ;
C -1 ; WX 376 ; N quotedblleft ; B 135 464 463 695 ;
C -1 ; WX 376 ; N quotedblright ; B 132 466 460 697 ;
C -1 ; WX 376 ; N quotedblbase ; B 22 -108 348 123 ;
C -1 ; WX 406 ; N dagger ; B 104 -83 482 693 ;
C -1 ; WX 471 ; N daggerdbl ; B 77 -83 519 693 ;
C -1 ; WX 383 ; N bullet ; B 119 213 401 480 ;
C -1 ; WX 688 ; N ellipsis ; B 50 -6 658 121 ;
C -1 ; WX 1144 ; N perthousand ; B 124 -9 1149 688 ;
C -1 ; WX 258 ; N guilsinglleft ; B 83 69 292 449 ;
C -1 ; WX 258 ; N guilsinglright ; B 54 69 262 449 ;
C -1 ; WX 350 ; N fraction ; B -43 0 512 677 ;
C -1 ; WX 381 ; N foursuperior ; B 102 281 416 676 ;
C -1 ; WX 536 ; N Euro ; B 96 -11 636 694 ;
C -1 ; WX 433 ; N afii61289 ; B 96 -9 443 729 ;
C -1 ; WX 700 ; N trademark ; B 156 321 762 693 ;
C -1 ; WX 635 ; N Ohm ; B 63 0 648 703 ;
C -1 ; WX 621 ; N estimated ; B 112 -14 629 538 ;
C -1 ; WX 530 ; N partialdiff ; B 77 -13 559 702 ;
C -1 ; WX 524 ; N Delta ; B 35 0 506 693 ;
C -1 ; WX 610 ; N product ; B 72 -96 669 693 ;
C -1 ; WX 471 ; N summation ; B 14 -96 573 693 ;
C -1 ; WX 536 ; N minus ; B 134 300 534 384 ;
C -1 ; WX 350 ; N divisionslash ; B -43 0 512 677 ;
C -1 ; WX 214 ; N bulletoperator ; B 110 276 244 403 ;
C -1 ; WX 542 ; N radical ; B 109 0 683 768 ;
C -1 ; WX 568 ; N infinity ; B 87 181 597 469 ;
C -1 ; WX 319 ; N integral ; B 8 -96 433 754 ;
C -1 ; WX 536 ; N approxequal ; B 91 161 570 516 ;
C -1 ; WX 536 ; N notequal ; B 125 71 552 606 ;
C -1 ; WX 536 ; N lessequal ; B 111 0 548 549 ;
C -1 ; WX 536 ; N greaterequal ; B 102 0 524 549 ;
C -1 ; WX 495 ; N lozenge ; B 93 0 535 677 ;
C -1 ; WX 555 ; N uniF001 ; B -29 -173 628 729 ;
C -1 ; WX 620 ; N uniF002 ; B -29 -173 630 729 ;
C -1 ; WX 555 ; N fi ; B -29 -173 628 729 ;
C -1 ; WX 620 ; N fl ; B -29 -173 630 729 ;
C -1 ; WX 206 ; N .notdef ; B 0 0 0 0 ;
C -1 ; WX 375 ; N glyph338 ; B 187 541 323 734 ;
C -1 ; WX 436 ; N glyph370 ; B 86 745 400 869 ;
C -1 ; WX 362 ; N glyph371 ; B 92 752 406 876 ;
C -1 ; WX 416 ; N glyph372 ; B 130 724 338 921 ;
C -1 ; WX 299 ; N glyph373 ; B 111 745 375 883 ;
C -1 ; WX 434 ; N glyph374 ; B 92 774 343 848 ;
C -1 ; WX 365 ; N glyph375 ; B 103 759 410 865 ;
C -1 ; WX 430 ; N glyph376 ; B 154 757 280 867 ;
C -1 ; WX 354 ; N glyph377 ; B 146 745 410 883 ;
C -1 ; WX 331 ; N glyph378 ; B 169 745 340 883 ;
C -1 ; WX 329 ; N glyph379 ; B 112 745 263 883 ;
C -1 ; WX 385 ; N glyph380 ; B 129 746 371 881 ;
C -1 ; WX 339 ; N glyph381 ; B 180 -199 300 -43 ;
C -1 ; WX 424 ; N glyph382 ; B 165 555 272 718 ;
C -1 ; WX 339 ; N glyph383 ; B 180 -199 300 -43 ;
C -1 ; WX 339 ; N glyph384 ; B 179 568 299 724 ;
C -1 ; WX 436 ; N glyph385 ; B 162 759 311 875 ;
C -1 ; WX 354 ; N glyph386 ; B 170 759 386 875 ;
C -1 ; WX 424 ; N glyph387 ; B 169 562 271 718 ;
C -1 ; WX 354 ; N glyph388 ; B 124 314 425 688 ;
EndCharMetrics
StartKernData
StartKernPairs 2547
KPX ampersand dotlessj 20
KPX ampersand jcircumflex 20
KPX ampersand AE 20
KPX ampersand j 20
KPX ampersand Z 10
KPX ampersand Y -40
KPX ampersand X 10
KPX ampersand W -10
KPX ampersand V -10
KPX ampersand T -55
KPX ampersand J 30
KPX ampersand A 20
KPX quoteright Omegagreek -30
KPX quoteright Deltagreek -80
KPX quoteright tcommabelow 10
KPX quoteright tbar 10
KPX quoteright tcaron 10
KPX quoteright scircumflex -18
KPX quoteright gbreve -10
KPX quoteright ccaron -10
KPX quoteright ccircumflex -10
KPX quoteright udieresis -10
KPX quoteright ugrave -10
KPX quoteright otilde -10
KPX quoteright eth -10
KPX quoteright edieresis -10
KPX quoteright ecircumflex -10
KPX quoteright eacute -10
KPX quoteright egrave -10
KPX quoteright ccedilla -10
KPX quoteright adieresis -10
KPX quoteright acircumflex -10
KPX quoteright agrave -10
KPX quoteright AE -105
KPX quoteright scaron -18
KPX quoteright u -10
KPX quoteright t 10
KPX quoteright s -18
KPX quoteright q -10
KPX quoteright o -10
KPX quoteright g -10
KPX quoteright e -10
KPX quoteright d -10
KPX quoteright c -10
KPX quoteright a -10
KPX quoteright J -73
KPX quoteright A -105
KPX parenleft Omegagreek -10
KPX parenleft dotlessj 60
KPX parenleft tcommabelow -3
KPX parenleft tbar -3
KPX parenleft tcaron -3
KPX parenleft jcircumflex 60
KPX parenleft gbreve -10
KPX parenleft ccaron -10
KPX parenleft ccircumflex -10
KPX parenleft Ydieresis -10
KPX parenleft udieresis -25
KPX parenleft ugrave -25
KPX parenleft otilde -10
KPX parenleft eth -10
KPX parenleft edieresis -10
KPX parenleft ecircumflex -10
KPX parenleft eacute -10
KPX parenleft egrave -10
KPX parenleft ccedilla -10
KPX parenleft adieresis -10
KPX parenleft acircumflex -10
KPX parenleft agrave -10
KPX parenleft AE -10
KPX parenleft florin 20
KPX parenleft y -10
KPX parenleft w -10
KPX parenleft v -10
KPX parenleft u -25
KPX parenleft t -3
KPX parenleft q -10
KPX parenleft o -10
KPX parenleft j 60
KPX parenleft g -10
KPX parenleft f 20
KPX parenleft e -10
KPX parenleft d -10
KPX parenleft c -10
KPX parenleft a -10
KPX parenleft Y 10
KPX parenleft W 5
KPX parenleft V 5
KPX parenleft Q -18
KPX parenleft O -18
KPX parenleft G -18
KPX parenleft C -18
KPX parenleft A -10
KPX parenright X -10
KPX asterisk Omegagreek -30
KPX asterisk Deltagreek -65
KPX asterisk AE -70
KPX asterisk Z -30
KPX asterisk Y -10
KPX asterisk X -20
KPX asterisk T -20
KPX asterisk Q -35
KPX asterisk O -35
KPX asterisk M -15
KPX asterisk J -130
KPX asterisk G -35
KPX asterisk C -35
KPX asterisk A -40
KPX comma tcommabelow -45
KPX comma tbar -45
KPX comma tcaron -45
KPX comma gbreve -18
KPX comma ccaron -18
KPX comma ccircumflex -18
KPX comma Ydieresis -54
KPX comma udieresis -34
KPX comma ugrave -34
KPX comma otilde -18
KPX comma eth -18
KPX comma edieresis -18
KPX comma ecircumflex -18
KPX comma eacute -18
KPX comma egrave -18
KPX comma ccedilla -18
KPX comma adieresis -18
KPX comma acircumflex -18
KPX comma agrave -18
KPX comma y -54
KPX comma w -54
KPX comma v -54
KPX comma u -34
KPX comma t -45
KPX comma q -18
KPX comma o -18
KPX comma g -18
KPX comma e -18
KPX comma d -18
KPX comma c -18
KPX comma a -18
KPX comma Y -63
KPX comma W -45
KPX comma V -45
KPX comma U -10
KPX comma T -72
KPX comma Q -45
KPX comma O -45
KPX comma J 40
KPX comma G -45
KPX comma C -45
KPX hyphen zcaron -10
KPX hyphen Lslash 40
KPX hyphen z -10
KPX hyphen x -20
KPX hyphen Y -54
KPX hyphen X -30
KPX hyphen W -10
KPX hyphen V -10
KPX hyphen T -72
KPX hyphen S -27
KPX hyphen J -27
KPX slash mugreek -30
KPX slash Omegagreek -30
KPX slash Deltagreek -50
KPX slash tcommabelow -10
KPX slash zcaron -45
KPX slash tbar -10
KPX slash tcaron -10
KPX slash scircumflex -50
KPX slash lacute -22
KPX slash gbreve -50
KPX slash ccaron -50
KPX slash ccircumflex -50
KPX slash Ydieresis -20
KPX slash udieresis -50
KPX slash ugrave -50
KPX slash otilde -50
KPX slash eth -50
KPX slash edieresis -50
KPX slash ecircumflex -50
KPX slash eacute -50
KPX slash egrave -50
KPX slash ccedilla -50
KPX slash adieresis -50
KPX slash acircumflex -50
KPX slash agrave -50
KPX slash germandbls -34
KPX slash Thorn -10
KPX slash Idieresis -10
KPX slash Icircumflex -10
KPX slash Iacute -10
KPX slash Igrave -10
KPX slash AE -95
KPX slash scaron -50
KPX slash florin -30
KPX slash z -45
KPX slash y -20
KPX slash x -40
KPX slash w -20
KPX slash v -20
KPX slash u -50
KPX slash t -10
KPX slash s -50
KPX slash r -40
KPX slash q -50
KPX slash p -30
KPX slash o -50
KPX slash m -40
KPX slash l -22
KPX slash g -50
KPX slash f -30
KPX slash e -50
KPX slash d -50
KPX slash c -50
KPX slash a -50
KPX slash S -23
KPX slash R -10
KPX slash Q -30
KPX slash P -10
KPX slash O -30
KPX slash N -10
KPX slash M -40
KPX slash L -10
KPX slash K -10
KPX slash J -60
KPX slash I -10
KPX slash H -10
KPX slash G -30
KPX slash F -10
KPX slash E -10
KPX slash D -10
KPX slash C -30
KPX slash B -10
KPX slash A -70
KPX colon Y -10
KPX colon J 20
KPX at zcaron -10
KPX at scircumflex 10
KPX at scaron 10
KPX at z -10
KPX at s 10
KPX at Y -30
KPX at T -40
KPX at J -30
KPX A tcommabelow -13
KPX A tbar -13
KPX A tcaron -13
KPX A gbreve -4
KPX A ccaron -4
KPX A ccircumflex -4
KPX A Ydieresis -10
KPX A udieresis -10
KPX A ugrave -10
KPX A otilde -4
KPX A eth -4
KPX A edieresis -4
KPX A ecircumflex -4
KPX A eacute -4
KPX A egrave -4
KPX A ccedilla -4
KPX A adieresis -4
KPX A acircumflex -4
KPX A agrave -4
KPX A quoteright -45
KPX A quoteleft -50
KPX A florin -10
KPX A y -10
KPX A w -10
KPX A v -10
KPX A u -10
KPX A t -13
KPX A q -4
KPX A o -4
KPX A g -4
KPX A f -10
KPX A e -4
KPX A d -4
KPX A c -4
KPX A a -4
KPX A backslash -60
KPX A Y -43
KPX A X -5
KPX A W -20
KPX A V -20
KPX A U -10
KPX A T -70
KPX A S -12
KPX A Q -35
KPX A O -35
KPX A J 10
KPX A G -35
KPX A C -35
KPX A question -30
KPX A hyphen -10
KPX A asterisk -40
KPX A parenleft -10
KPX A quoteright -45
KPX B tcommabelow -10
KPX B tbar -10
KPX B tcaron -10
KPX B Lslash 10
KPX B lacute -5
KPX B Ydieresis -10
KPX B AE -10
KPX B quoteright -30
KPX B quoteleft -20
KPX B florin -20
KPX B y -10
KPX B w -10
KPX B v -10
KPX B t -10
KPX B p -10
KPX B l -5
KPX B f -20
KPX B backslash -20
KPX B Y -34
KPX B X -8
KPX B W -20
KPX B V -20
KPX B U -4
KPX B T -48
KPX B S -14
KPX B Q -17
KPX B O -17
KPX B G -17
KPX B C -17
KPX B question -30
KPX B asterisk -20
KPX B parenleft -10
KPX B quoteright -30
KPX C tcommabelow -5
KPX C tbar -5
KPX C tcaron -5
KPX C gbreve -10
KPX C ccaron -10
KPX C ccircumflex -10
KPX C Ydieresis -23
KPX C otilde -10
KPX C eth -10
KPX C edieresis -10
KPX C ecircumflex -10
KPX C eacute -10
KPX C egrave -10
KPX C ccedilla -10
KPX C adieresis -10
KPX C acircumflex -10
KPX C agrave -10
KPX C AE 6
KPX C florin -10
KPX C y -23
KPX C x 10
KPX C w -23
KPX C v -23
KPX C t -5
KPX C q -10
KPX C o -10
KPX C g -10
KPX C f -10
KPX C e -10
KPX C d -10
KPX C c -10
KPX C a -10
KPX C backslash 20
KPX C Z 5
KPX C X 8
KPX C Q -18
KPX C O -18
KPX C G -18
KPX C C -18
KPX C A 6
KPX C hyphen -20
KPX C parenright 40
KPX D zcaron -12
KPX D Lslash 20
KPX D AE -30
KPX D quoteright -18
KPX D quoteleft -18
KPX D florin -5
KPX D braceright -16
KPX D z -12
KPX D f -5
KPX D bracketright -16
KPX D backslash -20
KPX D Y -28
KPX D X -15
KPX D W -13
KPX D V -13
KPX D T -48
KPX D S -10
KPX D Q -20
KPX D O -20
KPX D J -28
KPX D G -20
KPX D C -20
KPX D A -11
KPX D question -15
KPX D slash -36
KPX D comma -27
KPX D asterisk -20
KPX D quoteright -18
KPX E dotlessj 6
KPX E scircumflex -8
KPX E jcircumflex 6
KPX E gbreve -16
KPX E ccaron -16
KPX E ccircumflex -16
KPX E Ydieresis -5
KPX E otilde -16
KPX E eth -16
KPX E edieresis -16
KPX E ecircumflex -16
KPX E eacute -16
KPX E egrave -16
KPX E ccedilla -16
KPX E adieresis -16
KPX E acircumflex -16
KPX E agrave -16
KPX E scaron -8
KPX E y -5
KPX E w -5
KPX E v -5
KPX E s -8
KPX E q -16
KPX E o -16
KPX E j 6
KPX E g -16
KPX E e -16
KPX E d -16
KPX E c -16
KPX E a -16
KPX E U -4
KPX E Q -33
KPX E O -33
KPX E G -33
KPX E C -33
KPX F scircumflex -15
KPX F imacron 39
KPX F itilde 50
KPX F gbreve -5
KPX F ccaron -5
KPX F ccircumflex -5
KPX F udieresis -16
KPX F ugrave -16
KPX F otilde -5
KPX F eth -5
KPX F idieresis 45
KPX F icircumflex 28
KPX F igrave 18
KPX F edieresis -5
KPX F ecircumflex -5
KPX F eacute -5
KPX F egrave -5
KPX F ccedilla -5
KPX F adieresis -5
KPX F acircumflex -5
KPX F agrave -5
KPX F AE -78
KPX F scaron -15
KPX F florin -10
KPX F u -16
KPX F s -15
KPX F q -5
KPX F p -6
KPX F o -5
KPX F g -5
KPX F f -10
KPX F e -5
KPX F d -5
KPX F c -5
KPX F a -5
KPX F backslash 30
KPX F T 12
KPX F Q -25
KPX F O -25
KPX F J -50
KPX F G -25
KPX F C -25
KPX F A -36
KPX F slash -20
KPX F comma -20
KPX F ampersand -10
KPX G Lslash 20
KPX G Ydieresis -8
KPX G y -8
KPX G w -8
KPX G v -8
KPX G Y -20
KPX G X -8
KPX G W -14
KPX G V -14
KPX G U -10
KPX G T -20
KPX G Q -14
KPX G O -14
KPX G G -14
KPX G C -14
KPX G question -10
KPX G asterisk -20
KPX H Ydieresis 6
KPX H florin -5
KPX H y 6
KPX H w 6
KPX H v 6
KPX H f -5
KPX I Ydieresis 6
KPX I florin -5
KPX I y 6
KPX I w 6
KPX I v 6
KPX I f -5
KPX J AE -8
KPX K tcommabelow -10
KPX K tbar -10
KPX K tcaron -10
KPX K imacron 30
KPX K itilde 38
KPX K gbreve -27
KPX K ccaron -27
KPX K ccircumflex -27
KPX K Ydieresis -28
KPX K udieresis -27
KPX K ugrave -27
KPX K otilde -27
KPX K eth -27
KPX K idieresis 48
KPX K igrave 10
KPX K edieresis -27
KPX K ecircumflex -27
KPX K eacute -27
KPX K egrave -27
KPX K ccedilla -27
KPX K adieresis -27
KPX K acircumflex -27
KPX K agrave -27
KPX K florin -10
KPX K braceright 20
KPX K y -28
KPX K w -28
KPX K v -28
KPX K u -27
KPX K t -10
KPX K q -27
KPX K o -27
KPX K g -27
KPX K f -10
KPX K e -27
KPX K d -27
KPX K c -27
KPX K b -5
KPX K a -27
KPX K bracketright 20
KPX K backslash 30
KPX K U -17
KPX K Q -43
KPX K O -43
KPX K G -43
KPX K C -43
KPX K at -20
KPX K slash 20
KPX K hyphen -36
KPX K asterisk -10
KPX K parenright 43
KPX K ampersand -10
KPX L tcommabelow -27
KPX L tbar -27
KPX L tcaron -27
KPX L lacute -10
KPX L gbreve -22
KPX L ccaron -22
KPX L ccircumflex -22
KPX L Ydieresis -63
KPX L udieresis -27
KPX L ugrave -27
KPX L otilde -22
KPX L eth -22
KPX L edieresis -22
KPX L ecircumflex -22
KPX L eacute -22
KPX L egrave -22
KPX L ccedilla -22
KPX L adieresis -22
KPX L acircumflex -22
KPX L agrave -22
KPX L AE 10
KPX L quoteright -103
KPX L quoteleft -95
KPX L braceright 30
KPX L y -63
KPX L x 10
KPX L w -63
KPX L v -63
KPX L u -27
KPX L t -27
KPX L q -22
KPX L o -22
KPX L l -10
KPX L g -22
KPX L e -22
KPX L d -22
KPX L c -22
KPX L a -22
KPX L bracketright 30
KPX L backslash -90
KPX L Z 10
KPX L Y -99
KPX L W -80
KPX L V -80
KPX L U -27
KPX L T -94
KPX L S -8
KPX L Q -44
KPX L O -44
KPX L J 10
KPX L G -44
KPX L C -44
KPX L A 10
KPX L at -10
KPX L question -30
KPX L slash 20
KPX L hyphen -63
KPX L comma 10
KPX L asterisk -110
KPX L parenright 40
KPX L quoteright -103
KPX L ampersand -10
KPX M tcommabelow -5
KPX M tbar -5
KPX M tcaron -5
KPX M quoteright -15
KPX M quoteleft -20
KPX M t -5
KPX M backslash -10
KPX M Y -3
KPX M T -4
KPX M asterisk -10
KPX M quoteright -15
KPX N Ydieresis 6
KPX N florin -5
KPX N y 6
KPX N w 6
KPX N v 6
KPX N f -5
KPX O zcaron -12
KPX O Lslash 20
KPX O AE -30
KPX O quoteright -18
KPX O quoteleft -20
KPX O florin -5
KPX O braceright -16
KPX O z -12
KPX O f -5
KPX O bracketright -16
KPX O backslash -20
KPX O Y -12
KPX O X -7
KPX O W -13
KPX O V -13
KPX O T -35
KPX O S -12
KPX O Q -20
KPX O O -20
KPX O J -20
KPX O G -20
KPX O C -20
KPX O A -11
KPX O question -15
KPX O slash -6
KPX O comma -27
KPX O asterisk -20
KPX O quoteright -18
KPX P itilde 10
KPX P Ydieresis 10
KPX P idieresis 14
KPX P icircumflex 10
KPX P AE -78
KPX P braceright -30
KPX P y 10
KPX P w 10
KPX P v 10
KPX P bracketright -30
KPX P Z -34
KPX P Y -5
KPX P X -30
KPX P T -12
KPX P S -15
KPX P Q -11
KPX P O -11
KPX P J -80
KPX P G -11
KPX P C -11
KPX P A -45
KPX P question -10
KPX P slash -50
KPX P comma -70
KPX P parenright -10
KPX P ampersand -25
KPX Q zcaron -12
KPX Q Lslash 20
KPX Q AE -30
KPX Q quoteright -18
KPX Q quoteleft -18
KPX Q florin -5
KPX Q braceright -16
KPX Q z -12
KPX Q f -5
KPX Q bracketright -16
KPX Q backslash -20
KPX Q Y -12
KPX Q X -7
KPX Q W -13
KPX Q V -13
KPX Q T -35
KPX Q S -12
KPX Q Q -20
KPX Q O -20
KPX Q J -20
KPX Q G -20
KPX Q C -20
KPX Q A -11
KPX Q question -15
KPX Q slash -6
KPX Q comma -27
KPX Q asterisk -20
KPX Q parenright 20
KPX Q quoteright -18
KPX R gbreve -18
KPX R ccaron -18
KPX R ccircumflex -18
KPX R Ydieresis 14
KPX R otilde -18
KPX R eth -18
KPX R edieresis -18
KPX R ecircumflex -18
KPX R eacute -18
KPX R egrave -18
KPX R ccedilla -18
KPX R adieresis -18
KPX R acircumflex -18
KPX R agrave -18
KPX R quoteright -15
KPX R quoteleft -15
KPX R florin -5
KPX R y 14
KPX R w 14
KPX R v 14
KPX R q -18
KPX R o -18
KPX R g -18
KPX R f -5
KPX R e -18
KPX R d -18
KPX R c -18
KPX R a -18
KPX R backslash -20
KPX R Y -15
KPX R W -5
KPX R V -5
KPX R U -4
KPX R T -25
KPX R Q -3
KPX R O -3
KPX R G -3
KPX R C -3
KPX R question -20
KPX R hyphen -35
KPX R quoteright -15
KPX S Ydieresis -24
KPX S AE -10
KPX S quoteright -40
KPX S quoteleft -30
KPX S florin -12
KPX S y -24
KPX S w -24
KPX S v -24
KPX S f -12
KPX S backslash -20
KPX S Y -31
KPX S X -7
KPX S W -36
KPX S V -36
KPX S U -10
KPX S T -39
KPX S Q -16
KPX S O -16
KPX S G -16
KPX S C -16
KPX S question -20
KPX S asterisk -25
KPX S quoteright -40
KPX T zcaron -38
KPX T scircumflex -54
KPX T imacron 37
KPX T itilde 59
KPX T gbreve -55
KPX T emacron -55
KPX T ccaron -55
KPX T ccircumflex -55
KPX T Ydieresis -37
KPX T udieresis -32
KPX T ugrave -32
KPX T otilde -55
KPX T eth -55
KPX T idieresis 62
KPX T icircumflex 30
KPX T igrave 20
KPX T edieresis -48
KPX T ecircumflex -55
KPX T eacute -55
KPX T egrave -55
KPX T ccedilla -55
KPX T adieresis -55
KPX T acircumflex -55
KPX T agrave -55
KPX T AE -88
KPX T scaron -54
KPX T quoteleft 20
KPX T florin -45
KPX T z -38
KPX T y -37
KPX T x -40
KPX T w -37
KPX T v -37
KPX T u -32
KPX T s -54
KPX T r -35
KPX T q -55
KPX T p -20
KPX T o -55
KPX T m -35
KPX T g -55
KPX T f -45
KPX T e -55
KPX T d -55
KPX T c -55
KPX T a -55
KPX T backslash 60
KPX T U -3
KPX T Q -25
KPX T O -25
KPX T M -4
KPX T J -63
KPX T G -25
KPX T C -25
KPX T A -61
KPX T at -30
KPX T slash -80
KPX T hyphen -63
KPX T comma -63
KPX T asterisk 20
KPX T ampersand -10
KPX U AE -17
KPX U Y -8
KPX U X -8
KPX U T -8
KPX U Q -12
KPX U O -12
KPX U J -16
KPX U G -12
KPX U C -12
KPX U A -7
KPX U question -10
KPX U comma -13
KPX V zcaron -16
KPX V scircumflex -5
KPX V imacron 30
KPX V itilde 40
KPX V gbreve -18
KPX V ccaron -18
KPX V ccircumflex -18
KPX V udieresis -10
KPX V ugrave -10
KPX V otilde -18
KPX V eth -18
KPX V idieresis 50
KPX V icircumflex 30
KPX V igrave 10
KPX V edieresis -18
KPX V ecircumflex -18
KPX V eacute -18
KPX V egrave -18
KPX V ccedilla -18
KPX V adieresis -18
KPX V acircumflex -18
KPX V agrave -18
KPX V AE -43
KPX V scaron -5
KPX V florin -18
KPX V z -16
KPX V x -12
KPX V u -10
KPX V s -5
KPX V r -10
KPX V q -18
KPX V p -15
KPX V o -18
KPX V m -10
KPX V g -18
KPX V f -18
KPX V e -18
KPX V d -18
KPX V c -18
KPX V a -18
KPX V backslash 30
KPX V X -4
KPX V Q -11
KPX V O -11
KPX V J -51
KPX V G -11
KPX V C -11
KPX V A -20
KPX V at -10
KPX V slash -40
KPX V hyphen -10
KPX V comma -36
KPX W zcaron -16
KPX W scircumflex -5
KPX W imacron 30
KPX W itilde 40
KPX W gbreve -18
KPX W ccaron -18
KPX W ccircumflex -18
KPX W udieresis -10
KPX W ugrave -10
KPX W otilde -18
KPX W eth -18
KPX W idieresis 50
KPX W icircumflex 30
KPX W igrave 10
KPX W edieresis -18
KPX W ecircumflex -18
KPX W eacute -18
KPX W egrave -18
KPX W ccedilla -18
KPX W adieresis -18
KPX W acircumflex -18
KPX W agrave -18
KPX W AE -43
KPX W scaron -5
KPX W florin -18
KPX W z -16
KPX W x -12
KPX W u -10
KPX W s -5
KPX W r -10
KPX W q -18
KPX W p -15
KPX W o -18
KPX W m -10
KPX W g -18
KPX W f -18
KPX W e -18
KPX W d -18
KPX W c -18
KPX W a -18
KPX W backslash 30
KPX W X -4
KPX W Q -11
KPX W O -11
KPX W J -51
KPX W G -11
KPX W C -11
KPX W A -20
KPX W at -10
KPX W slash -40
KPX W hyphen -10
KPX W comma -36
KPX X imacron 10
KPX X itilde 30
KPX X gbreve -15
KPX X ccaron -15
KPX X ccircumflex -15
KPX X Ydieresis -12
KPX X otilde -15
KPX X eth -15
KPX X idieresis 50
KPX X icircumflex 10
KPX X igrave 10
KPX X edieresis -15
KPX X ecircumflex -15
KPX X eacute -15
KPX X egrave -15
KPX X ccedilla -15
KPX X adieresis -15
KPX X acircumflex -15
KPX X agrave -15
KPX X florin -4
KPX X y -12
KPX X w -12
KPX X v -12
KPX X q -15
KPX X o -15
KPX X g -15
KPX X f -4
KPX X e -15
KPX X d -15
KPX X c -15
KPX X a -15
KPX X backslash 20
KPX X Q -22
KPX X O -22
KPX X G -22
KPX X C -22
KPX X slash 20
KPX X hyphen -30
KPX X parenleft -10
KPX X ampersand -10
KPX Y zcaron -28
KPX Y scircumflex -13
KPX Y imacron 30
KPX Y itilde 50
KPX Y gbreve -30
KPX Y ccaron -30
KPX Y ccircumflex -30
KPX Y udieresis -26
KPX Y ugrave -26
KPX Y otilde -30
KPX Y eth -30
KPX Y idieresis 60
KPX Y icircumflex 20
KPX Y igrave 20
KPX Y edieresis -30
KPX Y ecircumflex -30
KPX Y eacute -30
KPX Y egrave -30
KPX Y ccedilla -30
KPX Y adieresis -30
KPX Y acircumflex -30
KPX Y agrave -30
KPX Y AE -61
KPX Y scaron -13
KPX Y quoteright 10
KPX Y quoteleft 30
KPX Y florin -14
KPX Y z -28
KPX Y u -26
KPX Y s -13
KPX Y q -30
KPX Y p -10
KPX Y o -30
KPX Y g -30
KPX Y f -14
KPX Y e -30
KPX Y d -30
KPX Y c -30
KPX Y a -30
KPX Y backslash 60
KPX Y Q -10
KPX Y O -10
KPX Y M -4
KPX Y J -66
KPX Y G -10
KPX Y C -10
KPX Y A -36
KPX Y at -40
KPX Y colon -10
KPX Y slash -50
KPX Y hyphen -45
KPX Y comma -63
KPX Y quoteright 10
KPX Y ampersand -10
KPX Z tcommabelow -5
KPX Z tbar -5
KPX Z tcaron -5
KPX Z imacron 30
KPX Z itilde 47
KPX Z gbreve -21
KPX Z ccaron -21
KPX Z ccircumflex -21
KPX Z udieresis -10
KPX Z ugrave -10
KPX Z otilde -21
KPX Z eth -21
KPX Z idieresis 50
KPX Z icircumflex 30
KPX Z igrave 40
KPX Z edieresis -21
KPX Z ecircumflex -21
KPX Z eacute -21
KPX Z egrave -21
KPX Z ccedilla -21
KPX Z adieresis -21
KPX Z acircumflex -21
KPX Z agrave -21
KPX Z braceright 10
KPX Z u -10
KPX Z t -5
KPX Z q -21
KPX Z o -21
KPX Z g -21
KPX Z e -21
KPX Z d -21
KPX Z c -21
KPX Z a -21
KPX Z bracketright 10
KPX Z backslash 20
KPX Z Q -10
KPX Z O -10
KPX Z G -10
KPX Z C -10
KPX Z at -10
KPX Z hyphen -18
KPX Z parenright 7
KPX Z ampersand -10
KPX bracketleft Omegagreek -20
KPX bracketleft dotlessj 64
KPX bracketleft jcircumflex 64
KPX bracketleft gbreve -10
KPX bracketleft ccaron -10
KPX bracketleft ccircumflex -10
KPX bracketleft Ydieresis -18
KPX bracketleft udieresis -18
KPX bracketleft ugrave -18
KPX bracketleft otilde -10
KPX bracketleft eth -10
KPX bracketleft edieresis -10
KPX bracketleft ecircumflex -10
KPX bracketleft eacute -10
KPX bracketleft egrave -10
KPX bracketleft ccedilla -10
KPX bracketleft adieresis -10
KPX bracketleft acircumflex -10
KPX bracketleft agrave -10
KPX bracketleft florin 30
KPX bracketleft y -18
KPX bracketleft w -18
KPX bracketleft v -18
KPX bracketleft u -18
KPX bracketleft q -10
KPX bracketleft o -10
KPX bracketleft j 64
KPX bracketleft g -10
KPX bracketleft f 30
KPX bracketleft e -10
KPX bracketleft d -10
KPX bracketleft c -10
KPX bracketleft a -10
KPX bracketleft Z 12
KPX bracketleft Y 13
KPX bracketleft Q -10
KPX bracketleft O -10
KPX bracketleft G -10
KPX bracketleft C -10
KPX backslash mugreek 40
KPX backslash Deltagreek 30
KPX backslash dotlessj 104
KPX backslash zcaron 30
KPX backslash scircumflex 40
KPX backslash jcircumflex 104
KPX backslash Ydieresis -10
KPX backslash AE 30
KPX backslash scaron 40
KPX backslash florin 90
KPX backslash z 30
KPX backslash y 32
KPX backslash x 35
KPX backslash w -10
KPX backslash v -10
KPX backslash s 40
KPX backslash p 32
KPX backslash j 104
KPX backslash f 90
KPX backslash Z 20
KPX backslash Y -85
KPX backslash X 20
KPX backslash W -65
KPX backslash V -65
KPX backslash U -25
KPX backslash T -80
KPX backslash S 15
KPX backslash Q -10
KPX backslash O -10
KPX backslash J 30
KPX backslash G -10
KPX backslash C -10
KPX backslash A 30
KPX a quoteright -18
KPX a quoteleft -18
KPX a backslash -30
KPX a question -10
KPX a asterisk -20
KPX a quoteright -18
KPX b tcommabelow -3
KPX b zcaron -10
KPX b tbar -3
KPX b tcaron -3
KPX b scircumflex -3
KPX b Ydieresis -4
KPX b scaron -3
KPX b quoteright -45
KPX b quoteleft -45
KPX b florin -17
KPX b braceright -10
KPX b z -10
KPX b y -4
KPX b x -12
KPX b w -4
KPX b v -4
KPX b t -3
KPX b s -3
KPX b f -17
KPX b bracketright -10
KPX b backslash -70
KPX b question -30
KPX b comma -10
KPX b asterisk -40
KPX b parenright -10
KPX b quoteright -45
KPX c gbreve -10
KPX c ccaron -10
KPX c ccircumflex -10
KPX c Ydieresis 6
KPX c otilde -10
KPX c eth -10
KPX c edieresis -10
KPX c ecircumflex -10
KPX c eacute -10
KPX c egrave -10
KPX c ccedilla -10
KPX c adieresis -10
KPX c acircumflex -10
KPX c agrave -10
KPX c y 6
KPX c x 10
KPX c w 6
KPX c v 6
KPX c q -10
KPX c o -10
KPX c g -10
KPX c e -10
KPX c d -10
KPX c c -10
KPX c a -10
KPX c backslash -10
KPX c slash 30
KPX c hyphen -30
KPX d itilde 18
KPX d idieresis 20
KPX d igrave 14
KPX e zcaron -10
KPX e udieresis -4
KPX e ugrave -4
KPX e quoteright -10
KPX e quoteleft -10
KPX e florin -8
KPX e z -10
KPX e u -4
KPX e f -8
KPX e backslash -50
KPX e question -20
KPX e asterisk -30
KPX e quoteright -10
KPX f space -20
KPX f dotlessj 30
KPX f tcommabelow 10
KPX f tbar 10
KPX f tcaron 10
KPX f lacute 25
KPX f jcircumflex 30
KPX f iogonek 30
KPX f imacron 90
KPX f itilde 106
KPX f gbreve -10
KPX f ccaron -10
KPX f ccircumflex -10
KPX f Ydieresis 15
KPX f otilde -10
KPX f eth -10
KPX f idieresis 108
KPX f icircumflex 80
KPX f iacute 30
KPX f igrave 63
KPX f edieresis -10
KPX f ecircumflex -10
KPX f eacute -10
KPX f egrave -10
KPX f ccedilla -10
KPX f adieresis -10
KPX f acircumflex -10
KPX f agrave -10
KPX f quoteright 50
KPX f quoteleft 60
KPX f braceright 40
KPX f y 15
KPX f x 10
KPX f w 15
KPX f v 15
KPX f t 10
KPX f q -10
KPX f o -10
KPX f l 25
KPX f j 30
KPX f i 30
KPX f g -10
KPX f e -10
KPX f d -10
KPX f c -10
KPX f b 45
KPX f a -10
KPX f bracketright 40
KPX f backslash 100
KPX f question 70
KPX f comma -21
KPX f asterisk 30
KPX f parenright 79
KPX f quoteright 50
KPX f exclam 40
KPX g y 14
KPX g backslash -30
KPX g question -20
KPX g comma -8
KPX h tcommabelow -5
KPX h tbar -5
KPX h tcaron -5
KPX h Ydieresis -5
KPX h udieresis -3
KPX h ugrave -3
KPX h quoteright -27
KPX h quoteleft -27
KPX h y -5
KPX h x -6
KPX h w -5
KPX h v -5
KPX h u -3
KPX h t -5
KPX h backslash -75
KPX h question -25
KPX h asterisk -55
KPX h quoteright -27
KPX i imacron 10
KPX i itilde 15
KPX i idieresis 20
KPX i quoteright -18
KPX i quoteleft -18
KPX i backslash 10
KPX i question -10
KPX i asterisk -20
KPX i quoteright -18
KPX j itilde 20
KPX j gbreve -4
KPX j ccaron -4
KPX j ccircumflex -4
KPX j otilde -4
KPX j eth -4
KPX j idieresis 10
KPX j edieresis -4
KPX j ecircumflex -4
KPX j eacute -4
KPX j egrave -4
KPX j ccedilla -4
KPX j adieresis -4
KPX j acircumflex -4
KPX j agrave -4
KPX j q -4
KPX j o -4
KPX j g -4
KPX j e -4
KPX j d -4
KPX j c -4
KPX j a -4
KPX j parenleft -10
KPX k lacute -6
KPX k gbreve -30
KPX k ccaron -30
KPX k ccircumflex -30
KPX k udieresis -20
KPX k ugrave -20
KPX k otilde -30
KPX k eth -30
KPX k edieresis -30
KPX k ecircumflex -30
KPX k eacute -30
KPX k egrave -30
KPX k ccedilla -30
KPX k adieresis -30
KPX k acircumflex -30
KPX k agrave -30
KPX k florin -4
KPX k u -20
KPX k q -30
KPX k o -30
KPX k l -6
KPX k g -30
KPX k f -4
KPX k e -30
KPX k d -30
KPX k c -30
KPX k a -30
KPX k backslash -30
KPX k at -20
KPX k question -20
KPX k slash 15
KPX k hyphen -36
KPX k parenleft -20
KPX k ampersand -20
KPX l gbreve -10
KPX l ccaron -10
KPX l ccircumflex -10
KPX l Ydieresis -10
KPX l udieresis -11
KPX l ugrave -11
KPX l otilde -10
KPX l eth -10
KPX l edieresis -10
KPX l ecircumflex -10
KPX l eacute -10
KPX l egrave -10
KPX l ccedilla -10
KPX l adieresis -10
KPX l acircumflex -10
KPX l agrave -10
KPX l quoteright -27
KPX l quoteleft -20
KPX l florin -6
KPX l y -10
KPX l w -10
KPX l v -10
KPX l u -11
KPX l q -10
KPX l o -10
KPX l g -10
KPX l f -6
KPX l e -10
KPX l d -10
KPX l c -10
KPX l a -10
KPX l question -20
KPX l hyphen -18
KPX l asterisk -30
KPX l quoteright -27
KPX l ampersand -5
KPX m tcommabelow -5
KPX m tbar -5
KPX m tcaron -5
KPX m Ydieresis -5
KPX m udieresis -3
KPX m ugrave -3
KPX m quoteright -27
KPX m quoteleft -30
KPX m y -5
KPX m x -6
KPX m w -5
KPX m v -5
KPX m u -3
KPX m t -5
KPX m backslash -75
KPX m question -25
KPX m asterisk -55
KPX m quoteright -27
KPX o tcommabelow -3
KPX o zcaron -10
KPX o tbar -3
KPX o tcaron -3
KPX o scircumflex -3
KPX o Ydieresis -4
KPX o scaron -3
KPX o quoteright -45
KPX o quoteleft -40
KPX o florin -17
KPX o braceright -10
KPX o z -10
KPX o y -4
KPX o x -12
KPX o w -4
KPX o v -4
KPX o t -3
KPX o s -3
KPX o f -17
KPX o bracketright -10
KPX o backslash -70
KPX o question -30
KPX o comma -10
KPX o asterisk -40
KPX o parenright -10
KPX o quoteright -45
KPX p tcommabelow -3
KPX p zcaron -10
KPX p tbar -3
KPX p tcaron -3
KPX p scircumflex -3
KPX p Ydieresis -4
KPX p scaron -3
KPX p quoteright -45
KPX p quoteleft -45
KPX p florin -17
KPX p braceright -10
KPX p z -10
KPX p y -4
KPX p x -12
KPX p w -4
KPX p v -4
KPX p t -3
KPX p s -3
KPX p f -17
KPX p bracketright -10
KPX p backslash -70
KPX p question -30
KPX p comma -10
KPX p asterisk -40
KPX p parenright -10
KPX p quoteright -45
KPX q dotlessj 13
KPX q jcircumflex 13
KPX q y 14
KPX q j 13
KPX q backslash -30
KPX q question -20
KPX q comma -8
KPX r gbreve -10
KPX r ccaron -10
KPX r ccircumflex -10
KPX r otilde -10
KPX r eth -10
KPX r edieresis -10
KPX r ecircumflex -10
KPX r eacute -10
KPX r egrave -10
KPX r ccedilla -10
KPX r adieresis -10
KPX r acircumflex -10
KPX r agrave -10
KPX r quoteright 20
KPX r quoteleft 20
KPX r q -10
KPX r o -10
KPX r g -10
KPX r e -10
KPX r d -10
KPX r c -10
KPX r a -10
KPX r question -10
KPX r slash -10
KPX r hyphen -20
KPX r comma -30
KPX r asterisk 20
KPX r quoteright 20
KPX r ampersand -10
KPX s tcommabelow -10
KPX s zcaron -5
KPX s tbar -10
KPX s tcaron -10
KPX s gbreve -10
KPX s ccaron -10
KPX s ccircumflex -10
KPX s Ydieresis -5
KPX s otilde -10
KPX s eth -10
KPX s edieresis -10
KPX s ecircumflex -10
KPX s eacute -10
KPX s egrave -10
KPX s ccedilla -10
KPX s adieresis -10
KPX s acircumflex -10
KPX s agrave -10
KPX s quoteright -27
KPX s quoteleft -30
KPX s florin -27
KPX s z -5
KPX s y -5
KPX s w -5
KPX s v -5
KPX s t -10
KPX s q -10
KPX s o -10
KPX s g -10
KPX s f -27
KPX s e -10
KPX s d -10
KPX s c -10
KPX s a -10
KPX s backslash -60
KPX s at -10
KPX s question -20
KPX s hyphen -18
KPX s asterisk -30
KPX s quoteright -27
KPX t gdot -20
KPX t gbreve -20
KPX t ccaron -20
KPX t ccircumflex -20
KPX t udieresis -5
KPX t ugrave -5
KPX t otilde -20
KPX t eth -20
KPX t edieresis -20
KPX t ecircumflex -20
KPX t eacute -20
KPX t egrave -20
KPX t ccedilla -20
KPX t adieresis -20
KPX t acircumflex -20
KPX t agrave -20
KPX t florin -5
KPX t u -5
KPX t q -20
KPX t o -20
KPX t g -12
KPX t f -5
KPX t e -20
KPX t d -20
KPX t c -20
KPX t a -20
KPX t hyphen -10
KPX t comma 10
KPX t parenright 40
KPX u quoteright -18
KPX u quoteleft -18
KPX u backslash -30
KPX u question -10
KPX u asterisk -20
KPX u quoteright -18
KPX v zcaron -6
KPX v udieresis -4
KPX v ugrave -4
KPX v quoteright -10
KPX v quoteleft -10
KPX v braceright -18
KPX v z -6
KPX v u -4
KPX v bracketright -18
KPX v backslash -37
KPX v at -10
KPX v question -30
KPX v comma -27
KPX v quoteright -10
KPX v ampersand -10
KPX w zcaron -6
KPX w udieresis -4
KPX w ugrave -4
KPX w quoteright -10
KPX w quoteleft -10
KPX w braceright -18
KPX w z -6
KPX w u -4
KPX w bracketright -18
KPX w backslash -37
KPX w at -10
KPX w question -30
KPX w comma -27
KPX w quoteright -10
KPX w ampersand -10
KPX x lacute -8
KPX x gdot -8
KPX x gbreve -8
KPX x ccaron -8
KPX x ccircumflex -8
KPX x udieresis -20
KPX x ugrave -20
KPX x otilde -8
KPX x eth -30
KPX x edieresis -8
KPX x ecircumflex -8
KPX x eacute -8
KPX x egrave -8
KPX x ccedilla -8
KPX x adieresis -8
KPX x acircumflex -8
KPX x agrave -8
KPX x florin -4
KPX x u -20
KPX x q -30
KPX x o -8
KPX x l -8
KPX x g -30
KPX x f -4
KPX x e -30
KPX x d -30
KPX x c -30
KPX x a -30
KPX x backslash -20
KPX x at -20
KPX x question -20
KPX x slash 15
KPX x hyphen -10
KPX x parenleft -20
KPX x ampersand -10
KPX y zcaron -6
KPX y udieresis -4
KPX y ugrave -4
KPX y quoteright -10
KPX y quoteleft -10
KPX y braceright -18
KPX y z -6
KPX y u -4
KPX y b -6
KPX y bracketright -18
KPX y backslash -37
KPX y at -10
KPX y question -30
KPX y comma -45
KPX y quoteright -10
KPX y ampersand -10
KPX z gbreve -12
KPX z ccaron -12
KPX z ccircumflex -12
KPX z otilde -12
KPX z eth -12
KPX z edieresis -12
KPX z ecircumflex -12
KPX z eacute -12
KPX z egrave -12
KPX z ccedilla -12
KPX z adieresis -12
KPX z acircumflex -12
KPX z agrave -12
KPX z q -12
KPX z o -12
KPX z g -12
KPX z e -12
KPX z d -12
KPX z c -12
KPX z a -12
KPX z backslash -30
KPX z question -40
KPX z hyphen -10
KPX z asterisk -10
KPX z ampersand -25
KPX braceleft Omegagreek -20
KPX braceleft dotlessj 64
KPX braceleft jcircumflex 64
KPX braceleft gbreve -10
KPX braceleft ccaron -10
KPX braceleft ccircumflex -10
KPX braceleft Ydieresis -18
KPX braceleft udieresis -18
KPX braceleft ugrave -18
KPX braceleft otilde -10
KPX braceleft eth -10
KPX braceleft edieresis -10
KPX braceleft ecircumflex -10
KPX braceleft eacute -10
KPX braceleft egrave -10
KPX braceleft ccedilla -10
KPX braceleft adieresis -10
KPX braceleft acircumflex -10
KPX braceleft agrave -10
KPX braceleft florin 30
KPX braceleft y -18
KPX braceleft w -18
KPX braceleft v -18
KPX braceleft u -18
KPX braceleft q -10
KPX braceleft o -10
KPX braceleft j 64
KPX braceleft g -10
KPX braceleft f 30
KPX braceleft e -10
KPX braceleft d -10
KPX braceleft c -10
KPX braceleft a -10
KPX braceleft Z 12
KPX braceleft Y 13
KPX braceleft Q -10
KPX braceleft O -10
KPX braceleft G -10
KPX braceleft C -10
KPX Igrave Ydieresis 6
KPX Igrave florin -5
KPX Igrave y 6
KPX Igrave w 6
KPX Igrave v 6
KPX Igrave f -5
KPX Iacute Ydieresis 6
KPX Iacute florin -5
KPX Iacute y 6
KPX Iacute w 6
KPX Iacute v 6
KPX Iacute f -5
KPX Icircumflex Ydieresis 6
KPX Icircumflex florin -5
KPX Icircumflex y 6
KPX Icircumflex w 6
KPX Icircumflex v 6
KPX Icircumflex f -5
KPX Idieresis Ydieresis 6
KPX Idieresis florin -5
KPX Idieresis y 6
KPX Idieresis w 6
KPX Idieresis v 6
KPX Idieresis f -5
KPX Eth quoteleft -20
KPX Eth Y -12
KPX Eth X -7
KPX Eth T -35
KPX Eth S -12
KPX Eth J -20
KPX Eth slash -6
KPX Thorn tcommabelow -10
KPX Thorn zcaron -20
KPX Thorn tbar -10
KPX Thorn tcaron -10
KPX Thorn quoteright -30
KPX Thorn quoteleft -30
KPX Thorn florin -20
KPX Thorn quotesinglbase -30
KPX Thorn braceright -65
KPX Thorn z -20
KPX Thorn x -22
KPX Thorn t -10
KPX Thorn f -20
KPX Thorn bracketright -55
KPX Thorn backslash -60
KPX Thorn Z -26
KPX Thorn Y -47
KPX Thorn X -40
KPX Thorn W -20
KPX Thorn V -20
KPX Thorn T -50
KPX Thorn S -30
KPX Thorn J -60
KPX Thorn comma -40
KPX Thorn asterisk -30
KPX Thorn quoteright -30
KPX germandbls Ydieresis -8
KPX germandbls udieresis -14
KPX germandbls ugrave -14
KPX germandbls quoteright -50
KPX germandbls quoteleft -20
KPX germandbls florin -40
KPX germandbls y -8
KPX germandbls w -8
KPX germandbls v -8
KPX germandbls u -14
KPX germandbls f -40
KPX germandbls backslash -30
KPX germandbls at -10
KPX germandbls question -30
KPX germandbls hyphen -20
KPX germandbls asterisk -40
KPX germandbls quoteright -50
KPX ccedilla dotlessj 30
KPX ccedilla jcircumflex 30
KPX ccedilla gbreve -10
KPX ccedilla ccaron -10
KPX ccedilla ccircumflex -10
KPX ccedilla Ydieresis 6
KPX ccedilla otilde -10
KPX ccedilla eth -10
KPX ccedilla edieresis -10
KPX ccedilla ecircumflex -10
KPX ccedilla eacute -10
KPX ccedilla egrave -10
KPX ccedilla ccedilla -10
KPX ccedilla adieresis -10
KPX ccedilla acircumflex -10
KPX ccedilla agrave -10
KPX ccedilla y 6
KPX ccedilla x 10
KPX ccedilla w 6
KPX ccedilla v 6
KPX ccedilla q -10
KPX ccedilla o -10
KPX ccedilla j 30
KPX ccedilla g -10
KPX ccedilla e -10
KPX ccedilla d -10
KPX ccedilla c -10
KPX ccedilla a -10
KPX ccedilla backslash -10
KPX ccedilla slash 30
KPX ccedilla hyphen -30
KPX igrave imacron 10
KPX igrave itilde 15
KPX igrave idieresis 20
KPX igrave quoteright -18
KPX igrave quoteleft -18
KPX igrave backslash -30
KPX igrave question -10
KPX igrave asterisk -20
KPX igrave quoteright -18
KPX iacute imacron 10
KPX iacute itilde 15
KPX iacute hbar 7
KPX iacute thorn 6
KPX iacute idieresis 20
KPX iacute germandbls 6
KPX iacute quoteright -18
KPX iacute quoteleft -18
KPX iacute k 6
KPX iacute h 7
KPX iacute b 6
KPX iacute backslash -30
KPX iacute question -10
KPX iacute asterisk -20
KPX iacute quoteright -18
KPX idieresis imacron 10
KPX idieresis itilde 15
KPX idieresis idieresis 20
KPX idieresis quoteright -18
KPX idieresis quoteleft -18
KPX idieresis backslash -30
KPX idieresis question -10
KPX idieresis asterisk -20
KPX idieresis quoteright -18
KPX eth tcommabelow -3
KPX eth zcaron -10
KPX eth tbar -3
KPX eth tcaron -3
KPX eth scircumflex -3
KPX eth Ydieresis -4
KPX eth scaron -3
KPX eth quoteright -45
KPX eth quoteleft -45
KPX eth florin -17
KPX eth braceright -10
KPX eth z -10
KPX eth y -4
KPX eth x -12
KPX eth w -4
KPX eth v -4
KPX eth t -3
KPX eth s -3
KPX eth f -17
KPX eth bracketright -10
KPX eth backslash -70
KPX eth question -30
KPX eth comma -10
KPX eth asterisk -40
KPX eth parenright -10
KPX eth quoteright -45
KPX thorn tcommabelow -3
KPX thorn zcaron -10
KPX thorn tbar -3
KPX thorn tcaron -3
KPX thorn scircumflex -3
KPX thorn Ydieresis -4
KPX thorn scaron -3
KPX thorn quoteright -45
KPX thorn quoteleft -45
KPX thorn florin -17
KPX thorn braceright -10
KPX thorn z -10
KPX thorn y -4
KPX thorn x -12
KPX thorn w -4
KPX thorn v -4
KPX thorn t -3
KPX thorn s -3
KPX thorn f -17
KPX thorn bracketright -10
KPX thorn backslash -70
KPX thorn question -30
KPX thorn comma -10
KPX thorn asterisk -40
KPX thorn parenright -10
KPX thorn quoteright -45
KPX Aogonek dotlessj 42
KPX Aogonek tcommabelow -13
KPX Aogonek tbar -13
KPX Aogonek tcaron -13
KPX Aogonek jcircumflex 42
KPX Aogonek gbreve -4
KPX Aogonek ccaron -4
KPX Aogonek ccircumflex -4
KPX Aogonek Ydieresis -10
KPX Aogonek udieresis -10
KPX Aogonek ugrave -10
KPX Aogonek otilde -4
KPX Aogonek eth -4
KPX Aogonek edieresis -4
KPX Aogonek ecircumflex -4
KPX Aogonek eacute -4
KPX Aogonek egrave -4
KPX Aogonek ccedilla -4
KPX Aogonek adieresis -4
KPX Aogonek acircumflex -4
KPX Aogonek agrave -4
KPX Aogonek quoteright -45
KPX Aogonek quoteleft -50
KPX Aogonek florin 10
KPX Aogonek y -10
KPX Aogonek w -10
KPX Aogonek v -10
KPX Aogonek u -10
KPX Aogonek t -13
KPX Aogonek q -4
KPX Aogonek o -4
KPX Aogonek j 42
KPX Aogonek g -4
KPX Aogonek f 10
KPX Aogonek e -4
KPX Aogonek d -4
KPX Aogonek c -4
KPX Aogonek a -4
KPX Aogonek backslash -60
KPX Aogonek Y -43
KPX Aogonek X -5
KPX Aogonek W -20
KPX Aogonek V -20
KPX Aogonek U -10
KPX Aogonek T -70
KPX Aogonek S -12
KPX Aogonek Q -35
KPX Aogonek O -35
KPX Aogonek J 10
KPX Aogonek G -35
KPX Aogonek C -35
KPX Aogonek question -30
KPX Aogonek hyphen -10
KPX Aogonek asterisk -40
KPX Aogonek parenleft -10
KPX Aogonek quoteright -45
KPX aogonek quoteright -18
KPX aogonek quoteleft -18
KPX aogonek backslash -30
KPX aogonek question -10
KPX aogonek asterisk -20
KPX aogonek quoteright -18
KPX Dcaron quoteleft -20
KPX Dcaron Y -12
KPX Dcaron X -7
KPX Dcaron T -35
KPX Dcaron S -12
KPX Dcaron J -20
KPX Dcaron slash -6
KPX dcaron zcaron -30
KPX dcaron scircumflex -11
KPX dcaron rcaron 2
KPX dcaron jcircumflex 73
KPX dcaron imacron 83
KPX dcaron hbar 42
KPX dcaron gbreve -31
KPX dcaron ccaron -31
KPX dcaron ccircumflex -31
KPX dcaron Ydieresis -31
KPX dcaron udieresis -32
KPX dcaron ugrave -32
KPX dcaron otilde -31
KPX dcaron eth -31
KPX dcaron idieresis 104
KPX dcaron icircumflex 60
KPX dcaron igrave 70
KPX dcaron edieresis -31
KPX dcaron ecircumflex -31
KPX dcaron eacute -31
KPX dcaron egrave -31
KPX dcaron ccedilla -31
KPX dcaron adieresis -31
KPX dcaron acircumflex -31
KPX dcaron agrave -31
KPX dcaron scaron -31
KPX dcaron z -30
KPX dcaron y -30
KPX dcaron x -30
KPX dcaron w -30
KPX dcaron v -31
KPX dcaron u -32
KPX dcaron s -31
KPX dcaron r -31
KPX dcaron q -31
KPX dcaron p -32
KPX dcaron o -31
KPX dcaron m -31
KPX dcaron g -31
KPX dcaron e -41
KPX dcaron d -32
KPX dcaron c -31
KPX dcaron a -31
KPX Eogonek dotlessj 6
KPX Eogonek scircumflex -8
KPX Eogonek jcircumflex 6
KPX Eogonek gbreve -16
KPX Eogonek ccaron -16
KPX Eogonek ccircumflex -16
KPX Eogonek Ydieresis -5
KPX Eogonek otilde -16
KPX Eogonek eth -16
KPX Eogonek edieresis -16
KPX Eogonek ecircumflex -16
KPX Eogonek eacute -16
KPX Eogonek egrave -16
KPX Eogonek ccedilla -16
KPX Eogonek adieresis -16
KPX Eogonek acircumflex -16
KPX Eogonek agrave -16
KPX Eogonek scaron -8
KPX Eogonek y -5
KPX Eogonek w -5
KPX Eogonek v -5
KPX Eogonek s -8
KPX Eogonek q -16
KPX Eogonek o -16
KPX Eogonek j 6
KPX Eogonek g -16
KPX Eogonek e -16
KPX Eogonek d -16
KPX Eogonek c -16
KPX Eogonek a -16
KPX Eogonek U -4
KPX Eogonek Q -33
KPX Eogonek O -33
KPX Eogonek G -33
KPX Eogonek C -33
KPX eogonek zcaron -10
KPX eogonek udieresis -4
KPX eogonek ugrave -4
KPX eogonek quoteright -10
KPX eogonek quoteleft -10
KPX eogonek florin -8
KPX eogonek z -10
KPX eogonek u -4
KPX eogonek f -8
KPX eogonek backslash -50
KPX eogonek question -20
KPX eogonek asterisk -30
KPX eogonek quoteright -10
KPX Iogonek Ydieresis 6
KPX Iogonek florin -5
KPX Iogonek y 6
KPX Iogonek w 6
KPX Iogonek v 6
KPX Iogonek f -5
KPX iogonek imacron 10
KPX iogonek itilde 15
KPX iogonek idieresis 20
KPX iogonek quoteright -18
KPX iogonek quoteleft -18
KPX iogonek backslash -30
KPX iogonek question -10
KPX iogonek asterisk -20
KPX iogonek quoteright -18
KPX jcircumflex itilde 20
KPX jcircumflex gbreve -4
KPX jcircumflex ccaron -4
KPX jcircumflex ccircumflex -4
KPX jcircumflex otilde -4
KPX jcircumflex eth -4
KPX jcircumflex idieresis 10
KPX jcircumflex edieresis -4
KPX jcircumflex ecircumflex -4
KPX jcircumflex eacute -4
KPX jcircumflex egrave -4
KPX jcircumflex ccedilla -4
KPX jcircumflex adieresis -4
KPX jcircumflex acircumflex -4
KPX jcircumflex agrave -4
KPX jcircumflex q -4
KPX jcircumflex o -4
KPX jcircumflex g -4
KPX jcircumflex e -4
KPX jcircumflex d -4
KPX jcircumflex c -4
KPX jcircumflex a -4
KPX jcircumflex parenleft -10
KPX lcedilla gbreve -10
KPX lcedilla ccaron -10
KPX lcedilla ccircumflex -10
KPX lcedilla Ydieresis -10
KPX lcedilla udieresis -11
KPX lcedilla ugrave -11
KPX lcedilla otilde -10
KPX lcedilla eth -10
KPX lcedilla edieresis -10
KPX lcedilla ecircumflex -10
KPX lcedilla eacute -10
KPX lcedilla egrave -10
KPX lcedilla ccedilla -10
KPX lcedilla adieresis -10
KPX lcedilla acircumflex -10
KPX lcedilla agrave -10
KPX lcedilla quoteright -27
KPX lcedilla quoteleft -20
KPX lcedilla florin -6
KPX lcedilla y -10
KPX lcedilla w -10
KPX lcedilla v -10
KPX lcedilla u -11
KPX lcedilla q -10
KPX lcedilla o -10
KPX lcedilla g -10
KPX lcedilla f -6
KPX lcedilla e -10
KPX lcedilla d -10
KPX lcedilla c -10
KPX lcedilla a -10
KPX lcedilla question -20
KPX lcedilla hyphen -18
KPX lcedilla asterisk -30
KPX lcedilla quoteright -27
KPX lcedilla ampersand -5
KPX scedilla tcommabelow -10
KPX scedilla zcaron -5
KPX scedilla tbar -10
KPX scedilla tcaron -10
KPX scedilla gbreve -10
KPX scedilla ccaron -10
KPX scedilla ccircumflex -10
KPX scedilla Ydieresis -5
KPX scedilla otilde -10
KPX scedilla eth -10
KPX scedilla edieresis -10
KPX scedilla ecircumflex -10
KPX scedilla eacute -10
KPX scedilla egrave -10
KPX scedilla ccedilla -10
KPX scedilla adieresis -10
KPX scedilla acircumflex -10
KPX scedilla agrave -10
KPX scedilla quoteright -27
KPX scedilla quoteleft -30
KPX scedilla florin -27
KPX scedilla z -5
KPX scedilla y -5
KPX scedilla w -5
KPX scedilla v -5
KPX scedilla t -10
KPX scedilla q -10
KPX scedilla o -10
KPX scedilla g -10
KPX scedilla f -27
KPX scedilla e -10
KPX scedilla d -10
KPX scedilla c -10
KPX scedilla a -10
KPX scedilla backslash -60
KPX scedilla at -10
KPX scedilla question -20
KPX scedilla hyphen -18
KPX scedilla asterisk -30
KPX scedilla quoteright -27
KPX tcedilla dotlessj 30
KPX tcedilla jcircumflex 30
KPX tcedilla gdot -20
KPX tcedilla gbreve -20
KPX tcedilla ccaron -20
KPX tcedilla ccircumflex -20
KPX tcedilla udieresis -5
KPX tcedilla ugrave -5
KPX tcedilla otilde -20
KPX tcedilla eth -20
KPX tcedilla edieresis -20
KPX tcedilla ecircumflex -20
KPX tcedilla eacute -20
KPX tcedilla egrave -20
KPX tcedilla ccedilla -20
KPX tcedilla adieresis -20
KPX tcedilla acircumflex -20
KPX tcedilla agrave -20
KPX tcedilla florin -5
KPX tcedilla u -5
KPX tcedilla q -20
KPX tcedilla o -20
KPX tcedilla j 30
KPX tcedilla g -12
KPX tcedilla f -5
KPX tcedilla e -20
KPX tcedilla d -20
KPX tcedilla c -20
KPX tcedilla a -20
KPX tcedilla hyphen -10
KPX tcedilla comma 10
KPX tcedilla parenright 40
KPX Tbar zcaron -38
KPX Tbar scircumflex -54
KPX Tbar imacron 37
KPX Tbar itilde 59
KPX Tbar gbreve -55
KPX Tbar emacron -55
KPX Tbar ccaron -55
KPX Tbar ccircumflex -55
KPX Tbar Ydieresis -37
KPX Tbar udieresis -32
KPX Tbar ugrave -32
KPX Tbar otilde -55
KPX Tbar eth -55
KPX Tbar idieresis 62
KPX Tbar icircumflex 30
KPX Tbar igrave 20
KPX Tbar edieresis -48
KPX Tbar ecircumflex -55
KPX Tbar eacute -55
KPX Tbar egrave -55
KPX Tbar ccedilla -55
KPX Tbar adieresis -55
KPX Tbar acircumflex -55
KPX Tbar agrave -55
KPX Tbar AE -88
KPX Tbar scaron -54
KPX Tbar quoteleft 20
KPX Tbar florin -45
KPX Tbar z -38
KPX Tbar y -37
KPX Tbar x -40
KPX Tbar w -37
KPX Tbar v -37
KPX Tbar u -32
KPX Tbar s -54
KPX Tbar r -35
KPX Tbar q -55
KPX Tbar p -20
KPX Tbar o -55
KPX Tbar m -35
KPX Tbar g -55
KPX Tbar f -45
KPX Tbar e -55
KPX Tbar d -55
KPX Tbar c -55
KPX Tbar a -55
KPX Tbar backslash 60
KPX Tbar U -3
KPX Tbar Q -25
KPX Tbar O -25
KPX Tbar M -4
KPX Tbar J -63
KPX Tbar G -25
KPX Tbar C -25
KPX Tbar A -61
KPX Tbar at -30
KPX Tbar slash -80
KPX Tbar hyphen -63
KPX Tbar comma -63
KPX Tbar asterisk 20
KPX Tbar ampersand -10
KPX uogonek dotlessj 16
KPX uogonek jcircumflex 16
KPX uogonek quoteright -18
KPX uogonek quoteleft -18
KPX uogonek j 16
KPX uogonek backslash -30
KPX uogonek question -10
KPX uogonek asterisk -20
KPX uogonek quoteright -18
KPX tcommabelow gdot -20
KPX tcommabelow gbreve -20
KPX tcommabelow ccaron -20
KPX tcommabelow ccircumflex -20
KPX tcommabelow udieresis -5
KPX tcommabelow ugrave -5
KPX tcommabelow otilde -20
KPX tcommabelow eth -20
KPX tcommabelow edieresis -20
KPX tcommabelow ecircumflex -20
KPX tcommabelow eacute -20
KPX tcommabelow egrave -20
KPX tcommabelow ccedilla -20
KPX tcommabelow adieresis -20
KPX tcommabelow acircumflex -20
KPX tcommabelow agrave -20
KPX tcommabelow florin -5
KPX tcommabelow u -5
KPX tcommabelow q -20
KPX tcommabelow o -20
KPX tcommabelow g -12
KPX tcommabelow f -5
KPX tcommabelow e -20
KPX tcommabelow d -20
KPX tcommabelow c -20
KPX tcommabelow a -20
KPX tcommabelow hyphen -10
KPX tcommabelow comma 10
KPX tcommabelow parenright 40
KPX dotlessj itilde 20
KPX dotlessj gbreve -4
KPX dotlessj ccaron -4
KPX dotlessj ccircumflex -4
KPX dotlessj otilde -4
KPX dotlessj eth -4
KPX dotlessj idieresis 10
KPX dotlessj edieresis -4
KPX dotlessj ecircumflex -4
KPX dotlessj eacute -4
KPX dotlessj egrave -4
KPX dotlessj ccedilla -4
KPX dotlessj adieresis -4
KPX dotlessj acircumflex -4
KPX dotlessj agrave -4
KPX dotlessj q -4
KPX dotlessj o -4
KPX dotlessj g -4
KPX dotlessj e -4
KPX dotlessj d -4
KPX dotlessj c -4
KPX dotlessj a -4
KPX dotlessj parenleft -10
KPX Deltagreek quoteright -45
KPX Deltagreek quoteleft -45
KPX Deltagreek backslash -70
KPX Deltagreek question -30
KPX Deltagreek asterisk -60
KPX Deltagreek quoteright -45
KPX Omegagreek Omegagreek -20
KPX Omegagreek quoteright -40
KPX Omegagreek quoteleft -40
KPX Omegagreek backslash -60
KPX Omegagreek question -35
KPX Omegagreek asterisk -30
KPX Omegagreek quoteright -40
KPX mugreek backslash -50
KPX mugreek question -10
KPX pi guilsinglright 10
KPX pi backslash -10
KPX quoteleft Omegagreek -30
KPX quoteleft Deltagreek -80
KPX quoteleft tcommabelow 10
KPX quoteleft tbar 10
KPX quoteleft tcaron 10
KPX quoteleft scircumflex -20
KPX quoteleft gdot -30
KPX quoteleft gbreve -30
KPX quoteleft edot -30
KPX quoteleft dcroat -30
KPX quoteleft ccaron -30
KPX quoteleft cdot -30
KPX quoteleft ccircumflex -30
KPX quoteleft udieresis -10
KPX quoteleft ugrave -10
KPX quoteleft otilde -30
KPX quoteleft eth -10
KPX quoteleft edieresis -30
KPX quoteleft ecircumflex -30
KPX quoteleft eacute -30
KPX quoteleft egrave -30
KPX quoteleft ccedilla -30
KPX quoteleft adieresis -30
KPX quoteleft acircumflex -30
KPX quoteleft aacute -30
KPX quoteleft agrave -30
KPX quoteleft AE -95
KPX quoteleft scaron -20
KPX quoteleft florin 30
KPX quoteleft u -10
KPX quoteleft t 10
KPX quoteleft s -20
KPX quoteleft r -20
KPX quoteleft q -10
KPX quoteleft o -30
KPX quoteleft m -20
KPX quoteleft g -10
KPX quoteleft f 30
KPX quoteleft e -10
KPX quoteleft d -10
KPX quoteleft c -10
KPX quoteleft a -10
KPX quoteleft Q -10
KPX quoteleft O -10
KPX quoteleft M -15
KPX quoteleft J -70
KPX quoteleft G -10
KPX quoteleft C -10
KPX quoteleft A -85
KPX quoteright Omegagreek -30
KPX quoteright Deltagreek -80
KPX quoteright tcommabelow 10
KPX quoteright tbar 10
KPX quoteright tcaron 10
KPX quoteright scircumflex -18
KPX quoteright gbreve -10
KPX quoteright ccaron -10
KPX quoteright ccircumflex -10
KPX quoteright udieresis -10
KPX quoteright ugrave -10
KPX quoteright otilde -10
KPX quoteright eth -10
KPX quoteright edieresis -10
KPX quoteright ecircumflex -10
KPX quoteright eacute -10
KPX quoteright egrave -10
KPX quoteright ccedilla -10
KPX quoteright adieresis -10
KPX quoteright acircumflex -10
KPX quoteright agrave -10
KPX quoteright AE -105
KPX quoteright scaron -18
KPX quoteright u -10
KPX quoteright t 10
KPX quoteright s -18
KPX quoteright q -10
KPX quoteright o -10
KPX quoteright g -10
KPX quoteright e -10
KPX quoteright d -10
KPX quoteright c -10
KPX quoteright a -10
KPX quoteright J -73
KPX quoteright A -105
KPX quotesinglbase pi -20
KPX quotesinglbase dotlessj 40
KPX quotesinglbase tcommabelow -40
KPX quotesinglbase tbar -40
KPX quotesinglbase tcaron -40
KPX quotesinglbase lacute -10
KPX quotesinglbase jcircumflex 40
KPX quotesinglbase iogonek -20
KPX quotesinglbase imacron -20
KPX quotesinglbase itilde -20
KPX quotesinglbase gbreve -20
KPX quotesinglbase ccaron -20
KPX quotesinglbase ccircumflex -20
KPX quotesinglbase Ydieresis -80
KPX quotesinglbase yacute -80
KPX quotesinglbase udieresis -10
KPX quotesinglbase ugrave -10
KPX quotesinglbase otilde -20
KPX quotesinglbase eth -20
KPX quotesinglbase iacute -20
KPX quotesinglbase edieresis -20
KPX quotesinglbase ecircumflex -20
KPX quotesinglbase eacute -20
KPX quotesinglbase egrave -20
KPX quotesinglbase ccedilla -20
KPX quotesinglbase adieresis -20
KPX quotesinglbase acircumflex -20
KPX quotesinglbase agrave -20
KPX quotesinglbase Thorn -30
KPX quotesinglbase Idieresis -30
KPX quotesinglbase Icircumflex -30
KPX quotesinglbase Iacute -30
KPX quotesinglbase Igrave -30
KPX quotesinglbase y -60
KPX quotesinglbase w -80
KPX quotesinglbase v -80
KPX quotesinglbase u -10
KPX quotesinglbase t -40
KPX quotesinglbase r -10
KPX quotesinglbase q -20
KPX quotesinglbase o -20
KPX quotesinglbase m -10
KPX quotesinglbase l -10
KPX quotesinglbase j 40
KPX quotesinglbase i -20
KPX quotesinglbase g -20
KPX quotesinglbase e -20
KPX quotesinglbase d -20
KPX quotesinglbase c -20
KPX quotesinglbase a -20
KPX quotesinglbase Y -120
KPX quotesinglbase W -100
KPX quotesinglbase V -100
KPX quotesinglbase U -50
KPX quotesinglbase T -100
KPX quotesinglbase R -30
KPX quotesinglbase Q -60
KPX quotesinglbase P -30
KPX quotesinglbase O -60
KPX quotesinglbase N -30
KPX quotesinglbase M -20
KPX quotesinglbase L -30
KPX quotesinglbase K -30
KPX quotesinglbase J 20
KPX quotesinglbase I -30
KPX quotesinglbase H -30
KPX quotesinglbase G -60
KPX quotesinglbase F -30
KPX quotesinglbase E -30
KPX quotesinglbase D -30
KPX quotesinglbase C -60
KPX quotesinglbase B -30
KPX guilsinglleft Omegagreek -20
EndKernPairs
EndKernData
EndFontMetrics
