[
  {
    "model": "auth.user",
    "pk": 1,
    "fields": {
      "password": "pbkdf2_sha256$180000$IDLQyfL4CpFj$EEURZJR5TCsO0oG/hjlyiJ02JPQG5Cx0zoJ67zI8vH0=",
      "last_login": "2020-02-06T08:53:15.369Z",
      "is_superuser": true,
      "username": "denard",
      "first_name": "",
      "last_name": "",
      "email": "db@gmail.com",
      "is_staff": true,
      "is_active": true,
      "date_joined": "2020-01-29T09:28:55.589Z",
      "groups": [],
      "user_permissions": []
    }
  },
  {
    "model": "auth.user",
    "pk": 3,
    "fields": {
      "password": "pbkdf2_sha256$180000$DmEdefjEIgKo$ChUw9IMQePHAz6E3+hgq765SOrcuQxbBQRfUZxm5hf8=",
      "last_login": null,
      "is_superuser": false,
      "username": "manjola",
      "first_name": "",
      "last_name": "",
      "email": "",
      "is_staff": false,
      "is_active": true,
      "date_joined": "2020-01-29T09:38:19.080Z",
      "groups": [],
      "user_permissions": []
    }
  },
  {
    "model": "auth.user",
    "pk": 4,
    "fields": {
      "password": "pbkdf2_sha256$180000$cAdvzndlmjOy$Fw0zmh3DgxNRTbXiNIeUdPx4Un9TvRtgx5KfCfPAGyI=",
      "last_login": "2020-02-03T07:55:15.032Z",
      "is_superuser": false,
      "username": "bazelli",
      "first_name": "",
      "last_name": "",
      "email": "db@gmail.com",
      "is_staff": false,
      "is_active": true,
      "date_joined": "2020-01-31T08:24:17Z",
      "groups": [],
      "user_permissions": []
    }
  }
]